solid OpenSCAD_Model
  facet normal 0.368124 0.929777 -0
    outer loop
      vertex 4.57713 9.72689 0
      vertex 3.32193 10.2239 0.4
      vertex 4.57713 9.72689 0.4
    endloop
  endfacet
  facet normal 0.368124 0.929777 0
    outer loop
      vertex 3.32193 10.2239 0.4
      vertex 4.57713 9.72689 0
      vertex 3.32193 10.2239 0
    endloop
  endfacet
  facet normal -0.368124 0.929777 0
    outer loop
      vertex -3.32193 10.2239 0
      vertex -4.57713 9.72689 0.4
      vertex -3.32193 10.2239 0.4
    endloop
  endfacet
  facet normal -0.368124 0.929777 0
    outer loop
      vertex -4.57713 9.72689 0.4
      vertex -3.32193 10.2239 0
      vertex -4.57713 9.72689 0
    endloop
  endfacet
  facet normal -0.904827 0.425779 0
    outer loop
      vertex -9.9951 3.95734 0
      vertex -9.4203 5.17885 0.4
      vertex -9.4203 5.17885 0
    endloop
  endfacet
  facet normal -0.904827 0.425779 0
    outer loop
      vertex -9.4203 5.17885 0.4
      vertex -9.9951 3.95734 0
      vertex -9.9951 3.95734 0.4
    endloop
  endfacet
  facet normal 0.684547 0.728969 -0
    outer loop
      vertex 7.83641 7.35888 0
      vertex 6.85231 8.28302 0.4
      vertex 7.83641 7.35888 0.4
    endloop
  endfacet
  facet normal 0.684547 0.728969 0
    outer loop
      vertex 6.85231 8.28302 0.4
      vertex 7.83641 7.35888 0
      vertex 6.85231 8.28302 0
    endloop
  endfacet
  facet normal 0.481754 0.876307 -0
    outer loop
      vertex 5.76014 9.07652 0
      vertex 4.57713 9.72689 0.4
      vertex 5.76014 9.07652 0.4
    endloop
  endfacet
  facet normal 0.481754 0.876307 0
    outer loop
      vertex 4.57713 9.72689 0.4
      vertex 5.76014 9.07652 0
      vertex 4.57713 9.72689 0
    endloop
  endfacet
  facet normal -0.982287 0.187381 0
    outer loop
      vertex -10.6652 1.34733 0
      vertex -10.4123 2.67342 0.4
      vertex -10.4123 2.67342 0
    endloop
  endfacet
  facet normal -0.982287 0.187381 0
    outer loop
      vertex -10.4123 2.67342 0.4
      vertex -10.6652 1.34733 0
      vertex -10.6652 1.34733 0.4
    endloop
  endfacet
  facet normal -0.770513 0.637424 0
    outer loop
      vertex -8.69693 6.31869 0
      vertex -7.83641 7.35888 0.4
      vertex -7.83641 7.35888 0
    endloop
  endfacet
  facet normal -0.770513 0.637424 0
    outer loop
      vertex -7.83641 7.35888 0.4
      vertex -8.69693 6.31869 0
      vertex -8.69693 6.31869 0.4
    endloop
  endfacet
  facet normal -0.125333 0.992115 0
    outer loop
      vertex -0.674997 10.7288 0
      vertex -2.01435 10.5596 0.4
      vertex -0.674997 10.7288 0.4
    endloop
  endfacet
  facet normal -0.125333 0.992115 0
    outer loop
      vertex -2.01435 10.5596 0.4
      vertex -0.674997 10.7288 0
      vertex -2.01435 10.5596 0
    endloop
  endfacet
  facet normal -0.684547 0.728969 0
    outer loop
      vertex -6.85231 8.28302 0
      vertex -7.83641 7.35888 0.4
      vertex -6.85231 8.28302 0.4
    endloop
  endfacet
  facet normal -0.684547 0.728969 0
    outer loop
      vertex -7.83641 7.35888 0.4
      vertex -6.85231 8.28302 0
      vertex -7.83641 7.35888 0
    endloop
  endfacet
  facet normal -0.684547 -0.728969 0
    outer loop
      vertex -7.83641 -7.35888 0
      vertex -6.85231 -8.28302 0.4
      vertex -7.83641 -7.35888 0.4
    endloop
  endfacet
  facet normal -0.684547 -0.728969 -0
    outer loop
      vertex -6.85231 -8.28302 0.4
      vertex -7.83641 -7.35888 0
      vertex -6.85231 -8.28302 0
    endloop
  endfacet
  facet normal -0.904827 -0.425779 0
    outer loop
      vertex -9.4203 -5.17885 0
      vertex -9.9951 -3.95734 0.4
      vertex -9.9951 -3.95734 0
    endloop
  endfacet
  facet normal -0.904827 -0.425779 0
    outer loop
      vertex -9.9951 -3.95734 0.4
      vertex -9.4203 -5.17885 0
      vertex -9.4203 -5.17885 0.4
    endloop
  endfacet
  facet normal 0.481754 -0.876307 0
    outer loop
      vertex 4.57713 -9.72689 0
      vertex 5.76014 -9.07652 0.4
      vertex 4.57713 -9.72689 0.4
    endloop
  endfacet
  facet normal 0.481754 -0.876307 0
    outer loop
      vertex 5.76014 -9.07652 0.4
      vertex 4.57713 -9.72689 0
      vertex 5.76014 -9.07652 0
    endloop
  endfacet
  facet normal 0.770513 0.637424 0
    outer loop
      vertex 8.1333 7 0.4
      vertex 7.83641 7.35888 0
      vertex 7.83641 7.35888 0.4
    endloop
  endfacet
  facet normal 0.770513 0.637424 0
    outer loop
      vertex 7.83641 7.35888 0
      vertex 8.1333 7 0.4
      vertex 8.1333 7 0
    endloop
  endfacet
  facet normal 0 1 -0
    outer loop
      vertex 0.674997 10.7288 0
      vertex -0.674997 10.7288 0.4
      vertex 0.674997 10.7288 0.4
    endloop
  endfacet
  facet normal 0 1 0
    outer loop
      vertex -0.674997 10.7288 0.4
      vertex 0.674997 10.7288 0
      vertex -0.674997 10.7288 0
    endloop
  endfacet
  facet normal 0.24869 0.968583 -0
    outer loop
      vertex 3.32193 10.2239 0
      vertex 2.01435 10.5596 0.4
      vertex 3.32193 10.2239 0.4
    endloop
  endfacet
  facet normal 0.24869 0.968583 0
    outer loop
      vertex 2.01435 10.5596 0.4
      vertex 3.32193 10.2239 0
      vertex 2.01435 10.5596 0
    endloop
  endfacet
  facet normal 0.587785 0.809017 -0
    outer loop
      vertex 6.85231 8.28302 0
      vertex 5.76014 9.07652 0.4
      vertex 6.85231 8.28302 0.4
    endloop
  endfacet
  facet normal 0.587785 0.809017 0
    outer loop
      vertex 5.76014 9.07652 0.4
      vertex 6.85231 8.28302 0
      vertex 5.76014 9.07652 0
    endloop
  endfacet
  facet normal -0.998027 0.0627908 0
    outer loop
      vertex -10.75 0 0
      vertex -10.6652 1.34733 0.4
      vertex -10.6652 1.34733 0
    endloop
  endfacet
  facet normal -0.998027 0.0627908 0
    outer loop
      vertex -10.6652 1.34733 0.4
      vertex -10.75 0 0
      vertex -10.75 0 0.4
    endloop
  endfacet
  facet normal 0 0 1
    outer loop
      vertex 6.13652 2.42962 0.4
      vertex 11 7 0.4
      vertex 8.1333 7 0.4
    endloop
  endfacet
  facet normal 0 0 1
    outer loop
      vertex 4.81119 4.51801 0.4
      vertex 8.1333 7 0.4
      vertex 7.83641 7.35888 0.4
    endloop
  endfacet
  facet normal 0 -0 1
    outer loop
      vertex 6.6 0 0.4
      vertex 11 7 0.4
      vertex 6.54796 0.827199 0.4
    endloop
  endfacet
  facet normal 0 0 1
    outer loop
      vertex 4.81119 4.51801 0.4
      vertex 7.83641 7.35888 0.4
      vertex 6.85231 8.28302 0.4
    endloop
  endfacet
  facet normal -0 0 1
    outer loop
      vertex 6.54796 -0.827199 0.4
      vertex 11 -8 0.4
      vertex 6.6 0 0.4
    endloop
  endfacet
  facet normal -0 0 1
    outer loop
      vertex 6.39265 -1.64135 0.4
      vertex 11 -8 0.4
      vertex 6.54796 -0.827199 0.4
    endloop
  endfacet
  facet normal 0 0 1
    outer loop
      vertex 11 7 0.4
      vertex 6.6 0 0.4
      vertex 11 -8 0.4
    endloop
  endfacet
  facet normal 0 0 1
    outer loop
      vertex 11 7 0.4
      vertex 6.39265 1.64135 0.4
      vertex 6.54796 0.827199 0.4
    endloop
  endfacet
  facet normal 0 0 1
    outer loop
      vertex 11 7 0.4
      vertex 6.13652 2.42962 0.4
      vertex 6.39265 1.64135 0.4
    endloop
  endfacet
  facet normal 0 0 1
    outer loop
      vertex 8.1333 7 0.4
      vertex 5.78362 3.17957 0.4
      vertex 6.13652 2.42962 0.4
    endloop
  endfacet
  facet normal 0 0 1
    outer loop
      vertex 4.207 5.08539 0.4
      vertex 6.85231 8.28302 0.4
      vertex 5.76014 9.07652 0.4
    endloop
  endfacet
  facet normal 0 0 1
    outer loop
      vertex 8.1333 7 0.4
      vertex 5.33951 3.87938 0.4
      vertex 5.78362 3.17957 0.4
    endloop
  endfacet
  facet normal 0 0 1
    outer loop
      vertex 8.1333 7 0.4
      vertex 4.81119 4.51801 0.4
      vertex 5.33951 3.87938 0.4
    endloop
  endfacet
  facet normal 0 0 1
    outer loop
      vertex 3.53646 5.57256 0.4
      vertex 5.76014 9.07652 0.4
      vertex 4.57713 9.72689 0.4
    endloop
  endfacet
  facet normal 0 0 1
    outer loop
      vertex 6.85231 8.28302 0.4
      vertex 4.207 5.08539 0.4
      vertex 4.81119 4.51801 0.4
    endloop
  endfacet
  facet normal 0 0 1
    outer loop
      vertex 5.76014 9.07652 0.4
      vertex 3.53646 5.57256 0.4
      vertex 4.207 5.08539 0.4
    endloop
  endfacet
  facet normal 0 0 1
    outer loop
      vertex 2.81014 5.97186 0.4
      vertex 4.57713 9.72689 0.4
      vertex 3.32193 10.2239 0.4
    endloop
  endfacet
  facet normal 0 0 1
    outer loop
      vertex 4.57713 9.72689 0.4
      vertex 2.81014 5.97186 0.4
      vertex 3.53646 5.57256 0.4
    endloop
  endfacet
  facet normal 0 0 1
    outer loop
      vertex 3.32193 10.2239 0.4
      vertex 2.03951 6.27697 0.4
      vertex 2.81014 5.97186 0.4
    endloop
  endfacet
  facet normal 0 0 1
    outer loop
      vertex 2.01435 10.5596 0.4
      vertex 2.03951 6.27697 0.4
      vertex 3.32193 10.2239 0.4
    endloop
  endfacet
  facet normal 0 0 1
    outer loop
      vertex 2.01435 10.5596 0.4
      vertex 1.23672 6.4831 0.4
      vertex 2.03951 6.27697 0.4
    endloop
  endfacet
  facet normal 0 0 1
    outer loop
      vertex 0.674997 10.7288 0.4
      vertex 1.23672 6.4831 0.4
      vertex 2.01435 10.5596 0.4
    endloop
  endfacet
  facet normal 0 0 1
    outer loop
      vertex 0.674997 10.7288 0.4
      vertex 0.414417 6.58698 0.4
      vertex 1.23672 6.4831 0.4
    endloop
  endfacet
  facet normal 0 0 1
    outer loop
      vertex 0.674997 10.7288 0.4
      vertex -0.414417 6.58698 0.4
      vertex 0.414417 6.58698 0.4
    endloop
  endfacet
  facet normal -0 0 1
    outer loop
      vertex -0.674997 10.7288 0.4
      vertex -0.414417 6.58698 0.4
      vertex 0.674997 10.7288 0.4
    endloop
  endfacet
  facet normal 0 0 1
    outer loop
      vertex -0.674997 10.7288 0.4
      vertex -1.23672 6.4831 0.4
      vertex -0.414417 6.58698 0.4
    endloop
  endfacet
  facet normal -0 0 1
    outer loop
      vertex -2.01435 10.5596 0.4
      vertex -1.23672 6.4831 0.4
      vertex -0.674997 10.7288 0.4
    endloop
  endfacet
  facet normal 0 0 1
    outer loop
      vertex -2.01435 10.5596 0.4
      vertex -2.03951 6.27697 0.4
      vertex -1.23672 6.4831 0.4
    endloop
  endfacet
  facet normal -0 0 1
    outer loop
      vertex -3.32193 10.2239 0.4
      vertex -2.03951 6.27697 0.4
      vertex -2.01435 10.5596 0.4
    endloop
  endfacet
  facet normal 0 0 1
    outer loop
      vertex -2.03951 6.27697 0.4
      vertex -3.32193 10.2239 0.4
      vertex -2.81014 5.97186 0.4
    endloop
  endfacet
  facet normal -0 0 1
    outer loop
      vertex -4.57713 9.72689 0.4
      vertex -2.81014 5.97186 0.4
      vertex -3.32193 10.2239 0.4
    endloop
  endfacet
  facet normal 0 0 1
    outer loop
      vertex -2.81014 5.97186 0.4
      vertex -4.57713 9.72689 0.4
      vertex -3.53646 5.57256 0.4
    endloop
  endfacet
  facet normal -0 0 1
    outer loop
      vertex -5.76014 9.07652 0.4
      vertex -3.53646 5.57256 0.4
      vertex -4.57713 9.72689 0.4
    endloop
  endfacet
  facet normal 0 0 1
    outer loop
      vertex -3.53646 5.57256 0.4
      vertex -5.76014 9.07652 0.4
      vertex -4.207 5.08539 0.4
    endloop
  endfacet
  facet normal -0 0 1
    outer loop
      vertex -6.85231 8.28302 0.4
      vertex -4.207 5.08539 0.4
      vertex -5.76014 9.07652 0.4
    endloop
  endfacet
  facet normal 0 0 1
    outer loop
      vertex -4.207 5.08539 0.4
      vertex -6.85231 8.28302 0.4
      vertex -4.81119 4.51801 0.4
    endloop
  endfacet
  facet normal -0 0 1
    outer loop
      vertex -7.83641 7.35888 0.4
      vertex -4.81119 4.51801 0.4
      vertex -6.85231 8.28302 0.4
    endloop
  endfacet
  facet normal 0 0 1
    outer loop
      vertex -4.81119 4.51801 0.4
      vertex -7.83641 7.35888 0.4
      vertex -5.33951 3.87938 0.4
    endloop
  endfacet
  facet normal -0 0 1
    outer loop
      vertex -8.69693 6.31869 0.4
      vertex -5.33951 3.87938 0.4
      vertex -7.83641 7.35888 0.4
    endloop
  endfacet
  facet normal 0 0 1
    outer loop
      vertex -5.33951 3.87938 0.4
      vertex -8.69693 6.31869 0.4
      vertex -5.78362 3.17957 0.4
    endloop
  endfacet
  facet normal 0 0 1
    outer loop
      vertex -5.78362 3.17957 0.4
      vertex -9.4203 5.17885 0.4
      vertex -6.13652 2.42962 0.4
    endloop
  endfacet
  facet normal -0 0 1
    outer loop
      vertex -9.4203 5.17885 0.4
      vertex -5.78362 3.17957 0.4
      vertex -8.69693 6.31869 0.4
    endloop
  endfacet
  facet normal -0 0 1
    outer loop
      vertex 6.13652 -2.42962 0.4
      vertex 11 -8 0.4
      vertex 6.39265 -1.64135 0.4
    endloop
  endfacet
  facet normal -0 0 1
    outer loop
      vertex 5.78362 -3.17957 0.4
      vertex 11 -8 0.4
      vertex 6.13652 -2.42962 0.4
    endloop
  endfacet
  facet normal 0 0 1
    outer loop
      vertex 11 -8 0.4
      vertex 5.78362 -3.17957 0.4
      vertex 7.15369 -8 0.4
    endloop
  endfacet
  facet normal -0 0 1
    outer loop
      vertex 5.33951 -3.87938 0.4
      vertex 7.15369 -8 0.4
      vertex 5.78362 -3.17957 0.4
    endloop
  endfacet
  facet normal -0 0 1
    outer loop
      vertex 4.81119 -4.51801 0.4
      vertex 7.15369 -8 0.4
      vertex 5.33951 -3.87938 0.4
    endloop
  endfacet
  facet normal -0 0 1
    outer loop
      vertex 4.207 -5.08539 0.4
      vertex 7.15369 -8 0.4
      vertex 4.81119 -4.51801 0.4
    endloop
  endfacet
  facet normal 0 0 1
    outer loop
      vertex 7.15369 -8 0.4
      vertex 4.207 -5.08539 0.4
      vertex 6.85231 -8.28302 0.4
    endloop
  endfacet
  facet normal 0 0 1
    outer loop
      vertex 6.85231 -8.28302 0.4
      vertex 4.207 -5.08539 0.4
      vertex 5.76014 -9.07652 0.4
    endloop
  endfacet
  facet normal -0 0 1
    outer loop
      vertex 3.53646 -5.57256 0.4
      vertex 5.76014 -9.07652 0.4
      vertex 4.207 -5.08539 0.4
    endloop
  endfacet
  facet normal 0 0 1
    outer loop
      vertex 5.76014 -9.07652 0.4
      vertex 3.53646 -5.57256 0.4
      vertex 4.57713 -9.72689 0.4
    endloop
  endfacet
  facet normal -0 0 1
    outer loop
      vertex 2.81014 -5.97186 0.4
      vertex 4.57713 -9.72689 0.4
      vertex 3.53646 -5.57256 0.4
    endloop
  endfacet
  facet normal 0 0 1
    outer loop
      vertex 4.57713 -9.72689 0.4
      vertex 2.81014 -5.97186 0.4
      vertex 3.32193 -10.2239 0.4
    endloop
  endfacet
  facet normal -0 0 1
    outer loop
      vertex 2.03951 -6.27697 0.4
      vertex 3.32193 -10.2239 0.4
      vertex 2.81014 -5.97186 0.4
    endloop
  endfacet
  facet normal 0 0 1
    outer loop
      vertex 2.03951 -6.27697 0.4
      vertex 2.01435 -10.5596 0.4
      vertex 3.32193 -10.2239 0.4
    endloop
  endfacet
  facet normal -0 0 1
    outer loop
      vertex 1.23672 -6.4831 0.4
      vertex 2.01435 -10.5596 0.4
      vertex 2.03951 -6.27697 0.4
    endloop
  endfacet
  facet normal 0 0 1
    outer loop
      vertex 1.23672 -6.4831 0.4
      vertex 0.674997 -10.7288 0.4
      vertex 2.01435 -10.5596 0.4
    endloop
  endfacet
  facet normal -0 0 1
    outer loop
      vertex 0.414417 -6.58698 0.4
      vertex 0.674997 -10.7288 0.4
      vertex 1.23672 -6.4831 0.4
    endloop
  endfacet
  facet normal -0 0 1
    outer loop
      vertex -0.414417 -6.58698 0.4
      vertex 0.674997 -10.7288 0.4
      vertex 0.414417 -6.58698 0.4
    endloop
  endfacet
  facet normal 0 0 1
    outer loop
      vertex -0.414417 -6.58698 0.4
      vertex -0.674997 -10.7288 0.4
      vertex 0.674997 -10.7288 0.4
    endloop
  endfacet
  facet normal 0 0 1
    outer loop
      vertex -1.23672 -6.4831 0.4
      vertex -0.674997 -10.7288 0.4
      vertex -0.414417 -6.58698 0.4
    endloop
  endfacet
  facet normal 0 0 1
    outer loop
      vertex -1.23672 -6.4831 0.4
      vertex -2.01435 -10.5596 0.4
      vertex -0.674997 -10.7288 0.4
    endloop
  endfacet
  facet normal 0 0 1
    outer loop
      vertex -2.03951 -6.27697 0.4
      vertex -2.01435 -10.5596 0.4
      vertex -1.23672 -6.4831 0.4
    endloop
  endfacet
  facet normal 0 0 1
    outer loop
      vertex -3.32193 -10.2239 0.4
      vertex -2.03951 -6.27697 0.4
      vertex -2.81014 -5.97186 0.4
    endloop
  endfacet
  facet normal 0 0 1
    outer loop
      vertex -2.03951 -6.27697 0.4
      vertex -3.32193 -10.2239 0.4
      vertex -2.01435 -10.5596 0.4
    endloop
  endfacet
  facet normal 0 0 1
    outer loop
      vertex -4.57713 -9.72689 0.4
      vertex -2.81014 -5.97186 0.4
      vertex -3.53646 -5.57256 0.4
    endloop
  endfacet
  facet normal 0 0 1
    outer loop
      vertex -5.76014 -9.07652 0.4
      vertex -3.53646 -5.57256 0.4
      vertex -4.207 -5.08539 0.4
    endloop
  endfacet
  facet normal 0 0 1
    outer loop
      vertex -2.81014 -5.97186 0.4
      vertex -4.57713 -9.72689 0.4
      vertex -3.32193 -10.2239 0.4
    endloop
  endfacet
  facet normal 0 0 1
    outer loop
      vertex -6.85231 -8.28302 0.4
      vertex -4.207 -5.08539 0.4
      vertex -4.81119 -4.51801 0.4
    endloop
  endfacet
  facet normal 0 0 1
    outer loop
      vertex -7.83641 -7.35888 0.4
      vertex -4.81119 -4.51801 0.4
      vertex -5.33951 -3.87938 0.4
    endloop
  endfacet
  facet normal 0 0 1
    outer loop
      vertex -3.53646 -5.57256 0.4
      vertex -5.76014 -9.07652 0.4
      vertex -4.57713 -9.72689 0.4
    endloop
  endfacet
  facet normal 0 0 1
    outer loop
      vertex -8.69693 -6.31869 0.4
      vertex -5.33951 -3.87938 0.4
      vertex -5.78362 -3.17957 0.4
    endloop
  endfacet
  facet normal 0 0 1
    outer loop
      vertex -9.4203 -5.17885 0.4
      vertex -5.78362 -3.17957 0.4
      vertex -6.13652 -2.42962 0.4
    endloop
  endfacet
  facet normal 0 0 1
    outer loop
      vertex -9.9951 -3.95734 0.4
      vertex -6.13652 -2.42962 0.4
      vertex -6.39265 -1.64135 0.4
    endloop
  endfacet
  facet normal 0 0 1
    outer loop
      vertex -10.4123 -2.67342 0.4
      vertex -6.39265 -1.64135 0.4
      vertex -6.54796 -0.827199 0.4
    endloop
  endfacet
  facet normal 0 0 1
    outer loop
      vertex -4.207 -5.08539 0.4
      vertex -6.85231 -8.28302 0.4
      vertex -5.76014 -9.07652 0.4
    endloop
  endfacet
  facet normal 0 0 1
    outer loop
      vertex -10.6652 -1.34733 0.4
      vertex -6.54796 -0.827199 0.4
      vertex -6.6 0 0.4
    endloop
  endfacet
  facet normal -0 0 1
    outer loop
      vertex -9.9951 3.95734 0.4
      vertex -6.13652 2.42962 0.4
      vertex -9.4203 5.17885 0.4
    endloop
  endfacet
  facet normal 0 0 1
    outer loop
      vertex -6.13652 2.42962 0.4
      vertex -9.9951 3.95734 0.4
      vertex -6.39265 1.64135 0.4
    endloop
  endfacet
  facet normal 0 0 1
    outer loop
      vertex -4.81119 -4.51801 0.4
      vertex -7.83641 -7.35888 0.4
      vertex -6.85231 -8.28302 0.4
    endloop
  endfacet
  facet normal -0 0 1
    outer loop
      vertex -10.4123 2.67342 0.4
      vertex -6.39265 1.64135 0.4
      vertex -9.9951 3.95734 0.4
    endloop
  endfacet
  facet normal 0 0 1
    outer loop
      vertex -5.33951 -3.87938 0.4
      vertex -8.69693 -6.31869 0.4
      vertex -7.83641 -7.35888 0.4
    endloop
  endfacet
  facet normal 0 0 1
    outer loop
      vertex -6.39265 1.64135 0.4
      vertex -10.4123 2.67342 0.4
      vertex -6.54796 0.827199 0.4
    endloop
  endfacet
  facet normal 0 0 1
    outer loop
      vertex -5.78362 -3.17957 0.4
      vertex -9.4203 -5.17885 0.4
      vertex -8.69693 -6.31869 0.4
    endloop
  endfacet
  facet normal -0 0 1
    outer loop
      vertex -10.6652 1.34733 0.4
      vertex -6.54796 0.827199 0.4
      vertex -10.4123 2.67342 0.4
    endloop
  endfacet
  facet normal 0 0 1
    outer loop
      vertex -6.13652 -2.42962 0.4
      vertex -9.9951 -3.95734 0.4
      vertex -9.4203 -5.17885 0.4
    endloop
  endfacet
  facet normal 0 0 1
    outer loop
      vertex -6.54796 0.827199 0.4
      vertex -10.6652 1.34733 0.4
      vertex -6.6 0 0.4
    endloop
  endfacet
  facet normal 0 0 1
    outer loop
      vertex -6.39265 -1.64135 0.4
      vertex -10.4123 -2.67342 0.4
      vertex -9.9951 -3.95734 0.4
    endloop
  endfacet
  facet normal 0 0 1
    outer loop
      vertex -10.75 0 0.4
      vertex -6.6 0 0.4
      vertex -10.6652 1.34733 0.4
    endloop
  endfacet
  facet normal 0 0 1
    outer loop
      vertex -6.54796 -0.827199 0.4
      vertex -10.6652 -1.34733 0.4
      vertex -10.4123 -2.67342 0.4
    endloop
  endfacet
  facet normal 0 0 1
    outer loop
      vertex -6.6 0 0.4
      vertex -10.75 0 0.4
      vertex -10.6652 -1.34733 0.4
    endloop
  endfacet
  facet normal -0.951057 0.309017 0
    outer loop
      vertex -10.4123 2.67342 0
      vertex -9.9951 3.95734 0.4
      vertex -9.9951 3.95734 0
    endloop
  endfacet
  facet normal -0.951057 0.309017 0
    outer loop
      vertex -9.9951 3.95734 0.4
      vertex -10.4123 2.67342 0
      vertex -10.4123 2.67342 0.4
    endloop
  endfacet
  facet normal -0.844328 0.535827 0
    outer loop
      vertex -9.4203 5.17885 0
      vertex -8.69693 6.31869 0.4
      vertex -8.69693 6.31869 0
    endloop
  endfacet
  facet normal -0.844328 0.535827 0
    outer loop
      vertex -8.69693 6.31869 0.4
      vertex -9.4203 5.17885 0
      vertex -9.4203 5.17885 0.4
    endloop
  endfacet
  facet normal -0.24869 0.968583 0
    outer loop
      vertex -2.01435 10.5596 0
      vertex -3.32193 10.2239 0.4
      vertex -2.01435 10.5596 0.4
    endloop
  endfacet
  facet normal -0.24869 0.968583 0
    outer loop
      vertex -3.32193 10.2239 0.4
      vertex -2.01435 10.5596 0
      vertex -3.32193 10.2239 0
    endloop
  endfacet
  facet normal -0.587785 0.809017 0
    outer loop
      vertex -5.76014 9.07652 0
      vertex -6.85231 8.28302 0.4
      vertex -5.76014 9.07652 0.4
    endloop
  endfacet
  facet normal -0.587785 0.809017 0
    outer loop
      vertex -6.85231 8.28302 0.4
      vertex -5.76014 9.07652 0
      vertex -6.85231 8.28302 0
    endloop
  endfacet
  facet normal -0.481754 0.876307 0
    outer loop
      vertex -4.57713 9.72689 0
      vertex -5.76014 9.07652 0.4
      vertex -4.57713 9.72689 0.4
    endloop
  endfacet
  facet normal -0.481754 0.876307 0
    outer loop
      vertex -5.76014 9.07652 0.4
      vertex -4.57713 9.72689 0
      vertex -5.76014 9.07652 0
    endloop
  endfacet
  facet normal 0 -1 0
    outer loop
      vertex -0.674997 -10.7288 0
      vertex 0.674997 -10.7288 0.4
      vertex -0.674997 -10.7288 0.4
    endloop
  endfacet
  facet normal 0 -1 -0
    outer loop
      vertex 0.674997 -10.7288 0.4
      vertex -0.674997 -10.7288 0
      vertex 0.674997 -10.7288 0
    endloop
  endfacet
  facet normal -0.951057 -0.309017 0
    outer loop
      vertex -9.9951 -3.95734 0
      vertex -10.4123 -2.67342 0.4
      vertex -10.4123 -2.67342 0
    endloop
  endfacet
  facet normal -0.951057 -0.309017 0
    outer loop
      vertex -10.4123 -2.67342 0.4
      vertex -9.9951 -3.95734 0
      vertex -9.9951 -3.95734 0.4
    endloop
  endfacet
  facet normal -0.844328 -0.535827 0
    outer loop
      vertex -8.69693 -6.31869 0
      vertex -9.4203 -5.17885 0.4
      vertex -9.4203 -5.17885 0
    endloop
  endfacet
  facet normal -0.844328 -0.535827 0
    outer loop
      vertex -9.4203 -5.17885 0.4
      vertex -8.69693 -6.31869 0
      vertex -8.69693 -6.31869 0.4
    endloop
  endfacet
  facet normal 0.125333 -0.992115 0
    outer loop
      vertex 0.674997 -10.7288 0
      vertex 2.01435 -10.5596 0.4
      vertex 0.674997 -10.7288 0.4
    endloop
  endfacet
  facet normal 0.125333 -0.992115 0
    outer loop
      vertex 2.01435 -10.5596 0.4
      vertex 0.674997 -10.7288 0
      vertex 2.01435 -10.5596 0
    endloop
  endfacet
  facet normal 0.125333 0.992115 -0
    outer loop
      vertex 2.01435 10.5596 0
      vertex 0.674997 10.7288 0.4
      vertex 2.01435 10.5596 0.4
    endloop
  endfacet
  facet normal 0.125333 0.992115 0
    outer loop
      vertex 0.674997 10.7288 0.4
      vertex 2.01435 10.5596 0
      vertex 0.674997 10.7288 0
    endloop
  endfacet
  facet normal -0.587785 -0.809017 0
    outer loop
      vertex -6.85231 -8.28302 0
      vertex -5.76014 -9.07652 0.4
      vertex -6.85231 -8.28302 0.4
    endloop
  endfacet
  facet normal -0.587785 -0.809017 -0
    outer loop
      vertex -5.76014 -9.07652 0.4
      vertex -6.85231 -8.28302 0
      vertex -5.76014 -9.07652 0
    endloop
  endfacet
  facet normal -0.998027 -0.0627908 0
    outer loop
      vertex -10.6652 -1.34733 0
      vertex -10.75 0 0.4
      vertex -10.75 0 0
    endloop
  endfacet
  facet normal -0.998027 -0.0627908 0
    outer loop
      vertex -10.75 0 0.4
      vertex -10.6652 -1.34733 0
      vertex -10.6652 -1.34733 0.4
    endloop
  endfacet
  facet normal 0 0 -1
    outer loop
      vertex 6.6 0 0
      vertex 25 7 0
      vertex 25 -8 0
    endloop
  endfacet
  facet normal 0 0 -1
    outer loop
      vertex 6.39265 -1.64135 0
      vertex 25 -8 0
      vertex 7.15369 -8 0
    endloop
  endfacet
  facet normal 0 0 -1
    outer loop
      vertex 6.54796 0.827199 0
      vertex 25 7 0
      vertex 6.6 0 0
    endloop
  endfacet
  facet normal 0 0 -1
    outer loop
      vertex 4.207 -5.08539 0
      vertex 7.15369 -8 0
      vertex 6.85231 -8.28302 0
    endloop
  endfacet
  facet normal -0 0 -1
    outer loop
      vertex 25 7 0
      vertex 6.54796 0.827199 0
      vertex 8.1333 7 0
    endloop
  endfacet
  facet normal 0 0 -1
    outer loop
      vertex 6.39265 1.64135 0
      vertex 8.1333 7 0
      vertex 6.54796 0.827199 0
    endloop
  endfacet
  facet normal 0 0 -1
    outer loop
      vertex 25 -8 0
      vertex 6.54796 -0.827199 0
      vertex 6.6 0 0
    endloop
  endfacet
  facet normal 0 0 -1
    outer loop
      vertex 25 -8 0
      vertex 6.39265 -1.64135 0
      vertex 6.54796 -0.827199 0
    endloop
  endfacet
  facet normal 0 0 -1
    outer loop
      vertex 7.15369 -8 0
      vertex 6.13652 -2.42962 0
      vertex 6.39265 -1.64135 0
    endloop
  endfacet
  facet normal 0 0 -1
    outer loop
      vertex 7.15369 -8 0
      vertex 5.78362 -3.17957 0
      vertex 6.13652 -2.42962 0
    endloop
  endfacet
  facet normal 0 0 -1
    outer loop
      vertex 4.207 -5.08539 0
      vertex 6.85231 -8.28302 0
      vertex 5.76014 -9.07652 0
    endloop
  endfacet
  facet normal 0 0 -1
    outer loop
      vertex 7.15369 -8 0
      vertex 5.33951 -3.87938 0
      vertex 5.78362 -3.17957 0
    endloop
  endfacet
  facet normal 0 0 -1
    outer loop
      vertex 7.15369 -8 0
      vertex 4.81119 -4.51801 0
      vertex 5.33951 -3.87938 0
    endloop
  endfacet
  facet normal 0 0 -1
    outer loop
      vertex 3.53646 -5.57256 0
      vertex 5.76014 -9.07652 0
      vertex 4.57713 -9.72689 0
    endloop
  endfacet
  facet normal 0 0 -1
    outer loop
      vertex 7.15369 -8 0
      vertex 4.207 -5.08539 0
      vertex 4.81119 -4.51801 0
    endloop
  endfacet
  facet normal 0 0 -1
    outer loop
      vertex 5.76014 -9.07652 0
      vertex 3.53646 -5.57256 0
      vertex 4.207 -5.08539 0
    endloop
  endfacet
  facet normal 0 0 -1
    outer loop
      vertex 2.81014 -5.97186 0
      vertex 4.57713 -9.72689 0
      vertex 3.32193 -10.2239 0
    endloop
  endfacet
  facet normal 0 0 -1
    outer loop
      vertex 4.57713 -9.72689 0
      vertex 2.81014 -5.97186 0
      vertex 3.53646 -5.57256 0
    endloop
  endfacet
  facet normal 0 0 -1
    outer loop
      vertex 3.32193 -10.2239 0
      vertex 2.03951 -6.27697 0
      vertex 2.81014 -5.97186 0
    endloop
  endfacet
  facet normal 0 0 -1
    outer loop
      vertex 2.01435 -10.5596 0
      vertex 2.03951 -6.27697 0
      vertex 3.32193 -10.2239 0
    endloop
  endfacet
  facet normal 0 0 -1
    outer loop
      vertex 2.01435 -10.5596 0
      vertex 1.23672 -6.4831 0
      vertex 2.03951 -6.27697 0
    endloop
  endfacet
  facet normal 0 0 -1
    outer loop
      vertex 0.674997 -10.7288 0
      vertex 1.23672 -6.4831 0
      vertex 2.01435 -10.5596 0
    endloop
  endfacet
  facet normal 0 0 -1
    outer loop
      vertex 0.674997 -10.7288 0
      vertex 0.414417 -6.58698 0
      vertex 1.23672 -6.4831 0
    endloop
  endfacet
  facet normal 0 0 -1
    outer loop
      vertex 0.674997 -10.7288 0
      vertex -0.414417 -6.58698 0
      vertex 0.414417 -6.58698 0
    endloop
  endfacet
  facet normal 0 0 -1
    outer loop
      vertex -0.674997 -10.7288 0
      vertex -0.414417 -6.58698 0
      vertex 0.674997 -10.7288 0
    endloop
  endfacet
  facet normal 0 0 -1
    outer loop
      vertex -0.674997 -10.7288 0
      vertex -1.23672 -6.4831 0
      vertex -0.414417 -6.58698 0
    endloop
  endfacet
  facet normal 0 0 -1
    outer loop
      vertex -2.01435 -10.5596 0
      vertex -1.23672 -6.4831 0
      vertex -0.674997 -10.7288 0
    endloop
  endfacet
  facet normal 0 0 -1
    outer loop
      vertex -2.01435 -10.5596 0
      vertex -2.03951 -6.27697 0
      vertex -1.23672 -6.4831 0
    endloop
  endfacet
  facet normal 0 0 -1
    outer loop
      vertex -3.32193 -10.2239 0
      vertex -2.03951 -6.27697 0
      vertex -2.01435 -10.5596 0
    endloop
  endfacet
  facet normal -0 0 -1
    outer loop
      vertex -2.03951 -6.27697 0
      vertex -3.32193 -10.2239 0
      vertex -2.81014 -5.97186 0
    endloop
  endfacet
  facet normal 0 0 -1
    outer loop
      vertex -4.57713 -9.72689 0
      vertex -2.81014 -5.97186 0
      vertex -3.32193 -10.2239 0
    endloop
  endfacet
  facet normal -0 0 -1
    outer loop
      vertex -2.81014 -5.97186 0
      vertex -4.57713 -9.72689 0
      vertex -3.53646 -5.57256 0
    endloop
  endfacet
  facet normal 0 0 -1
    outer loop
      vertex -5.76014 -9.07652 0
      vertex -3.53646 -5.57256 0
      vertex -4.57713 -9.72689 0
    endloop
  endfacet
  facet normal -0 0 -1
    outer loop
      vertex -3.53646 -5.57256 0
      vertex -5.76014 -9.07652 0
      vertex -4.207 -5.08539 0
    endloop
  endfacet
  facet normal 0 0 -1
    outer loop
      vertex -6.85231 -8.28302 0
      vertex -4.207 -5.08539 0
      vertex -5.76014 -9.07652 0
    endloop
  endfacet
  facet normal -0 0 -1
    outer loop
      vertex -4.207 -5.08539 0
      vertex -6.85231 -8.28302 0
      vertex -4.81119 -4.51801 0
    endloop
  endfacet
  facet normal 0 0 -1
    outer loop
      vertex -7.83641 -7.35888 0
      vertex -4.81119 -4.51801 0
      vertex -6.85231 -8.28302 0
    endloop
  endfacet
  facet normal -0 0 -1
    outer loop
      vertex -4.81119 -4.51801 0
      vertex -7.83641 -7.35888 0
      vertex -5.33951 -3.87938 0
    endloop
  endfacet
  facet normal 0 0 -1
    outer loop
      vertex -8.69693 -6.31869 0
      vertex -5.33951 -3.87938 0
      vertex -7.83641 -7.35888 0
    endloop
  endfacet
  facet normal -0 0 -1
    outer loop
      vertex -5.33951 -3.87938 0
      vertex -8.69693 -6.31869 0
      vertex -5.78362 -3.17957 0
    endloop
  endfacet
  facet normal -0 0 -1
    outer loop
      vertex -5.78362 -3.17957 0
      vertex -9.4203 -5.17885 0
      vertex -6.13652 -2.42962 0
    endloop
  endfacet
  facet normal 0 0 -1
    outer loop
      vertex -9.4203 -5.17885 0
      vertex -5.78362 -3.17957 0
      vertex -8.69693 -6.31869 0
    endloop
  endfacet
  facet normal 0 0 -1
    outer loop
      vertex 6.13652 2.42962 0
      vertex 8.1333 7 0
      vertex 6.39265 1.64135 0
    endloop
  endfacet
  facet normal 0 0 -1
    outer loop
      vertex 5.78362 3.17957 0
      vertex 8.1333 7 0
      vertex 6.13652 2.42962 0
    endloop
  endfacet
  facet normal 0 0 -1
    outer loop
      vertex 5.33951 3.87938 0
      vertex 8.1333 7 0
      vertex 5.78362 3.17957 0
    endloop
  endfacet
  facet normal 0 0 -1
    outer loop
      vertex 4.81119 4.51801 0
      vertex 8.1333 7 0
      vertex 5.33951 3.87938 0
    endloop
  endfacet
  facet normal -0 0 -1
    outer loop
      vertex 8.1333 7 0
      vertex 4.81119 4.51801 0
      vertex 7.83641 7.35888 0
    endloop
  endfacet
  facet normal -0 0 -1
    outer loop
      vertex 7.83641 7.35888 0
      vertex 4.81119 4.51801 0
      vertex 6.85231 8.28302 0
    endloop
  endfacet
  facet normal 0 0 -1
    outer loop
      vertex 4.207 5.08539 0
      vertex 6.85231 8.28302 0
      vertex 4.81119 4.51801 0
    endloop
  endfacet
  facet normal -0 0 -1
    outer loop
      vertex 6.85231 8.28302 0
      vertex 4.207 5.08539 0
      vertex 5.76014 9.07652 0
    endloop
  endfacet
  facet normal 0 0 -1
    outer loop
      vertex 3.53646 5.57256 0
      vertex 5.76014 9.07652 0
      vertex 4.207 5.08539 0
    endloop
  endfacet
  facet normal -0 0 -1
    outer loop
      vertex 5.76014 9.07652 0
      vertex 3.53646 5.57256 0
      vertex 4.57713 9.72689 0
    endloop
  endfacet
  facet normal 0 0 -1
    outer loop
      vertex 2.81014 5.97186 0
      vertex 4.57713 9.72689 0
      vertex 3.53646 5.57256 0
    endloop
  endfacet
  facet normal -0 0 -1
    outer loop
      vertex 4.57713 9.72689 0
      vertex 2.81014 5.97186 0
      vertex 3.32193 10.2239 0
    endloop
  endfacet
  facet normal 0 0 -1
    outer loop
      vertex 2.03951 6.27697 0
      vertex 3.32193 10.2239 0
      vertex 2.81014 5.97186 0
    endloop
  endfacet
  facet normal 0 0 -1
    outer loop
      vertex 2.03951 6.27697 0
      vertex 2.01435 10.5596 0
      vertex 3.32193 10.2239 0
    endloop
  endfacet
  facet normal 0 0 -1
    outer loop
      vertex 1.23672 6.4831 0
      vertex 2.01435 10.5596 0
      vertex 2.03951 6.27697 0
    endloop
  endfacet
  facet normal 0 0 -1
    outer loop
      vertex 1.23672 6.4831 0
      vertex 0.674997 10.7288 0
      vertex 2.01435 10.5596 0
    endloop
  endfacet
  facet normal 0 0 -1
    outer loop
      vertex 0.414417 6.58698 0
      vertex 0.674997 10.7288 0
      vertex 1.23672 6.4831 0
    endloop
  endfacet
  facet normal 0 0 -1
    outer loop
      vertex -0.414417 6.58698 0
      vertex 0.674997 10.7288 0
      vertex 0.414417 6.58698 0
    endloop
  endfacet
  facet normal 0 0 -1
    outer loop
      vertex -0.414417 6.58698 0
      vertex -0.674997 10.7288 0
      vertex 0.674997 10.7288 0
    endloop
  endfacet
  facet normal 0 0 -1
    outer loop
      vertex -1.23672 6.4831 0
      vertex -0.674997 10.7288 0
      vertex -0.414417 6.58698 0
    endloop
  endfacet
  facet normal 0 0 -1
    outer loop
      vertex -1.23672 6.4831 0
      vertex -2.01435 10.5596 0
      vertex -0.674997 10.7288 0
    endloop
  endfacet
  facet normal 0 0 -1
    outer loop
      vertex -2.03951 6.27697 0
      vertex -2.01435 10.5596 0
      vertex -1.23672 6.4831 0
    endloop
  endfacet
  facet normal 0 0 -1
    outer loop
      vertex -3.32193 10.2239 0
      vertex -2.03951 6.27697 0
      vertex -2.81014 5.97186 0
    endloop
  endfacet
  facet normal 0 0 -1
    outer loop
      vertex -2.03951 6.27697 0
      vertex -3.32193 10.2239 0
      vertex -2.01435 10.5596 0
    endloop
  endfacet
  facet normal 0 0 -1
    outer loop
      vertex -4.57713 9.72689 0
      vertex -2.81014 5.97186 0
      vertex -3.53646 5.57256 0
    endloop
  endfacet
  facet normal 0 0 -1
    outer loop
      vertex -5.76014 9.07652 0
      vertex -3.53646 5.57256 0
      vertex -4.207 5.08539 0
    endloop
  endfacet
  facet normal 0 0 -1
    outer loop
      vertex -2.81014 5.97186 0
      vertex -4.57713 9.72689 0
      vertex -3.32193 10.2239 0
    endloop
  endfacet
  facet normal 0 0 -1
    outer loop
      vertex -6.85231 8.28302 0
      vertex -4.207 5.08539 0
      vertex -4.81119 4.51801 0
    endloop
  endfacet
  facet normal 0 0 -1
    outer loop
      vertex -7.83641 7.35888 0
      vertex -4.81119 4.51801 0
      vertex -5.33951 3.87938 0
    endloop
  endfacet
  facet normal 0 0 -1
    outer loop
      vertex -3.53646 5.57256 0
      vertex -5.76014 9.07652 0
      vertex -4.57713 9.72689 0
    endloop
  endfacet
  facet normal 0 0 -1
    outer loop
      vertex -8.69693 6.31869 0
      vertex -5.33951 3.87938 0
      vertex -5.78362 3.17957 0
    endloop
  endfacet
  facet normal 0 0 -1
    outer loop
      vertex -9.4203 5.17885 0
      vertex -5.78362 3.17957 0
      vertex -6.13652 2.42962 0
    endloop
  endfacet
  facet normal 0 0 -1
    outer loop
      vertex -9.9951 3.95734 0
      vertex -6.13652 2.42962 0
      vertex -6.39265 1.64135 0
    endloop
  endfacet
  facet normal 0 0 -1
    outer loop
      vertex -10.4123 2.67342 0
      vertex -6.39265 1.64135 0
      vertex -6.54796 0.827199 0
    endloop
  endfacet
  facet normal 0 0 -1
    outer loop
      vertex -4.207 5.08539 0
      vertex -6.85231 8.28302 0
      vertex -5.76014 9.07652 0
    endloop
  endfacet
  facet normal 0 0 -1
    outer loop
      vertex -10.6652 1.34733 0
      vertex -6.54796 0.827199 0
      vertex -6.6 0 0
    endloop
  endfacet
  facet normal 0 0 -1
    outer loop
      vertex -9.9951 -3.95734 0
      vertex -6.13652 -2.42962 0
      vertex -9.4203 -5.17885 0
    endloop
  endfacet
  facet normal -0 0 -1
    outer loop
      vertex -6.13652 -2.42962 0
      vertex -9.9951 -3.95734 0
      vertex -6.39265 -1.64135 0
    endloop
  endfacet
  facet normal 0 0 -1
    outer loop
      vertex -4.81119 4.51801 0
      vertex -7.83641 7.35888 0
      vertex -6.85231 8.28302 0
    endloop
  endfacet
  facet normal 0 0 -1
    outer loop
      vertex -10.4123 -2.67342 0
      vertex -6.39265 -1.64135 0
      vertex -9.9951 -3.95734 0
    endloop
  endfacet
  facet normal 0 0 -1
    outer loop
      vertex -5.33951 3.87938 0
      vertex -8.69693 6.31869 0
      vertex -7.83641 7.35888 0
    endloop
  endfacet
  facet normal -0 0 -1
    outer loop
      vertex -6.39265 -1.64135 0
      vertex -10.4123 -2.67342 0
      vertex -6.54796 -0.827199 0
    endloop
  endfacet
  facet normal 0 0 -1
    outer loop
      vertex -5.78362 3.17957 0
      vertex -9.4203 5.17885 0
      vertex -8.69693 6.31869 0
    endloop
  endfacet
  facet normal 0 0 -1
    outer loop
      vertex -10.6652 -1.34733 0
      vertex -6.54796 -0.827199 0
      vertex -10.4123 -2.67342 0
    endloop
  endfacet
  facet normal 0 0 -1
    outer loop
      vertex -6.13652 2.42962 0
      vertex -9.9951 3.95734 0
      vertex -9.4203 5.17885 0
    endloop
  endfacet
  facet normal -0 0 -1
    outer loop
      vertex -6.54796 -0.827199 0
      vertex -10.6652 -1.34733 0
      vertex -6.6 0 0
    endloop
  endfacet
  facet normal 0 0 -1
    outer loop
      vertex -6.39265 1.64135 0
      vertex -10.4123 2.67342 0
      vertex -9.9951 3.95734 0
    endloop
  endfacet
  facet normal 0 0 -1
    outer loop
      vertex -10.75 0 0
      vertex -6.6 0 0
      vertex -10.6652 -1.34733 0
    endloop
  endfacet
  facet normal 0 0 -1
    outer loop
      vertex -6.54796 0.827199 0
      vertex -10.6652 1.34733 0
      vertex -10.4123 2.67342 0
    endloop
  endfacet
  facet normal 0 0 -1
    outer loop
      vertex -6.6 0 0
      vertex -10.75 0 0
      vertex -10.6652 1.34733 0
    endloop
  endfacet
  facet normal -0.770513 -0.637424 0
    outer loop
      vertex -7.83641 -7.35888 0
      vertex -8.69693 -6.31869 0.4
      vertex -8.69693 -6.31869 0
    endloop
  endfacet
  facet normal -0.770513 -0.637424 0
    outer loop
      vertex -8.69693 -6.31869 0.4
      vertex -7.83641 -7.35888 0
      vertex -7.83641 -7.35888 0.4
    endloop
  endfacet
  facet normal 0.368124 -0.929777 0
    outer loop
      vertex 3.32193 -10.2239 0
      vertex 4.57713 -9.72689 0.4
      vertex 3.32193 -10.2239 0.4
    endloop
  endfacet
  facet normal 0.368124 -0.929777 0
    outer loop
      vertex 4.57713 -9.72689 0.4
      vertex 3.32193 -10.2239 0
      vertex 4.57713 -9.72689 0
    endloop
  endfacet
  facet normal 0.24869 -0.968583 0
    outer loop
      vertex 2.01435 -10.5596 0
      vertex 3.32193 -10.2239 0.4
      vertex 2.01435 -10.5596 0.4
    endloop
  endfacet
  facet normal 0.24869 -0.968583 0
    outer loop
      vertex 3.32193 -10.2239 0.4
      vertex 2.01435 -10.5596 0
      vertex 3.32193 -10.2239 0
    endloop
  endfacet
  facet normal 0.684547 -0.728968 0
    outer loop
      vertex 6.85231 -8.28302 0
      vertex 7.15369 -8 0.4
      vertex 6.85231 -8.28302 0.4
    endloop
  endfacet
  facet normal 0.684547 -0.728968 0
    outer loop
      vertex 7.15369 -8 0.4
      vertex 6.85231 -8.28302 0
      vertex 7.15369 -8 0
    endloop
  endfacet
  facet normal -0.24869 -0.968583 0
    outer loop
      vertex -3.32193 -10.2239 0
      vertex -2.01435 -10.5596 0.4
      vertex -3.32193 -10.2239 0.4
    endloop
  endfacet
  facet normal -0.24869 -0.968583 -0
    outer loop
      vertex -2.01435 -10.5596 0.4
      vertex -3.32193 -10.2239 0
      vertex -2.01435 -10.5596 0
    endloop
  endfacet
  facet normal -0.368124 -0.929777 0
    outer loop
      vertex -4.57713 -9.72689 0
      vertex -3.32193 -10.2239 0.4
      vertex -4.57713 -9.72689 0.4
    endloop
  endfacet
  facet normal -0.368124 -0.929777 -0
    outer loop
      vertex -3.32193 -10.2239 0.4
      vertex -4.57713 -9.72689 0
      vertex -3.32193 -10.2239 0
    endloop
  endfacet
  facet normal -0.125333 -0.992115 0
    outer loop
      vertex -2.01435 -10.5596 0
      vertex -0.674997 -10.7288 0.4
      vertex -2.01435 -10.5596 0.4
    endloop
  endfacet
  facet normal -0.125333 -0.992115 -0
    outer loop
      vertex -0.674997 -10.7288 0.4
      vertex -2.01435 -10.5596 0
      vertex -0.674997 -10.7288 0
    endloop
  endfacet
  facet normal -0.982287 -0.187381 0
    outer loop
      vertex -10.4123 -2.67342 0
      vertex -10.6652 -1.34733 0.4
      vertex -10.6652 -1.34733 0
    endloop
  endfacet
  facet normal -0.982287 -0.187381 0
    outer loop
      vertex -10.6652 -1.34733 0.4
      vertex -10.4123 -2.67342 0
      vertex -10.4123 -2.67342 0.4
    endloop
  endfacet
  facet normal 0.587785 -0.809017 0
    outer loop
      vertex 5.76014 -9.07652 0
      vertex 6.85231 -8.28302 0.4
      vertex 5.76014 -9.07652 0.4
    endloop
  endfacet
  facet normal 0.587785 -0.809017 0
    outer loop
      vertex 6.85231 -8.28302 0.4
      vertex 5.76014 -9.07652 0
      vertex 6.85231 -8.28302 0
    endloop
  endfacet
  facet normal -0.481754 -0.876307 0
    outer loop
      vertex -5.76014 -9.07652 0
      vertex -4.57713 -9.72689 0.4
      vertex -5.76014 -9.07652 0.4
    endloop
  endfacet
  facet normal -0.481754 -0.876307 -0
    outer loop
      vertex -4.57713 -9.72689 0.4
      vertex -5.76014 -9.07652 0
      vertex -4.57713 -9.72689 0
    endloop
  endfacet
  facet normal -0.998027 -0.0627905 0
    outer loop
      vertex 6.6 0 0
      vertex 6.54796 0.827199 0.4
      vertex 6.54796 0.827199 0
    endloop
  endfacet
  facet normal -0.998027 -0.0627905 0
    outer loop
      vertex 6.54796 0.827199 0.4
      vertex 6.6 0 0
      vertex 6.6 0 0.4
    endloop
  endfacet
  facet normal 0.998027 -0.0627905 0
    outer loop
      vertex -6.6 0 0.4
      vertex -6.54796 0.827199 0
      vertex -6.54796 0.827199 0.4
    endloop
  endfacet
  facet normal 0.998027 -0.0627905 0
    outer loop
      vertex -6.54796 0.827199 0
      vertex -6.6 0 0.4
      vertex -6.6 0 0
    endloop
  endfacet
  facet normal 0 -1 0
    outer loop
      vertex -0.414417 6.58698 0
      vertex 0.414417 6.58698 0.4
      vertex -0.414417 6.58698 0.4
    endloop
  endfacet
  facet normal 0 -1 -0
    outer loop
      vertex 0.414417 6.58698 0.4
      vertex -0.414417 6.58698 0
      vertex 0.414417 6.58698 0
    endloop
  endfacet
  facet normal 0 1 -0
    outer loop
      vertex 0.414417 -6.58698 0
      vertex -0.414417 -6.58698 0.4
      vertex 0.414417 -6.58698 0.4
    endloop
  endfacet
  facet normal 0 1 0
    outer loop
      vertex -0.414417 -6.58698 0.4
      vertex 0.414417 -6.58698 0
      vertex -0.414417 -6.58698 0
    endloop
  endfacet
  facet normal -0.684547 -0.728968 0
    outer loop
      vertex 4.207 5.08539 0
      vertex 4.81119 4.51801 0.4
      vertex 4.207 5.08539 0.4
    endloop
  endfacet
  facet normal -0.684547 -0.728968 -0
    outer loop
      vertex 4.81119 4.51801 0.4
      vertex 4.207 5.08539 0
      vertex 4.81119 4.51801 0
    endloop
  endfacet
  facet normal 0.684547 -0.728968 0
    outer loop
      vertex -4.81119 4.51801 0
      vertex -4.207 5.08539 0.4
      vertex -4.81119 4.51801 0.4
    endloop
  endfacet
  facet normal 0.684547 -0.728968 0
    outer loop
      vertex -4.207 5.08539 0.4
      vertex -4.81119 4.51801 0
      vertex -4.207 5.08539 0
    endloop
  endfacet
  facet normal 0.368125 -0.929776 0
    outer loop
      vertex -2.81014 5.97186 0
      vertex -2.03951 6.27697 0.4
      vertex -2.81014 5.97186 0.4
    endloop
  endfacet
  facet normal 0.368125 -0.929776 0
    outer loop
      vertex -2.03951 6.27697 0.4
      vertex -2.81014 5.97186 0
      vertex -2.03951 6.27697 0
    endloop
  endfacet
  facet normal -0.844328 0.535827 0
    outer loop
      vertex 5.33951 -3.87938 0
      vertex 5.78362 -3.17957 0.4
      vertex 5.78362 -3.17957 0
    endloop
  endfacet
  facet normal -0.844328 0.535827 0
    outer loop
      vertex 5.78362 -3.17957 0.4
      vertex 5.33951 -3.87938 0
      vertex 5.33951 -3.87938 0.4
    endloop
  endfacet
  facet normal -0.904827 -0.425779 0
    outer loop
      vertex 6.13652 2.42962 0
      vertex 5.78362 3.17957 0.4
      vertex 5.78362 3.17957 0
    endloop
  endfacet
  facet normal -0.904827 -0.425779 0
    outer loop
      vertex 5.78362 3.17957 0.4
      vertex 6.13652 2.42962 0
      vertex 6.13652 2.42962 0.4
    endloop
  endfacet
  facet normal -0.982287 -0.187381 0
    outer loop
      vertex 6.54796 0.827199 0
      vertex 6.39265 1.64135 0.4
      vertex 6.39265 1.64135 0
    endloop
  endfacet
  facet normal -0.982287 -0.187381 0
    outer loop
      vertex 6.39265 1.64135 0.4
      vertex 6.54796 0.827199 0
      vertex 6.54796 0.827199 0.4
    endloop
  endfacet
  facet normal -0.844328 -0.535827 0
    outer loop
      vertex 5.78362 3.17957 0
      vertex 5.33951 3.87938 0.4
      vertex 5.33951 3.87938 0
    endloop
  endfacet
  facet normal -0.844328 -0.535827 0
    outer loop
      vertex 5.33951 3.87938 0.4
      vertex 5.78362 3.17957 0
      vertex 5.78362 3.17957 0.4
    endloop
  endfacet
  facet normal -0.368125 -0.929776 0
    outer loop
      vertex 2.03951 6.27697 0
      vertex 2.81014 5.97186 0.4
      vertex 2.03951 6.27697 0.4
    endloop
  endfacet
  facet normal -0.368125 -0.929776 -0
    outer loop
      vertex 2.81014 5.97186 0.4
      vertex 2.03951 6.27697 0
      vertex 2.81014 5.97186 0
    endloop
  endfacet
  facet normal -0.587785 -0.809017 0
    outer loop
      vertex 3.53646 5.57256 0
      vertex 4.207 5.08539 0.4
      vertex 3.53646 5.57256 0.4
    endloop
  endfacet
  facet normal -0.587785 -0.809017 -0
    outer loop
      vertex 4.207 5.08539 0.4
      vertex 3.53646 5.57256 0
      vertex 4.207 5.08539 0
    endloop
  endfacet
  facet normal 0.904827 -0.425779 0
    outer loop
      vertex -6.13652 2.42962 0.4
      vertex -5.78362 3.17957 0
      vertex -5.78362 3.17957 0.4
    endloop
  endfacet
  facet normal 0.904827 -0.425779 0
    outer loop
      vertex -5.78362 3.17957 0
      vertex -6.13652 2.42962 0.4
      vertex -6.13652 2.42962 0
    endloop
  endfacet
  facet normal 0.951056 -0.309017 0
    outer loop
      vertex -6.39265 1.64135 0.4
      vertex -6.13652 2.42962 0
      vertex -6.13652 2.42962 0.4
    endloop
  endfacet
  facet normal 0.951056 -0.309017 0
    outer loop
      vertex -6.13652 2.42962 0
      vertex -6.39265 1.64135 0.4
      vertex -6.39265 1.64135 0
    endloop
  endfacet
  facet normal 0.248689 -0.968583 0
    outer loop
      vertex -2.03951 6.27697 0
      vertex -1.23672 6.4831 0.4
      vertex -2.03951 6.27697 0.4
    endloop
  endfacet
  facet normal 0.248689 -0.968583 0
    outer loop
      vertex -1.23672 6.4831 0.4
      vertex -2.03951 6.27697 0
      vertex -1.23672 6.4831 0
    endloop
  endfacet
  facet normal -0.368125 0.929776 0
    outer loop
      vertex 2.81014 -5.97186 0
      vertex 2.03951 -6.27697 0.4
      vertex 2.81014 -5.97186 0.4
    endloop
  endfacet
  facet normal -0.368125 0.929776 0
    outer loop
      vertex 2.03951 -6.27697 0.4
      vertex 2.81014 -5.97186 0
      vertex 2.03951 -6.27697 0
    endloop
  endfacet
  facet normal -0.951056 -0.309017 0
    outer loop
      vertex 6.39265 1.64135 0
      vertex 6.13652 2.42962 0.4
      vertex 6.13652 2.42962 0
    endloop
  endfacet
  facet normal -0.951056 -0.309017 0
    outer loop
      vertex 6.13652 2.42962 0.4
      vertex 6.39265 1.64135 0
      vertex 6.39265 1.64135 0.4
    endloop
  endfacet
  facet normal -0.770513 -0.637424 0
    outer loop
      vertex 5.33951 3.87938 0
      vertex 4.81119 4.51801 0.4
      vertex 4.81119 4.51801 0
    endloop
  endfacet
  facet normal -0.770513 -0.637424 0
    outer loop
      vertex 4.81119 4.51801 0.4
      vertex 5.33951 3.87938 0
      vertex 5.33951 3.87938 0.4
    endloop
  endfacet
  facet normal -0.248689 -0.968583 0
    outer loop
      vertex 1.23672 6.4831 0
      vertex 2.03951 6.27697 0.4
      vertex 1.23672 6.4831 0.4
    endloop
  endfacet
  facet normal -0.248689 -0.968583 -0
    outer loop
      vertex 2.03951 6.27697 0.4
      vertex 1.23672 6.4831 0
      vertex 2.03951 6.27697 0
    endloop
  endfacet
  facet normal -0.125334 -0.992115 0
    outer loop
      vertex 0.414417 6.58698 0
      vertex 1.23672 6.4831 0.4
      vertex 0.414417 6.58698 0.4
    endloop
  endfacet
  facet normal -0.125334 -0.992115 -0
    outer loop
      vertex 1.23672 6.4831 0.4
      vertex 0.414417 6.58698 0
      vertex 1.23672 6.4831 0
    endloop
  endfacet
  facet normal -0.481753 -0.876307 0
    outer loop
      vertex 2.81014 5.97186 0
      vertex 3.53646 5.57256 0.4
      vertex 2.81014 5.97186 0.4
    endloop
  endfacet
  facet normal -0.481753 -0.876307 -0
    outer loop
      vertex 3.53646 5.57256 0.4
      vertex 2.81014 5.97186 0
      vertex 3.53646 5.57256 0
    endloop
  endfacet
  facet normal 0.844328 -0.535827 0
    outer loop
      vertex -5.78362 3.17957 0.4
      vertex -5.33951 3.87938 0
      vertex -5.33951 3.87938 0.4
    endloop
  endfacet
  facet normal 0.844328 -0.535827 0
    outer loop
      vertex -5.33951 3.87938 0
      vertex -5.78362 3.17957 0.4
      vertex -5.78362 3.17957 0
    endloop
  endfacet
  facet normal 0.770513 -0.637424 0
    outer loop
      vertex -5.33951 3.87938 0.4
      vertex -4.81119 4.51801 0
      vertex -4.81119 4.51801 0.4
    endloop
  endfacet
  facet normal 0.770513 -0.637424 0
    outer loop
      vertex -4.81119 4.51801 0
      vertex -5.33951 3.87938 0.4
      vertex -5.33951 3.87938 0
    endloop
  endfacet
  facet normal 0.982287 -0.187381 0
    outer loop
      vertex -6.54796 0.827199 0.4
      vertex -6.39265 1.64135 0
      vertex -6.39265 1.64135 0.4
    endloop
  endfacet
  facet normal 0.982287 -0.187381 0
    outer loop
      vertex -6.39265 1.64135 0
      vertex -6.54796 0.827199 0.4
      vertex -6.54796 0.827199 0
    endloop
  endfacet
  facet normal 0.481753 -0.876307 0
    outer loop
      vertex -3.53646 5.57256 0
      vertex -2.81014 5.97186 0.4
      vertex -3.53646 5.57256 0.4
    endloop
  endfacet
  facet normal 0.481753 -0.876307 0
    outer loop
      vertex -2.81014 5.97186 0.4
      vertex -3.53646 5.57256 0
      vertex -2.81014 5.97186 0
    endloop
  endfacet
  facet normal 0.587785 -0.809017 0
    outer loop
      vertex -4.207 5.08539 0
      vertex -3.53646 5.57256 0.4
      vertex -4.207 5.08539 0.4
    endloop
  endfacet
  facet normal 0.587785 -0.809017 0
    outer loop
      vertex -3.53646 5.57256 0.4
      vertex -4.207 5.08539 0
      vertex -3.53646 5.57256 0
    endloop
  endfacet
  facet normal 0.125334 -0.992115 0
    outer loop
      vertex -1.23672 6.4831 0
      vertex -0.414417 6.58698 0.4
      vertex -1.23672 6.4831 0.4
    endloop
  endfacet
  facet normal 0.125334 -0.992115 0
    outer loop
      vertex -0.414417 6.58698 0.4
      vertex -1.23672 6.4831 0
      vertex -0.414417 6.58698 0
    endloop
  endfacet
  facet normal -0.770513 0.637424 0
    outer loop
      vertex 4.81119 -4.51801 0
      vertex 5.33951 -3.87938 0.4
      vertex 5.33951 -3.87938 0
    endloop
  endfacet
  facet normal -0.770513 0.637424 0
    outer loop
      vertex 5.33951 -3.87938 0.4
      vertex 4.81119 -4.51801 0
      vertex 4.81119 -4.51801 0.4
    endloop
  endfacet
  facet normal -0.982287 0.187381 0
    outer loop
      vertex 6.39265 -1.64135 0
      vertex 6.54796 -0.827199 0.4
      vertex 6.54796 -0.827199 0
    endloop
  endfacet
  facet normal -0.982287 0.187381 0
    outer loop
      vertex 6.54796 -0.827199 0.4
      vertex 6.39265 -1.64135 0
      vertex 6.39265 -1.64135 0.4
    endloop
  endfacet
  facet normal -0.587785 0.809017 0
    outer loop
      vertex 4.207 -5.08539 0
      vertex 3.53646 -5.57256 0.4
      vertex 4.207 -5.08539 0.4
    endloop
  endfacet
  facet normal -0.587785 0.809017 0
    outer loop
      vertex 3.53646 -5.57256 0.4
      vertex 4.207 -5.08539 0
      vertex 3.53646 -5.57256 0
    endloop
  endfacet
  facet normal -0.684547 0.728968 0
    outer loop
      vertex 4.81119 -4.51801 0
      vertex 4.207 -5.08539 0.4
      vertex 4.81119 -4.51801 0.4
    endloop
  endfacet
  facet normal -0.684547 0.728968 0
    outer loop
      vertex 4.207 -5.08539 0.4
      vertex 4.81119 -4.51801 0
      vertex 4.207 -5.08539 0
    endloop
  endfacet
  facet normal -0.904827 0.425779 0
    outer loop
      vertex 5.78362 -3.17957 0
      vertex 6.13652 -2.42962 0.4
      vertex 6.13652 -2.42962 0
    endloop
  endfacet
  facet normal -0.904827 0.425779 0
    outer loop
      vertex 6.13652 -2.42962 0.4
      vertex 5.78362 -3.17957 0
      vertex 5.78362 -3.17957 0.4
    endloop
  endfacet
  facet normal -0.998027 0.0627905 0
    outer loop
      vertex 6.54796 -0.827199 0
      vertex 6.6 0 0.4
      vertex 6.6 0 0
    endloop
  endfacet
  facet normal -0.998027 0.0627905 0
    outer loop
      vertex 6.6 0 0.4
      vertex 6.54796 -0.827199 0
      vertex 6.54796 -0.827199 0.4
    endloop
  endfacet
  facet normal 0.770513 0.637424 0
    outer loop
      vertex -4.81119 -4.51801 0.4
      vertex -5.33951 -3.87938 0
      vertex -5.33951 -3.87938 0.4
    endloop
  endfacet
  facet normal 0.770513 0.637424 0
    outer loop
      vertex -5.33951 -3.87938 0
      vertex -4.81119 -4.51801 0.4
      vertex -4.81119 -4.51801 0
    endloop
  endfacet
  facet normal 0.844328 0.535827 0
    outer loop
      vertex -5.33951 -3.87938 0.4
      vertex -5.78362 -3.17957 0
      vertex -5.78362 -3.17957 0.4
    endloop
  endfacet
  facet normal 0.844328 0.535827 0
    outer loop
      vertex -5.78362 -3.17957 0
      vertex -5.33951 -3.87938 0.4
      vertex -5.33951 -3.87938 0
    endloop
  endfacet
  facet normal 0.951056 0.309017 0
    outer loop
      vertex -6.13652 -2.42962 0.4
      vertex -6.39265 -1.64135 0
      vertex -6.39265 -1.64135 0.4
    endloop
  endfacet
  facet normal 0.951056 0.309017 0
    outer loop
      vertex -6.39265 -1.64135 0
      vertex -6.13652 -2.42962 0.4
      vertex -6.13652 -2.42962 0
    endloop
  endfacet
  facet normal 0.998027 0.0627905 0
    outer loop
      vertex -6.54796 -0.827199 0.4
      vertex -6.6 0 0
      vertex -6.6 0 0.4
    endloop
  endfacet
  facet normal 0.998027 0.0627905 0
    outer loop
      vertex -6.6 0 0
      vertex -6.54796 -0.827199 0.4
      vertex -6.54796 -0.827199 0
    endloop
  endfacet
  facet normal -0.125334 0.992115 0
    outer loop
      vertex 1.23672 -6.4831 0
      vertex 0.414417 -6.58698 0.4
      vertex 1.23672 -6.4831 0.4
    endloop
  endfacet
  facet normal -0.125334 0.992115 0
    outer loop
      vertex 0.414417 -6.58698 0.4
      vertex 1.23672 -6.4831 0
      vertex 0.414417 -6.58698 0
    endloop
  endfacet
  facet normal -0.481753 0.876307 0
    outer loop
      vertex 3.53646 -5.57256 0
      vertex 2.81014 -5.97186 0.4
      vertex 3.53646 -5.57256 0.4
    endloop
  endfacet
  facet normal -0.481753 0.876307 0
    outer loop
      vertex 2.81014 -5.97186 0.4
      vertex 3.53646 -5.57256 0
      vertex 2.81014 -5.97186 0
    endloop
  endfacet
  facet normal -0.951056 0.309017 0
    outer loop
      vertex 6.13652 -2.42962 0
      vertex 6.39265 -1.64135 0.4
      vertex 6.39265 -1.64135 0
    endloop
  endfacet
  facet normal -0.951056 0.309017 0
    outer loop
      vertex 6.39265 -1.64135 0.4
      vertex 6.13652 -2.42962 0
      vertex 6.13652 -2.42962 0.4
    endloop
  endfacet
  facet normal 0.368125 0.929776 -0
    outer loop
      vertex -2.03951 -6.27697 0
      vertex -2.81014 -5.97186 0.4
      vertex -2.03951 -6.27697 0.4
    endloop
  endfacet
  facet normal 0.368125 0.929776 0
    outer loop
      vertex -2.81014 -5.97186 0.4
      vertex -2.03951 -6.27697 0
      vertex -2.81014 -5.97186 0
    endloop
  endfacet
  facet normal 0.587785 0.809017 -0
    outer loop
      vertex -3.53646 -5.57256 0
      vertex -4.207 -5.08539 0.4
      vertex -3.53646 -5.57256 0.4
    endloop
  endfacet
  facet normal 0.587785 0.809017 0
    outer loop
      vertex -4.207 -5.08539 0.4
      vertex -3.53646 -5.57256 0
      vertex -4.207 -5.08539 0
    endloop
  endfacet
  facet normal 0.248689 0.968583 -0
    outer loop
      vertex -1.23672 -6.4831 0
      vertex -2.03951 -6.27697 0.4
      vertex -1.23672 -6.4831 0.4
    endloop
  endfacet
  facet normal 0.248689 0.968583 0
    outer loop
      vertex -2.03951 -6.27697 0.4
      vertex -1.23672 -6.4831 0
      vertex -2.03951 -6.27697 0
    endloop
  endfacet
  facet normal 0.684547 0.728968 -0
    outer loop
      vertex -4.207 -5.08539 0
      vertex -4.81119 -4.51801 0.4
      vertex -4.207 -5.08539 0.4
    endloop
  endfacet
  facet normal 0.684547 0.728968 0
    outer loop
      vertex -4.81119 -4.51801 0.4
      vertex -4.207 -5.08539 0
      vertex -4.81119 -4.51801 0
    endloop
  endfacet
  facet normal 0.904827 0.425779 0
    outer loop
      vertex -5.78362 -3.17957 0.4
      vertex -6.13652 -2.42962 0
      vertex -6.13652 -2.42962 0.4
    endloop
  endfacet
  facet normal 0.904827 0.425779 0
    outer loop
      vertex -6.13652 -2.42962 0
      vertex -5.78362 -3.17957 0.4
      vertex -5.78362 -3.17957 0
    endloop
  endfacet
  facet normal 0.982287 0.187381 0
    outer loop
      vertex -6.39265 -1.64135 0.4
      vertex -6.54796 -0.827199 0
      vertex -6.54796 -0.827199 0.4
    endloop
  endfacet
  facet normal 0.982287 0.187381 0
    outer loop
      vertex -6.54796 -0.827199 0
      vertex -6.39265 -1.64135 0.4
      vertex -6.39265 -1.64135 0
    endloop
  endfacet
  facet normal -0.248689 0.968583 0
    outer loop
      vertex 2.03951 -6.27697 0
      vertex 1.23672 -6.4831 0.4
      vertex 2.03951 -6.27697 0.4
    endloop
  endfacet
  facet normal -0.248689 0.968583 0
    outer loop
      vertex 1.23672 -6.4831 0.4
      vertex 2.03951 -6.27697 0
      vertex 1.23672 -6.4831 0
    endloop
  endfacet
  facet normal 0.481753 0.876307 -0
    outer loop
      vertex -2.81014 -5.97186 0
      vertex -3.53646 -5.57256 0.4
      vertex -2.81014 -5.97186 0.4
    endloop
  endfacet
  facet normal 0.481753 0.876307 0
    outer loop
      vertex -3.53646 -5.57256 0.4
      vertex -2.81014 -5.97186 0
      vertex -3.53646 -5.57256 0
    endloop
  endfacet
  facet normal 0.125334 0.992115 -0
    outer loop
      vertex -0.414417 -6.58698 0
      vertex -1.23672 -6.4831 0.4
      vertex -0.414417 -6.58698 0.4
    endloop
  endfacet
  facet normal 0.125334 0.992115 0
    outer loop
      vertex -1.23672 -6.4831 0.4
      vertex -0.414417 -6.58698 0
      vertex -1.23672 -6.4831 0
    endloop
  endfacet
  facet normal 1 -0 0
    outer loop
      vertex 25 -8 2.9
      vertex 25 7 0
      vertex 25 7 2.9
    endloop
  endfacet
  facet normal 1 0 0
    outer loop
      vertex 25 7 0
      vertex 25 -8 2.9
      vertex 25 -8 0
    endloop
  endfacet
  facet normal 0 1 0
    outer loop
      vertex 25 7 2.9
      vertex 11 7 0.4
      vertex 11 7 2.9
    endloop
  endfacet
  facet normal 0 1 -0
    outer loop
      vertex 25 7 0
      vertex 11 7 0.4
      vertex 25 7 2.9
    endloop
  endfacet
  facet normal 0 1 0
    outer loop
      vertex 8.1333 7 0
      vertex 11 7 0.4
      vertex 25 7 0
    endloop
  endfacet
  facet normal 0 1 0
    outer loop
      vertex 11 7 0.4
      vertex 8.1333 7 0
      vertex 8.1333 7 0.4
    endloop
  endfacet
  facet normal 0 -1 0
    outer loop
      vertex 7.15369 -8 0.4
      vertex 7.15369 -8 0
      vertex 11 -8 0.4
    endloop
  endfacet
  facet normal 0 -1 0
    outer loop
      vertex 11 -8 0.4
      vertex 25 -8 2.9
      vertex 11 -8 2.9
    endloop
  endfacet
  facet normal 0 -1 0
    outer loop
      vertex 11 -8 0.4
      vertex 25 -8 0
      vertex 25 -8 2.9
    endloop
  endfacet
  facet normal 0 -1 0
    outer loop
      vertex 25 -8 0
      vertex 11 -8 0.4
      vertex 7.15369 -8 0
    endloop
  endfacet
  facet normal -1 0 0
    outer loop
      vertex 11 -8 0.4
      vertex 11 7 2.9
      vertex 11 7 0.4
    endloop
  endfacet
  facet normal -1 -0 0
    outer loop
      vertex 11 7 2.9
      vertex 11 -8 0.4
      vertex 11 -8 2.9
    endloop
  endfacet
  facet normal -0 0 1
    outer loop
      vertex 11 7 2.9
      vertex 25 -8 2.9
      vertex 25 7 2.9
    endloop
  endfacet
  facet normal 0 0 1
    outer loop
      vertex 25 -8 2.9
      vertex 11 7 2.9
      vertex 11 -8 2.9
    endloop
  endfacet
endsolid OpenSCAD_Model
