solid OpenSCAD_Model
  facet normal -0.998027 0.0627908 0
    outer loop
      vertex -10.75 0 0
      vertex -10.6652 1.34733 0.799999
      vertex -10.6652 1.34733 0
    endloop
  endfacet
  facet normal -0.998027 0.0627908 0
    outer loop
      vertex -10.6652 1.34733 0.799999
      vertex -10.75 0 0
      vertex -10.75 0 0.799999
    endloop
  endfacet
  facet normal 0 1 -0
    outer loop
      vertex 0.674997 10.7288 0
      vertex -0.674997 10.7288 0.799999
      vertex 0.674997 10.7288 0.799999
    endloop
  endfacet
  facet normal 0 1 0
    outer loop
      vertex -0.674997 10.7288 0.799999
      vertex 0.674997 10.7288 0
      vertex -0.674997 10.7288 0
    endloop
  endfacet
  facet normal 0 -1 0
    outer loop
      vertex -0.674997 -10.7288 0
      vertex 0.674997 -10.7288 0.799999
      vertex -0.674997 -10.7288 0.799999
    endloop
  endfacet
  facet normal 0 -1 -0
    outer loop
      vertex 0.674997 -10.7288 0.799999
      vertex -0.674997 -10.7288 0
      vertex 0.674997 -10.7288 0
    endloop
  endfacet
  facet normal 0.684547 0.728969 -0
    outer loop
      vertex 7.83641 7.35888 0
      vertex 6.85231 8.28302 0.799999
      vertex 7.83641 7.35888 0.799999
    endloop
  endfacet
  facet normal 0.684547 0.728969 0
    outer loop
      vertex 6.85231 8.28302 0.799999
      vertex 7.83641 7.35888 0
      vertex 6.85231 8.28302 0
    endloop
  endfacet
  facet normal -0.684547 0.728969 0
    outer loop
      vertex -6.85231 8.28302 0
      vertex -7.83641 7.35888 0.799999
      vertex -6.85231 8.28302 0.799999
    endloop
  endfacet
  facet normal -0.684547 0.728969 0
    outer loop
      vertex -7.83641 7.35888 0.799999
      vertex -6.85231 8.28302 0
      vertex -7.83641 7.35888 0
    endloop
  endfacet
  facet normal -0.368124 0.929777 0
    outer loop
      vertex -3.32193 10.2239 0
      vertex -4.57713 9.72689 0.799999
      vertex -3.32193 10.2239 0.799999
    endloop
  endfacet
  facet normal -0.368124 0.929777 0
    outer loop
      vertex -4.57713 9.72689 0.799999
      vertex -3.32193 10.2239 0
      vertex -4.57713 9.72689 0
    endloop
  endfacet
  facet normal 0.368124 0.929777 -0
    outer loop
      vertex 4.57713 9.72689 0
      vertex 3.32193 10.2239 0.799999
      vertex 4.57713 9.72689 0.799999
    endloop
  endfacet
  facet normal 0.368124 0.929777 0
    outer loop
      vertex 3.32193 10.2239 0.799999
      vertex 4.57713 9.72689 0
      vertex 3.32193 10.2239 0
    endloop
  endfacet
  facet normal 0.24869 0.968583 -0
    outer loop
      vertex 3.32193 10.2239 0
      vertex 2.01435 10.5596 0.799999
      vertex 3.32193 10.2239 0.799999
    endloop
  endfacet
  facet normal 0.24869 0.968583 0
    outer loop
      vertex 2.01435 10.5596 0.799999
      vertex 3.32193 10.2239 0
      vertex 2.01435 10.5596 0
    endloop
  endfacet
  facet normal 0.481754 0.876307 -0
    outer loop
      vertex 5.76014 9.07652 0
      vertex 4.57713 9.72689 0.799999
      vertex 5.76014 9.07652 0.799999
    endloop
  endfacet
  facet normal 0.481754 0.876307 0
    outer loop
      vertex 4.57713 9.72689 0.799999
      vertex 5.76014 9.07652 0
      vertex 4.57713 9.72689 0
    endloop
  endfacet
  facet normal -0.904827 0.425779 0
    outer loop
      vertex -9.9951 3.95734 0
      vertex -9.4203 5.17885 0.799999
      vertex -9.4203 5.17885 0
    endloop
  endfacet
  facet normal -0.904827 0.425779 0
    outer loop
      vertex -9.4203 5.17885 0.799999
      vertex -9.9951 3.95734 0
      vertex -9.9951 3.95734 0.799999
    endloop
  endfacet
  facet normal -0.844328 0.535827 0
    outer loop
      vertex -9.4203 5.17885 0
      vertex -8.69693 6.31869 0.799999
      vertex -8.69693 6.31869 0
    endloop
  endfacet
  facet normal -0.844328 0.535827 0
    outer loop
      vertex -8.69693 6.31869 0.799999
      vertex -9.4203 5.17885 0
      vertex -9.4203 5.17885 0.799999
    endloop
  endfacet
  facet normal -0.951057 0.309017 0
    outer loop
      vertex -10.4123 2.67342 0
      vertex -9.9951 3.95734 0.799999
      vertex -9.9951 3.95734 0
    endloop
  endfacet
  facet normal -0.951057 0.309017 0
    outer loop
      vertex -9.9951 3.95734 0.799999
      vertex -10.4123 2.67342 0
      vertex -10.4123 2.67342 0.799999
    endloop
  endfacet
  facet normal -0.587785 0.809017 0
    outer loop
      vertex -5.76014 9.07652 0
      vertex -6.85231 8.28302 0.799999
      vertex -5.76014 9.07652 0.799999
    endloop
  endfacet
  facet normal -0.587785 0.809017 0
    outer loop
      vertex -6.85231 8.28302 0.799999
      vertex -5.76014 9.07652 0
      vertex -6.85231 8.28302 0
    endloop
  endfacet
  facet normal -0.125333 0.992115 0
    outer loop
      vertex -0.674997 10.7288 0
      vertex -2.01435 10.5596 0.799999
      vertex -0.674997 10.7288 0.799999
    endloop
  endfacet
  facet normal -0.125333 0.992115 0
    outer loop
      vertex -2.01435 10.5596 0.799999
      vertex -0.674997 10.7288 0
      vertex -2.01435 10.5596 0
    endloop
  endfacet
  facet normal 0.125333 -0.992115 0
    outer loop
      vertex 0.674997 -10.7288 0
      vertex 2.01435 -10.5596 0.799999
      vertex 0.674997 -10.7288 0.799999
    endloop
  endfacet
  facet normal 0.125333 -0.992115 0
    outer loop
      vertex 2.01435 -10.5596 0.799999
      vertex 0.674997 -10.7288 0
      vertex 2.01435 -10.5596 0
    endloop
  endfacet
  facet normal 0.770513 0.637424 0
    outer loop
      vertex 8.1333 7 0.799999
      vertex 7.83641 7.35888 0
      vertex 7.83641 7.35888 0.799999
    endloop
  endfacet
  facet normal 0.770513 0.637424 0
    outer loop
      vertex 7.83641 7.35888 0
      vertex 8.1333 7 0.799999
      vertex 8.1333 7 0
    endloop
  endfacet
  facet normal 0.125333 0.992115 -0
    outer loop
      vertex 2.01435 10.5596 0
      vertex 0.674997 10.7288 0.799999
      vertex 2.01435 10.5596 0.799999
    endloop
  endfacet
  facet normal 0.125333 0.992115 0
    outer loop
      vertex 0.674997 10.7288 0.799999
      vertex 2.01435 10.5596 0
      vertex 0.674997 10.7288 0
    endloop
  endfacet
  facet normal 0.587785 0.809017 -0
    outer loop
      vertex 6.85231 8.28302 0
      vertex 5.76014 9.07652 0.799999
      vertex 6.85231 8.28302 0.799999
    endloop
  endfacet
  facet normal 0.587785 0.809017 0
    outer loop
      vertex 5.76014 9.07652 0.799999
      vertex 6.85231 8.28302 0
      vertex 5.76014 9.07652 0
    endloop
  endfacet
  facet normal -0.982287 0.187381 0
    outer loop
      vertex -10.6652 1.34733 0
      vertex -10.4123 2.67342 0.799999
      vertex -10.4123 2.67342 0
    endloop
  endfacet
  facet normal -0.982287 0.187381 0
    outer loop
      vertex -10.4123 2.67342 0.799999
      vertex -10.6652 1.34733 0
      vertex -10.6652 1.34733 0.799999
    endloop
  endfacet
  facet normal -0 0 1
    outer loop
      vertex 8.1333 7 0.799999
      vertex 25 -8 0.799999
      vertex 25 7 0.799999
    endloop
  endfacet
  facet normal 0 0 1
    outer loop
      vertex 8.1333 7 0.799999
      vertex 7.15369 -8 0.799999
      vertex 25 -8 0.799999
    endloop
  endfacet
  facet normal 0 0 1
    outer loop
      vertex 1.16635 1.09527 0.799999
      vertex 8.1333 7 0.799999
      vertex 7.83641 7.35888 0.799999
    endloop
  endfacet
  facet normal 0 0 1
    outer loop
      vertex 1.16635 1.09527 0.799999
      vertex 7.83641 7.35888 0.799999
      vertex 6.85231 8.28302 0.799999
    endloop
  endfacet
  facet normal 0 0 1
    outer loop
      vertex 8.1333 7 0.799999
      vertex 1.6 0 0.799999
      vertex 7.15369 -8 0.799999
    endloop
  endfacet
  facet normal 0 0 1
    outer loop
      vertex 1.01988 1.23282 0.799999
      vertex 6.85231 8.28302 0.799999
      vertex 5.76014 9.07652 0.799999
    endloop
  endfacet
  facet normal -0 0 1
    outer loop
      vertex 1.58738 -0.200533 0.799999
      vertex 7.15369 -8 0.799999
      vertex 1.6 0 0.799999
    endloop
  endfacet
  facet normal 0 0 1
    outer loop
      vertex 0.857323 1.35092 0.799999
      vertex 5.76014 9.07652 0.799999
      vertex 4.57713 9.72689 0.799999
    endloop
  endfacet
  facet normal -0 0 1
    outer loop
      vertex 1.54973 -0.397903 0.799999
      vertex 7.15369 -8 0.799999
      vertex 1.58738 -0.200533 0.799999
    endloop
  endfacet
  facet normal 0 0 1
    outer loop
      vertex 0.681247 1.44772 0.799999
      vertex 4.57713 9.72689 0.799999
      vertex 3.32193 10.2239 0.799999
    endloop
  endfacet
  facet normal -0 0 1
    outer loop
      vertex 1.48764 -0.588999 0.799999
      vertex 7.15369 -8 0.799999
      vertex 1.54973 -0.397903 0.799999
    endloop
  endfacet
  facet normal 0 0 1
    outer loop
      vertex 0.494427 1.52169 0.799999
      vertex 3.32193 10.2239 0.799999
      vertex 2.01435 10.5596 0.799999
    endloop
  endfacet
  facet normal -0 0 1
    outer loop
      vertex 1.40209 -0.770805 0.799999
      vertex 7.15369 -8 0.799999
      vertex 1.48764 -0.588999 0.799999
    endloop
  endfacet
  facet normal -0 0 1
    outer loop
      vertex 1.29443 -0.940456 0.799999
      vertex 7.15369 -8 0.799999
      vertex 1.40209 -0.770805 0.799999
    endloop
  endfacet
  facet normal 0 0 1
    outer loop
      vertex 8.1333 7 0.799999
      vertex 1.58738 0.200533 0.799999
      vertex 1.6 0 0.799999
    endloop
  endfacet
  facet normal 0 0 1
    outer loop
      vertex 8.1333 7 0.799999
      vertex 1.54973 0.397903 0.799999
      vertex 1.58738 0.200533 0.799999
    endloop
  endfacet
  facet normal 0 0 1
    outer loop
      vertex 8.1333 7 0.799999
      vertex 1.48764 0.588999 0.799999
      vertex 1.54973 0.397903 0.799999
    endloop
  endfacet
  facet normal 0 0 1
    outer loop
      vertex 8.1333 7 0.799999
      vertex 1.40209 0.770805 0.799999
      vertex 1.48764 0.588999 0.799999
    endloop
  endfacet
  facet normal 0 0 1
    outer loop
      vertex 8.1333 7 0.799999
      vertex 1.29443 0.940456 0.799999
      vertex 1.40209 0.770805 0.799999
    endloop
  endfacet
  facet normal 0 0 1
    outer loop
      vertex 8.1333 7 0.799999
      vertex 1.16635 1.09527 0.799999
      vertex 1.29443 0.940456 0.799999
    endloop
  endfacet
  facet normal 0 0 1
    outer loop
      vertex 6.85231 8.28302 0.799999
      vertex 1.01988 1.23282 0.799999
      vertex 1.16635 1.09527 0.799999
    endloop
  endfacet
  facet normal 0 0 1
    outer loop
      vertex 5.76014 9.07652 0.799999
      vertex 0.857323 1.35092 0.799999
      vertex 1.01988 1.23282 0.799999
    endloop
  endfacet
  facet normal 0 0 1
    outer loop
      vertex 4.57713 9.72689 0.799999
      vertex 0.681247 1.44772 0.799999
      vertex 0.857323 1.35092 0.799999
    endloop
  endfacet
  facet normal 0 0 1
    outer loop
      vertex 0.299809 1.57166 0.799999
      vertex 2.01435 10.5596 0.799999
      vertex 0.674997 10.7288 0.799999
    endloop
  endfacet
  facet normal 0 0 1
    outer loop
      vertex 3.32193 10.2239 0.799999
      vertex 0.494427 1.52169 0.799999
      vertex 0.681247 1.44772 0.799999
    endloop
  endfacet
  facet normal 0 0 1
    outer loop
      vertex 2.01435 10.5596 0.799999
      vertex 0.299809 1.57166 0.799999
      vertex 0.494427 1.52169 0.799999
    endloop
  endfacet
  facet normal 0 0 1
    outer loop
      vertex 0.674997 10.7288 0.799999
      vertex 0.100465 1.59684 0.799999
      vertex 0.299809 1.57166 0.799999
    endloop
  endfacet
  facet normal 0 0 1
    outer loop
      vertex 0.674997 10.7288 0.799999
      vertex -0.100465 1.59684 0.799999
      vertex 0.100465 1.59684 0.799999
    endloop
  endfacet
  facet normal -0 0 1
    outer loop
      vertex -0.674997 10.7288 0.799999
      vertex -0.100465 1.59684 0.799999
      vertex 0.674997 10.7288 0.799999
    endloop
  endfacet
  facet normal 0 0 1
    outer loop
      vertex -0.100465 1.59684 0.799999
      vertex -0.674997 10.7288 0.799999
      vertex -0.299809 1.57166 0.799999
    endloop
  endfacet
  facet normal -0 0 1
    outer loop
      vertex -2.01435 10.5596 0.799999
      vertex -0.299809 1.57166 0.799999
      vertex -0.674997 10.7288 0.799999
    endloop
  endfacet
  facet normal 0 0 1
    outer loop
      vertex -0.299809 1.57166 0.799999
      vertex -2.01435 10.5596 0.799999
      vertex -0.494427 1.52169 0.799999
    endloop
  endfacet
  facet normal -0 0 1
    outer loop
      vertex -3.32193 10.2239 0.799999
      vertex -0.494427 1.52169 0.799999
      vertex -2.01435 10.5596 0.799999
    endloop
  endfacet
  facet normal 0 0 1
    outer loop
      vertex -0.494427 1.52169 0.799999
      vertex -3.32193 10.2239 0.799999
      vertex -0.681247 1.44772 0.799999
    endloop
  endfacet
  facet normal -0 0 1
    outer loop
      vertex -4.57713 9.72689 0.799999
      vertex -0.681247 1.44772 0.799999
      vertex -3.32193 10.2239 0.799999
    endloop
  endfacet
  facet normal 0 0 1
    outer loop
      vertex -0.681247 1.44772 0.799999
      vertex -4.57713 9.72689 0.799999
      vertex -0.857323 1.35092 0.799999
    endloop
  endfacet
  facet normal -0 0 1
    outer loop
      vertex -5.76014 9.07652 0.799999
      vertex -0.857323 1.35092 0.799999
      vertex -4.57713 9.72689 0.799999
    endloop
  endfacet
  facet normal 0 0 1
    outer loop
      vertex -0.857323 1.35092 0.799999
      vertex -5.76014 9.07652 0.799999
      vertex -1.01988 1.23282 0.799999
    endloop
  endfacet
  facet normal -0 0 1
    outer loop
      vertex -6.85231 8.28302 0.799999
      vertex -1.01988 1.23282 0.799999
      vertex -5.76014 9.07652 0.799999
    endloop
  endfacet
  facet normal 0 0 1
    outer loop
      vertex -1.01988 1.23282 0.799999
      vertex -6.85231 8.28302 0.799999
      vertex -1.16635 1.09527 0.799999
    endloop
  endfacet
  facet normal 0 0 1
    outer loop
      vertex -1.16635 1.09527 0.799999
      vertex -7.83641 7.35888 0.799999
      vertex -1.29443 0.940456 0.799999
    endloop
  endfacet
  facet normal -0 0 1
    outer loop
      vertex -7.83641 7.35888 0.799999
      vertex -1.16635 1.09527 0.799999
      vertex -6.85231 8.28302 0.799999
    endloop
  endfacet
  facet normal -0 0 1
    outer loop
      vertex 1.16635 -1.09527 0.799999
      vertex 7.15369 -8 0.799999
      vertex 1.29443 -0.940456 0.799999
    endloop
  endfacet
  facet normal -0 0 1
    outer loop
      vertex 1.01988 -1.23282 0.799999
      vertex 7.15369 -8 0.799999
      vertex 1.16635 -1.09527 0.799999
    endloop
  endfacet
  facet normal 0 0 1
    outer loop
      vertex 7.15369 -8 0.799999
      vertex 1.01988 -1.23282 0.799999
      vertex 6.85231 -8.28302 0.799999
    endloop
  endfacet
  facet normal 0 0 1
    outer loop
      vertex 6.85231 -8.28302 0.799999
      vertex 1.01988 -1.23282 0.799999
      vertex 5.76014 -9.07652 0.799999
    endloop
  endfacet
  facet normal -0 0 1
    outer loop
      vertex 0.857323 -1.35092 0.799999
      vertex 5.76014 -9.07652 0.799999
      vertex 1.01988 -1.23282 0.799999
    endloop
  endfacet
  facet normal 0 0 1
    outer loop
      vertex 5.76014 -9.07652 0.799999
      vertex 0.857323 -1.35092 0.799999
      vertex 4.57713 -9.72689 0.799999
    endloop
  endfacet
  facet normal -0 0 1
    outer loop
      vertex 0.681247 -1.44772 0.799999
      vertex 4.57713 -9.72689 0.799999
      vertex 0.857323 -1.35092 0.799999
    endloop
  endfacet
  facet normal 0 0 1
    outer loop
      vertex 4.57713 -9.72689 0.799999
      vertex 0.681247 -1.44772 0.799999
      vertex 3.32193 -10.2239 0.799999
    endloop
  endfacet
  facet normal -0 0 1
    outer loop
      vertex 0.494427 -1.52169 0.799999
      vertex 3.32193 -10.2239 0.799999
      vertex 0.681247 -1.44772 0.799999
    endloop
  endfacet
  facet normal 0 0 1
    outer loop
      vertex 3.32193 -10.2239 0.799999
      vertex 0.494427 -1.52169 0.799999
      vertex 2.01435 -10.5596 0.799999
    endloop
  endfacet
  facet normal -0 0 1
    outer loop
      vertex 0.299809 -1.57166 0.799999
      vertex 2.01435 -10.5596 0.799999
      vertex 0.494427 -1.52169 0.799999
    endloop
  endfacet
  facet normal 0 0 1
    outer loop
      vertex 2.01435 -10.5596 0.799999
      vertex 0.299809 -1.57166 0.799999
      vertex 0.674997 -10.7288 0.799999
    endloop
  endfacet
  facet normal -0 0 1
    outer loop
      vertex 0.100465 -1.59684 0.799999
      vertex 0.674997 -10.7288 0.799999
      vertex 0.299809 -1.57166 0.799999
    endloop
  endfacet
  facet normal -0 0 1
    outer loop
      vertex -0.100465 -1.59684 0.799999
      vertex 0.674997 -10.7288 0.799999
      vertex 0.100465 -1.59684 0.799999
    endloop
  endfacet
  facet normal 0 0 1
    outer loop
      vertex -0.674997 -10.7288 0.799999
      vertex -0.100465 -1.59684 0.799999
      vertex -0.299809 -1.57166 0.799999
    endloop
  endfacet
  facet normal 0 0 1
    outer loop
      vertex -2.01435 -10.5596 0.799999
      vertex -0.299809 -1.57166 0.799999
      vertex -0.494427 -1.52169 0.799999
    endloop
  endfacet
  facet normal 0 0 1
    outer loop
      vertex -0.100465 -1.59684 0.799999
      vertex -0.674997 -10.7288 0.799999
      vertex 0.674997 -10.7288 0.799999
    endloop
  endfacet
  facet normal 0 0 1
    outer loop
      vertex -3.32193 -10.2239 0.799999
      vertex -0.494427 -1.52169 0.799999
      vertex -0.681247 -1.44772 0.799999
    endloop
  endfacet
  facet normal 0 0 1
    outer loop
      vertex -4.57713 -9.72689 0.799999
      vertex -0.681247 -1.44772 0.799999
      vertex -0.857323 -1.35092 0.799999
    endloop
  endfacet
  facet normal 0 0 1
    outer loop
      vertex -5.76014 -9.07652 0.799999
      vertex -0.857323 -1.35092 0.799999
      vertex -1.01988 -1.23282 0.799999
    endloop
  endfacet
  facet normal 0 0 1
    outer loop
      vertex -6.85231 -8.28302 0.799999
      vertex -1.01988 -1.23282 0.799999
      vertex -1.16635 -1.09527 0.799999
    endloop
  endfacet
  facet normal 0 0 1
    outer loop
      vertex -7.83641 -7.35888 0.799999
      vertex -1.16635 -1.09527 0.799999
      vertex -1.29443 -0.940456 0.799999
    endloop
  endfacet
  facet normal 0 0 1
    outer loop
      vertex -8.69693 -6.31869 0.799999
      vertex -1.29443 -0.940456 0.799999
      vertex -1.40209 -0.770805 0.799999
    endloop
  endfacet
  facet normal 0 0 1
    outer loop
      vertex -9.4203 -5.17885 0.799999
      vertex -1.40209 -0.770805 0.799999
      vertex -1.48764 -0.588999 0.799999
    endloop
  endfacet
  facet normal 0 0 1
    outer loop
      vertex -9.9951 -3.95734 0.799999
      vertex -1.48764 -0.588999 0.799999
      vertex -1.54973 -0.397903 0.799999
    endloop
  endfacet
  facet normal 0 0 1
    outer loop
      vertex -10.4123 -2.67342 0.799999
      vertex -1.54973 -0.397903 0.799999
      vertex -1.58738 -0.200533 0.799999
    endloop
  endfacet
  facet normal 0 0 1
    outer loop
      vertex -0.299809 -1.57166 0.799999
      vertex -2.01435 -10.5596 0.799999
      vertex -0.674997 -10.7288 0.799999
    endloop
  endfacet
  facet normal 0 0 1
    outer loop
      vertex -10.6652 -1.34733 0.799999
      vertex -1.58738 -0.200533 0.799999
      vertex -1.6 0 0.799999
    endloop
  endfacet
  facet normal -0 0 1
    outer loop
      vertex -8.69693 6.31869 0.799999
      vertex -1.29443 0.940456 0.799999
      vertex -7.83641 7.35888 0.799999
    endloop
  endfacet
  facet normal 0 0 1
    outer loop
      vertex -1.29443 0.940456 0.799999
      vertex -8.69693 6.31869 0.799999
      vertex -1.40209 0.770805 0.799999
    endloop
  endfacet
  facet normal 0 0 1
    outer loop
      vertex -0.494427 -1.52169 0.799999
      vertex -3.32193 -10.2239 0.799999
      vertex -2.01435 -10.5596 0.799999
    endloop
  endfacet
  facet normal -0 0 1
    outer loop
      vertex -9.4203 5.17885 0.799999
      vertex -1.40209 0.770805 0.799999
      vertex -8.69693 6.31869 0.799999
    endloop
  endfacet
  facet normal 0 0 1
    outer loop
      vertex -0.681247 -1.44772 0.799999
      vertex -4.57713 -9.72689 0.799999
      vertex -3.32193 -10.2239 0.799999
    endloop
  endfacet
  facet normal 0 0 1
    outer loop
      vertex -1.40209 0.770805 0.799999
      vertex -9.4203 5.17885 0.799999
      vertex -1.48764 0.588999 0.799999
    endloop
  endfacet
  facet normal 0 0 1
    outer loop
      vertex -0.857323 -1.35092 0.799999
      vertex -5.76014 -9.07652 0.799999
      vertex -4.57713 -9.72689 0.799999
    endloop
  endfacet
  facet normal -0 0 1
    outer loop
      vertex -9.9951 3.95734 0.799999
      vertex -1.48764 0.588999 0.799999
      vertex -9.4203 5.17885 0.799999
    endloop
  endfacet
  facet normal 0 0 1
    outer loop
      vertex -1.01988 -1.23282 0.799999
      vertex -6.85231 -8.28302 0.799999
      vertex -5.76014 -9.07652 0.799999
    endloop
  endfacet
  facet normal 0 0 1
    outer loop
      vertex -1.48764 0.588999 0.799999
      vertex -9.9951 3.95734 0.799999
      vertex -1.54973 0.397903 0.799999
    endloop
  endfacet
  facet normal 0 0 1
    outer loop
      vertex -1.16635 -1.09527 0.799999
      vertex -7.83641 -7.35888 0.799999
      vertex -6.85231 -8.28302 0.799999
    endloop
  endfacet
  facet normal -0 0 1
    outer loop
      vertex -10.4123 2.67342 0.799999
      vertex -1.54973 0.397903 0.799999
      vertex -9.9951 3.95734 0.799999
    endloop
  endfacet
  facet normal 0 0 1
    outer loop
      vertex -1.29443 -0.940456 0.799999
      vertex -8.69693 -6.31869 0.799999
      vertex -7.83641 -7.35888 0.799999
    endloop
  endfacet
  facet normal 0 0 1
    outer loop
      vertex -1.54973 0.397903 0.799999
      vertex -10.4123 2.67342 0.799999
      vertex -1.58738 0.200533 0.799999
    endloop
  endfacet
  facet normal 0 0 1
    outer loop
      vertex -1.40209 -0.770805 0.799999
      vertex -9.4203 -5.17885 0.799999
      vertex -8.69693 -6.31869 0.799999
    endloop
  endfacet
  facet normal -0 0 1
    outer loop
      vertex -10.6652 1.34733 0.799999
      vertex -1.58738 0.200533 0.799999
      vertex -10.4123 2.67342 0.799999
    endloop
  endfacet
  facet normal 0 0 1
    outer loop
      vertex -1.48764 -0.588999 0.799999
      vertex -9.9951 -3.95734 0.799999
      vertex -9.4203 -5.17885 0.799999
    endloop
  endfacet
  facet normal 0 0 1
    outer loop
      vertex -1.58738 0.200533 0.799999
      vertex -10.6652 1.34733 0.799999
      vertex -1.6 0 0.799999
    endloop
  endfacet
  facet normal 0 0 1
    outer loop
      vertex -1.54973 -0.397903 0.799999
      vertex -10.4123 -2.67342 0.799999
      vertex -9.9951 -3.95734 0.799999
    endloop
  endfacet
  facet normal 0 0 1
    outer loop
      vertex -10.75 0 0.799999
      vertex -1.6 0 0.799999
      vertex -10.6652 1.34733 0.799999
    endloop
  endfacet
  facet normal 0 0 1
    outer loop
      vertex -1.58738 -0.200533 0.799999
      vertex -10.6652 -1.34733 0.799999
      vertex -10.4123 -2.67342 0.799999
    endloop
  endfacet
  facet normal 0 0 1
    outer loop
      vertex -1.6 0 0.799999
      vertex -10.75 0 0.799999
      vertex -10.6652 -1.34733 0.799999
    endloop
  endfacet
  facet normal -0.24869 0.968583 0
    outer loop
      vertex -2.01435 10.5596 0
      vertex -3.32193 10.2239 0.799999
      vertex -2.01435 10.5596 0.799999
    endloop
  endfacet
  facet normal -0.24869 0.968583 0
    outer loop
      vertex -3.32193 10.2239 0.799999
      vertex -2.01435 10.5596 0
      vertex -3.32193 10.2239 0
    endloop
  endfacet
  facet normal -0.844328 -0.535827 0
    outer loop
      vertex -8.69693 -6.31869 0
      vertex -9.4203 -5.17885 0.799999
      vertex -9.4203 -5.17885 0
    endloop
  endfacet
  facet normal -0.844328 -0.535827 0
    outer loop
      vertex -9.4203 -5.17885 0.799999
      vertex -8.69693 -6.31869 0
      vertex -8.69693 -6.31869 0.799999
    endloop
  endfacet
  facet normal -0.904827 -0.425779 0
    outer loop
      vertex -9.4203 -5.17885 0
      vertex -9.9951 -3.95734 0.799999
      vertex -9.9951 -3.95734 0
    endloop
  endfacet
  facet normal -0.904827 -0.425779 0
    outer loop
      vertex -9.9951 -3.95734 0.799999
      vertex -9.4203 -5.17885 0
      vertex -9.4203 -5.17885 0.799999
    endloop
  endfacet
  facet normal 0 0 -1
    outer loop
      vertex 25 -8 0
      vertex 8.1333 7 0
      vertex 25 7 0
    endloop
  endfacet
  facet normal 0 0 -1
    outer loop
      vertex 7.15369 -8 0
      vertex 8.1333 7 0
      vertex 25 -8 0
    endloop
  endfacet
  facet normal 0 0 -1
    outer loop
      vertex 1.6 0 0
      vertex 8.1333 7 0
      vertex 7.15369 -8 0
    endloop
  endfacet
  facet normal 0 0 -1
    outer loop
      vertex 1.01988 -1.23282 0
      vertex 7.15369 -8 0
      vertex 6.85231 -8.28302 0
    endloop
  endfacet
  facet normal 0 0 -1
    outer loop
      vertex 1.58738 0.200533 0
      vertex 8.1333 7 0
      vertex 1.6 0 0
    endloop
  endfacet
  facet normal 0 0 -1
    outer loop
      vertex 1.01988 -1.23282 0
      vertex 6.85231 -8.28302 0
      vertex 5.76014 -9.07652 0
    endloop
  endfacet
  facet normal 0 0 -1
    outer loop
      vertex 1.54973 0.397903 0
      vertex 8.1333 7 0
      vertex 1.58738 0.200533 0
    endloop
  endfacet
  facet normal 0 0 -1
    outer loop
      vertex 0.857323 -1.35092 0
      vertex 5.76014 -9.07652 0
      vertex 4.57713 -9.72689 0
    endloop
  endfacet
  facet normal 0 0 -1
    outer loop
      vertex 1.48764 0.588999 0
      vertex 8.1333 7 0
      vertex 1.54973 0.397903 0
    endloop
  endfacet
  facet normal 0 0 -1
    outer loop
      vertex 0.681247 -1.44772 0
      vertex 4.57713 -9.72689 0
      vertex 3.32193 -10.2239 0
    endloop
  endfacet
  facet normal 0 0 -1
    outer loop
      vertex 1.40209 0.770805 0
      vertex 8.1333 7 0
      vertex 1.48764 0.588999 0
    endloop
  endfacet
  facet normal 0 0 -1
    outer loop
      vertex 0.494427 -1.52169 0
      vertex 3.32193 -10.2239 0
      vertex 2.01435 -10.5596 0
    endloop
  endfacet
  facet normal 0 0 -1
    outer loop
      vertex 1.29443 0.940456 0
      vertex 8.1333 7 0
      vertex 1.40209 0.770805 0
    endloop
  endfacet
  facet normal 0 0 -1
    outer loop
      vertex 1.16635 1.09527 0
      vertex 8.1333 7 0
      vertex 1.29443 0.940456 0
    endloop
  endfacet
  facet normal 0 0 -1
    outer loop
      vertex 7.15369 -8 0
      vertex 1.58738 -0.200533 0
      vertex 1.6 0 0
    endloop
  endfacet
  facet normal 0 0 -1
    outer loop
      vertex 7.15369 -8 0
      vertex 1.54973 -0.397903 0
      vertex 1.58738 -0.200533 0
    endloop
  endfacet
  facet normal 0 0 -1
    outer loop
      vertex 7.15369 -8 0
      vertex 1.48764 -0.588999 0
      vertex 1.54973 -0.397903 0
    endloop
  endfacet
  facet normal 0 0 -1
    outer loop
      vertex 7.15369 -8 0
      vertex 1.40209 -0.770805 0
      vertex 1.48764 -0.588999 0
    endloop
  endfacet
  facet normal 0 0 -1
    outer loop
      vertex 7.15369 -8 0
      vertex 1.29443 -0.940456 0
      vertex 1.40209 -0.770805 0
    endloop
  endfacet
  facet normal 0 0 -1
    outer loop
      vertex 7.15369 -8 0
      vertex 1.16635 -1.09527 0
      vertex 1.29443 -0.940456 0
    endloop
  endfacet
  facet normal 0 0 -1
    outer loop
      vertex 7.15369 -8 0
      vertex 1.01988 -1.23282 0
      vertex 1.16635 -1.09527 0
    endloop
  endfacet
  facet normal 0 0 -1
    outer loop
      vertex 5.76014 -9.07652 0
      vertex 0.857323 -1.35092 0
      vertex 1.01988 -1.23282 0
    endloop
  endfacet
  facet normal 0 0 -1
    outer loop
      vertex 4.57713 -9.72689 0
      vertex 0.681247 -1.44772 0
      vertex 0.857323 -1.35092 0
    endloop
  endfacet
  facet normal 0 0 -1
    outer loop
      vertex 0.299809 -1.57166 0
      vertex 2.01435 -10.5596 0
      vertex 0.674997 -10.7288 0
    endloop
  endfacet
  facet normal 0 0 -1
    outer loop
      vertex 3.32193 -10.2239 0
      vertex 0.494427 -1.52169 0
      vertex 0.681247 -1.44772 0
    endloop
  endfacet
  facet normal 0 0 -1
    outer loop
      vertex 2.01435 -10.5596 0
      vertex 0.299809 -1.57166 0
      vertex 0.494427 -1.52169 0
    endloop
  endfacet
  facet normal 0 0 -1
    outer loop
      vertex 0.674997 -10.7288 0
      vertex 0.100465 -1.59684 0
      vertex 0.299809 -1.57166 0
    endloop
  endfacet
  facet normal 0 0 -1
    outer loop
      vertex 0.674997 -10.7288 0
      vertex -0.100465 -1.59684 0
      vertex 0.100465 -1.59684 0
    endloop
  endfacet
  facet normal 0 0 -1
    outer loop
      vertex -0.674997 -10.7288 0
      vertex -0.100465 -1.59684 0
      vertex 0.674997 -10.7288 0
    endloop
  endfacet
  facet normal -0 0 -1
    outer loop
      vertex -0.100465 -1.59684 0
      vertex -0.674997 -10.7288 0
      vertex -0.299809 -1.57166 0
    endloop
  endfacet
  facet normal 0 0 -1
    outer loop
      vertex -2.01435 -10.5596 0
      vertex -0.299809 -1.57166 0
      vertex -0.674997 -10.7288 0
    endloop
  endfacet
  facet normal -0 0 -1
    outer loop
      vertex -0.299809 -1.57166 0
      vertex -2.01435 -10.5596 0
      vertex -0.494427 -1.52169 0
    endloop
  endfacet
  facet normal 0 0 -1
    outer loop
      vertex -3.32193 -10.2239 0
      vertex -0.494427 -1.52169 0
      vertex -2.01435 -10.5596 0
    endloop
  endfacet
  facet normal -0 0 -1
    outer loop
      vertex -0.494427 -1.52169 0
      vertex -3.32193 -10.2239 0
      vertex -0.681247 -1.44772 0
    endloop
  endfacet
  facet normal 0 0 -1
    outer loop
      vertex -4.57713 -9.72689 0
      vertex -0.681247 -1.44772 0
      vertex -3.32193 -10.2239 0
    endloop
  endfacet
  facet normal -0 0 -1
    outer loop
      vertex -0.681247 -1.44772 0
      vertex -4.57713 -9.72689 0
      vertex -0.857323 -1.35092 0
    endloop
  endfacet
  facet normal 0 0 -1
    outer loop
      vertex -5.76014 -9.07652 0
      vertex -0.857323 -1.35092 0
      vertex -4.57713 -9.72689 0
    endloop
  endfacet
  facet normal -0 0 -1
    outer loop
      vertex -0.857323 -1.35092 0
      vertex -5.76014 -9.07652 0
      vertex -1.01988 -1.23282 0
    endloop
  endfacet
  facet normal 0 0 -1
    outer loop
      vertex -6.85231 -8.28302 0
      vertex -1.01988 -1.23282 0
      vertex -5.76014 -9.07652 0
    endloop
  endfacet
  facet normal -0 0 -1
    outer loop
      vertex -1.01988 -1.23282 0
      vertex -6.85231 -8.28302 0
      vertex -1.16635 -1.09527 0
    endloop
  endfacet
  facet normal -0 0 -1
    outer loop
      vertex -1.16635 -1.09527 0
      vertex -7.83641 -7.35888 0
      vertex -1.29443 -0.940456 0
    endloop
  endfacet
  facet normal 0 0 -1
    outer loop
      vertex -7.83641 -7.35888 0
      vertex -1.16635 -1.09527 0
      vertex -6.85231 -8.28302 0
    endloop
  endfacet
  facet normal -0 0 -1
    outer loop
      vertex 8.1333 7 0
      vertex 1.16635 1.09527 0
      vertex 7.83641 7.35888 0
    endloop
  endfacet
  facet normal -0 0 -1
    outer loop
      vertex 7.83641 7.35888 0
      vertex 1.16635 1.09527 0
      vertex 6.85231 8.28302 0
    endloop
  endfacet
  facet normal 0 0 -1
    outer loop
      vertex 1.01988 1.23282 0
      vertex 6.85231 8.28302 0
      vertex 1.16635 1.09527 0
    endloop
  endfacet
  facet normal -0 0 -1
    outer loop
      vertex 6.85231 8.28302 0
      vertex 1.01988 1.23282 0
      vertex 5.76014 9.07652 0
    endloop
  endfacet
  facet normal 0 0 -1
    outer loop
      vertex 0.857323 1.35092 0
      vertex 5.76014 9.07652 0
      vertex 1.01988 1.23282 0
    endloop
  endfacet
  facet normal -0 0 -1
    outer loop
      vertex 5.76014 9.07652 0
      vertex 0.857323 1.35092 0
      vertex 4.57713 9.72689 0
    endloop
  endfacet
  facet normal 0 0 -1
    outer loop
      vertex 0.681247 1.44772 0
      vertex 4.57713 9.72689 0
      vertex 0.857323 1.35092 0
    endloop
  endfacet
  facet normal -0 0 -1
    outer loop
      vertex 4.57713 9.72689 0
      vertex 0.681247 1.44772 0
      vertex 3.32193 10.2239 0
    endloop
  endfacet
  facet normal 0 0 -1
    outer loop
      vertex 0.494427 1.52169 0
      vertex 3.32193 10.2239 0
      vertex 0.681247 1.44772 0
    endloop
  endfacet
  facet normal -0 0 -1
    outer loop
      vertex 3.32193 10.2239 0
      vertex 0.494427 1.52169 0
      vertex 2.01435 10.5596 0
    endloop
  endfacet
  facet normal 0 0 -1
    outer loop
      vertex 0.299809 1.57166 0
      vertex 2.01435 10.5596 0
      vertex 0.494427 1.52169 0
    endloop
  endfacet
  facet normal -0 0 -1
    outer loop
      vertex 2.01435 10.5596 0
      vertex 0.299809 1.57166 0
      vertex 0.674997 10.7288 0
    endloop
  endfacet
  facet normal 0 0 -1
    outer loop
      vertex 0.100465 1.59684 0
      vertex 0.674997 10.7288 0
      vertex 0.299809 1.57166 0
    endloop
  endfacet
  facet normal 0 0 -1
    outer loop
      vertex -0.100465 1.59684 0
      vertex 0.674997 10.7288 0
      vertex 0.100465 1.59684 0
    endloop
  endfacet
  facet normal 0 0 -1
    outer loop
      vertex -0.674997 10.7288 0
      vertex -0.100465 1.59684 0
      vertex -0.299809 1.57166 0
    endloop
  endfacet
  facet normal 0 0 -1
    outer loop
      vertex -2.01435 10.5596 0
      vertex -0.299809 1.57166 0
      vertex -0.494427 1.52169 0
    endloop
  endfacet
  facet normal 0 0 -1
    outer loop
      vertex -0.100465 1.59684 0
      vertex -0.674997 10.7288 0
      vertex 0.674997 10.7288 0
    endloop
  endfacet
  facet normal 0 0 -1
    outer loop
      vertex -3.32193 10.2239 0
      vertex -0.494427 1.52169 0
      vertex -0.681247 1.44772 0
    endloop
  endfacet
  facet normal 0 0 -1
    outer loop
      vertex -4.57713 9.72689 0
      vertex -0.681247 1.44772 0
      vertex -0.857323 1.35092 0
    endloop
  endfacet
  facet normal 0 0 -1
    outer loop
      vertex -5.76014 9.07652 0
      vertex -0.857323 1.35092 0
      vertex -1.01988 1.23282 0
    endloop
  endfacet
  facet normal 0 0 -1
    outer loop
      vertex -6.85231 8.28302 0
      vertex -1.01988 1.23282 0
      vertex -1.16635 1.09527 0
    endloop
  endfacet
  facet normal 0 0 -1
    outer loop
      vertex -7.83641 7.35888 0
      vertex -1.16635 1.09527 0
      vertex -1.29443 0.940456 0
    endloop
  endfacet
  facet normal 0 0 -1
    outer loop
      vertex -8.69693 6.31869 0
      vertex -1.29443 0.940456 0
      vertex -1.40209 0.770805 0
    endloop
  endfacet
  facet normal 0 0 -1
    outer loop
      vertex -9.4203 5.17885 0
      vertex -1.40209 0.770805 0
      vertex -1.48764 0.588999 0
    endloop
  endfacet
  facet normal 0 0 -1
    outer loop
      vertex -9.9951 3.95734 0
      vertex -1.48764 0.588999 0
      vertex -1.54973 0.397903 0
    endloop
  endfacet
  facet normal 0 0 -1
    outer loop
      vertex -10.4123 2.67342 0
      vertex -1.54973 0.397903 0
      vertex -1.58738 0.200533 0
    endloop
  endfacet
  facet normal 0 0 -1
    outer loop
      vertex -0.299809 1.57166 0
      vertex -2.01435 10.5596 0
      vertex -0.674997 10.7288 0
    endloop
  endfacet
  facet normal 0 0 -1
    outer loop
      vertex -10.6652 1.34733 0
      vertex -1.58738 0.200533 0
      vertex -1.6 0 0
    endloop
  endfacet
  facet normal 0 0 -1
    outer loop
      vertex -8.69693 -6.31869 0
      vertex -1.29443 -0.940456 0
      vertex -7.83641 -7.35888 0
    endloop
  endfacet
  facet normal -0 0 -1
    outer loop
      vertex -1.29443 -0.940456 0
      vertex -8.69693 -6.31869 0
      vertex -1.40209 -0.770805 0
    endloop
  endfacet
  facet normal 0 0 -1
    outer loop
      vertex -0.494427 1.52169 0
      vertex -3.32193 10.2239 0
      vertex -2.01435 10.5596 0
    endloop
  endfacet
  facet normal 0 0 -1
    outer loop
      vertex -9.4203 -5.17885 0
      vertex -1.40209 -0.770805 0
      vertex -8.69693 -6.31869 0
    endloop
  endfacet
  facet normal 0 0 -1
    outer loop
      vertex -0.681247 1.44772 0
      vertex -4.57713 9.72689 0
      vertex -3.32193 10.2239 0
    endloop
  endfacet
  facet normal -0 0 -1
    outer loop
      vertex -1.40209 -0.770805 0
      vertex -9.4203 -5.17885 0
      vertex -1.48764 -0.588999 0
    endloop
  endfacet
  facet normal 0 0 -1
    outer loop
      vertex -0.857323 1.35092 0
      vertex -5.76014 9.07652 0
      vertex -4.57713 9.72689 0
    endloop
  endfacet
  facet normal 0 0 -1
    outer loop
      vertex -9.9951 -3.95734 0
      vertex -1.48764 -0.588999 0
      vertex -9.4203 -5.17885 0
    endloop
  endfacet
  facet normal 0 0 -1
    outer loop
      vertex -1.01988 1.23282 0
      vertex -6.85231 8.28302 0
      vertex -5.76014 9.07652 0
    endloop
  endfacet
  facet normal -0 0 -1
    outer loop
      vertex -1.48764 -0.588999 0
      vertex -9.9951 -3.95734 0
      vertex -1.54973 -0.397903 0
    endloop
  endfacet
  facet normal 0 0 -1
    outer loop
      vertex -1.16635 1.09527 0
      vertex -7.83641 7.35888 0
      vertex -6.85231 8.28302 0
    endloop
  endfacet
  facet normal 0 0 -1
    outer loop
      vertex -10.4123 -2.67342 0
      vertex -1.54973 -0.397903 0
      vertex -9.9951 -3.95734 0
    endloop
  endfacet
  facet normal 0 0 -1
    outer loop
      vertex -1.29443 0.940456 0
      vertex -8.69693 6.31869 0
      vertex -7.83641 7.35888 0
    endloop
  endfacet
  facet normal -0 0 -1
    outer loop
      vertex -1.54973 -0.397903 0
      vertex -10.4123 -2.67342 0
      vertex -1.58738 -0.200533 0
    endloop
  endfacet
  facet normal 0 0 -1
    outer loop
      vertex -1.40209 0.770805 0
      vertex -9.4203 5.17885 0
      vertex -8.69693 6.31869 0
    endloop
  endfacet
  facet normal 0 0 -1
    outer loop
      vertex -10.6652 -1.34733 0
      vertex -1.58738 -0.200533 0
      vertex -10.4123 -2.67342 0
    endloop
  endfacet
  facet normal 0 0 -1
    outer loop
      vertex -1.48764 0.588999 0
      vertex -9.9951 3.95734 0
      vertex -9.4203 5.17885 0
    endloop
  endfacet
  facet normal -0 0 -1
    outer loop
      vertex -1.58738 -0.200533 0
      vertex -10.6652 -1.34733 0
      vertex -1.6 0 0
    endloop
  endfacet
  facet normal 0 0 -1
    outer loop
      vertex -1.54973 0.397903 0
      vertex -10.4123 2.67342 0
      vertex -9.9951 3.95734 0
    endloop
  endfacet
  facet normal 0 0 -1
    outer loop
      vertex -10.75 0 0
      vertex -1.6 0 0
      vertex -10.6652 -1.34733 0
    endloop
  endfacet
  facet normal 0 0 -1
    outer loop
      vertex -1.58738 0.200533 0
      vertex -10.6652 1.34733 0
      vertex -10.4123 2.67342 0
    endloop
  endfacet
  facet normal 0 0 -1
    outer loop
      vertex -1.6 0 0
      vertex -10.75 0 0
      vertex -10.6652 1.34733 0
    endloop
  endfacet
  facet normal 0.587785 -0.809017 0
    outer loop
      vertex 5.76014 -9.07652 0
      vertex 6.85231 -8.28302 0.799999
      vertex 5.76014 -9.07652 0.799999
    endloop
  endfacet
  facet normal 0.587785 -0.809017 0
    outer loop
      vertex 6.85231 -8.28302 0.799999
      vertex 5.76014 -9.07652 0
      vertex 6.85231 -8.28302 0
    endloop
  endfacet
  facet normal 0.368124 -0.929777 0
    outer loop
      vertex 3.32193 -10.2239 0
      vertex 4.57713 -9.72689 0.799999
      vertex 3.32193 -10.2239 0.799999
    endloop
  endfacet
  facet normal 0.368124 -0.929777 0
    outer loop
      vertex 4.57713 -9.72689 0.799999
      vertex 3.32193 -10.2239 0
      vertex 4.57713 -9.72689 0
    endloop
  endfacet
  facet normal -0.770513 0.637424 0
    outer loop
      vertex -8.69693 6.31869 0
      vertex -7.83641 7.35888 0.799999
      vertex -7.83641 7.35888 0
    endloop
  endfacet
  facet normal -0.770513 0.637424 0
    outer loop
      vertex -7.83641 7.35888 0.799999
      vertex -8.69693 6.31869 0
      vertex -8.69693 6.31869 0.799999
    endloop
  endfacet
  facet normal -0.481754 0.876307 0
    outer loop
      vertex -4.57713 9.72689 0
      vertex -5.76014 9.07652 0.799999
      vertex -4.57713 9.72689 0.799999
    endloop
  endfacet
  facet normal -0.481754 0.876307 0
    outer loop
      vertex -5.76014 9.07652 0.799999
      vertex -4.57713 9.72689 0
      vertex -5.76014 9.07652 0
    endloop
  endfacet
  facet normal -0.481754 -0.876307 0
    outer loop
      vertex -5.76014 -9.07652 0
      vertex -4.57713 -9.72689 0.799999
      vertex -5.76014 -9.07652 0.799999
    endloop
  endfacet
  facet normal -0.481754 -0.876307 -0
    outer loop
      vertex -4.57713 -9.72689 0.799999
      vertex -5.76014 -9.07652 0
      vertex -4.57713 -9.72689 0
    endloop
  endfacet
  facet normal -0.684547 -0.728969 0
    outer loop
      vertex -7.83641 -7.35888 0
      vertex -6.85231 -8.28302 0.799999
      vertex -7.83641 -7.35888 0.799999
    endloop
  endfacet
  facet normal -0.684547 -0.728969 -0
    outer loop
      vertex -6.85231 -8.28302 0.799999
      vertex -7.83641 -7.35888 0
      vertex -6.85231 -8.28302 0
    endloop
  endfacet
  facet normal -0.951057 -0.309017 0
    outer loop
      vertex -9.9951 -3.95734 0
      vertex -10.4123 -2.67342 0.799999
      vertex -10.4123 -2.67342 0
    endloop
  endfacet
  facet normal -0.951057 -0.309017 0
    outer loop
      vertex -10.4123 -2.67342 0.799999
      vertex -9.9951 -3.95734 0
      vertex -9.9951 -3.95734 0.799999
    endloop
  endfacet
  facet normal -0.998027 -0.0627908 0
    outer loop
      vertex -10.6652 -1.34733 0
      vertex -10.75 0 0.799999
      vertex -10.75 0 0
    endloop
  endfacet
  facet normal -0.998027 -0.0627908 0
    outer loop
      vertex -10.75 0 0.799999
      vertex -10.6652 -1.34733 0
      vertex -10.6652 -1.34733 0.799999
    endloop
  endfacet
  facet normal 0.684547 -0.728968 0
    outer loop
      vertex 6.85231 -8.28302 0
      vertex 7.15369 -8 0.799999
      vertex 6.85231 -8.28302 0.799999
    endloop
  endfacet
  facet normal 0.684547 -0.728968 0
    outer loop
      vertex 7.15369 -8 0.799999
      vertex 6.85231 -8.28302 0
      vertex 7.15369 -8 0
    endloop
  endfacet
  facet normal 0.481754 -0.876307 0
    outer loop
      vertex 4.57713 -9.72689 0
      vertex 5.76014 -9.07652 0.799999
      vertex 4.57713 -9.72689 0.799999
    endloop
  endfacet
  facet normal 0.481754 -0.876307 0
    outer loop
      vertex 5.76014 -9.07652 0.799999
      vertex 4.57713 -9.72689 0
      vertex 5.76014 -9.07652 0
    endloop
  endfacet
  facet normal 0.24869 -0.968583 0
    outer loop
      vertex 2.01435 -10.5596 0
      vertex 3.32193 -10.2239 0.799999
      vertex 2.01435 -10.5596 0.799999
    endloop
  endfacet
  facet normal 0.24869 -0.968583 0
    outer loop
      vertex 3.32193 -10.2239 0.799999
      vertex 2.01435 -10.5596 0
      vertex 3.32193 -10.2239 0
    endloop
  endfacet
  facet normal -0.125333 -0.992115 0
    outer loop
      vertex -2.01435 -10.5596 0
      vertex -0.674997 -10.7288 0.799999
      vertex -2.01435 -10.5596 0.799999
    endloop
  endfacet
  facet normal -0.125333 -0.992115 -0
    outer loop
      vertex -0.674997 -10.7288 0.799999
      vertex -2.01435 -10.5596 0
      vertex -0.674997 -10.7288 0
    endloop
  endfacet
  facet normal -0.368124 -0.929777 0
    outer loop
      vertex -4.57713 -9.72689 0
      vertex -3.32193 -10.2239 0.799999
      vertex -4.57713 -9.72689 0.799999
    endloop
  endfacet
  facet normal -0.368124 -0.929777 -0
    outer loop
      vertex -3.32193 -10.2239 0.799999
      vertex -4.57713 -9.72689 0
      vertex -3.32193 -10.2239 0
    endloop
  endfacet
  facet normal -0.24869 -0.968583 0
    outer loop
      vertex -3.32193 -10.2239 0
      vertex -2.01435 -10.5596 0.799999
      vertex -3.32193 -10.2239 0.799999
    endloop
  endfacet
  facet normal -0.24869 -0.968583 -0
    outer loop
      vertex -2.01435 -10.5596 0.799999
      vertex -3.32193 -10.2239 0
      vertex -2.01435 -10.5596 0
    endloop
  endfacet
  facet normal -0.587785 -0.809017 0
    outer loop
      vertex -6.85231 -8.28302 0
      vertex -5.76014 -9.07652 0.799999
      vertex -6.85231 -8.28302 0.799999
    endloop
  endfacet
  facet normal -0.587785 -0.809017 -0
    outer loop
      vertex -5.76014 -9.07652 0.799999
      vertex -6.85231 -8.28302 0
      vertex -5.76014 -9.07652 0
    endloop
  endfacet
  facet normal -0.770513 -0.637424 0
    outer loop
      vertex -7.83641 -7.35888 0
      vertex -8.69693 -6.31869 0.799999
      vertex -8.69693 -6.31869 0
    endloop
  endfacet
  facet normal -0.770513 -0.637424 0
    outer loop
      vertex -8.69693 -6.31869 0.799999
      vertex -7.83641 -7.35888 0
      vertex -7.83641 -7.35888 0.799999
    endloop
  endfacet
  facet normal -0.982287 -0.187381 0
    outer loop
      vertex -10.4123 -2.67342 0
      vertex -10.6652 -1.34733 0.799999
      vertex -10.6652 -1.34733 0
    endloop
  endfacet
  facet normal -0.982287 -0.187381 0
    outer loop
      vertex -10.6652 -1.34733 0.799999
      vertex -10.4123 -2.67342 0
      vertex -10.4123 -2.67342 0.799999
    endloop
  endfacet
  facet normal -0.998027 -0.062789 0
    outer loop
      vertex 1.6 0 0
      vertex 1.58738 0.200533 0.799999
      vertex 1.58738 0.200533 0
    endloop
  endfacet
  facet normal -0.998027 -0.062789 0
    outer loop
      vertex 1.58738 0.200533 0.799999
      vertex 1.6 0 0
      vertex 1.6 0 0.799999
    endloop
  endfacet
  facet normal 0.998027 -0.062789 0
    outer loop
      vertex -1.6 0 0.799999
      vertex -1.58738 0.200533 0
      vertex -1.58738 0.200533 0.799999
    endloop
  endfacet
  facet normal 0.998027 -0.062789 0
    outer loop
      vertex -1.58738 0.200533 0
      vertex -1.6 0 0.799999
      vertex -1.6 0 0
    endloop
  endfacet
  facet normal 0 -1 0
    outer loop
      vertex -0.100465 1.59684 0
      vertex 0.100465 1.59684 0.799999
      vertex -0.100465 1.59684 0.799999
    endloop
  endfacet
  facet normal 0 -1 -0
    outer loop
      vertex 0.100465 1.59684 0.799999
      vertex -0.100465 1.59684 0
      vertex 0.100465 1.59684 0
    endloop
  endfacet
  facet normal 0 1 -0
    outer loop
      vertex 0.100465 -1.59684 0
      vertex -0.100465 -1.59684 0.799999
      vertex 0.100465 -1.59684 0.799999
    endloop
  endfacet
  facet normal 0 1 0
    outer loop
      vertex -0.100465 -1.59684 0.799999
      vertex 0.100465 -1.59684 0
      vertex -0.100465 -1.59684 0
    endloop
  endfacet
  facet normal -0.770512 0.637425 0
    outer loop
      vertex 1.16635 -1.09527 0
      vertex 1.29443 -0.940456 0.799999
      vertex 1.29443 -0.940456 0
    endloop
  endfacet
  facet normal -0.770512 0.637425 0
    outer loop
      vertex 1.29443 -0.940456 0.799999
      vertex 1.16635 -1.09527 0
      vertex 1.16635 -1.09527 0.799999
    endloop
  endfacet
  facet normal -0.684545 -0.728971 0
    outer loop
      vertex 1.01988 1.23282 0
      vertex 1.16635 1.09527 0.799999
      vertex 1.01988 1.23282 0.799999
    endloop
  endfacet
  facet normal -0.684545 -0.728971 -0
    outer loop
      vertex 1.16635 1.09527 0.799999
      vertex 1.01988 1.23282 0
      vertex 1.16635 1.09527 0
    endloop
  endfacet
  facet normal 0.684545 -0.728971 0
    outer loop
      vertex -1.16635 1.09527 0
      vertex -1.01988 1.23282 0.799999
      vertex -1.16635 1.09527 0.799999
    endloop
  endfacet
  facet normal 0.684545 -0.728971 0
    outer loop
      vertex -1.01988 1.23282 0.799999
      vertex -1.16635 1.09527 0
      vertex -1.01988 1.23282 0
    endloop
  endfacet
  facet normal 0.368127 -0.929775 0
    outer loop
      vertex -0.681247 1.44772 0
      vertex -0.494427 1.52169 0.799999
      vertex -0.681247 1.44772 0.799999
    endloop
  endfacet
  facet normal 0.368127 -0.929775 0
    outer loop
      vertex -0.494427 1.52169 0.799999
      vertex -0.681247 1.44772 0
      vertex -0.494427 1.52169 0
    endloop
  endfacet
  facet normal -0.904826 -0.425781 0
    outer loop
      vertex 1.48764 0.588999 0
      vertex 1.40209 0.770805 0.799999
      vertex 1.40209 0.770805 0
    endloop
  endfacet
  facet normal -0.904826 -0.425781 0
    outer loop
      vertex 1.40209 0.770805 0.799999
      vertex 1.48764 0.588999 0
      vertex 1.48764 0.588999 0.799999
    endloop
  endfacet
  facet normal -0.844329 -0.535824 0
    outer loop
      vertex 1.40209 0.770805 0
      vertex 1.29443 0.940456 0.799999
      vertex 1.29443 0.940456 0
    endloop
  endfacet
  facet normal -0.844329 -0.535824 0
    outer loop
      vertex 1.29443 0.940456 0.799999
      vertex 1.40209 0.770805 0
      vertex 1.40209 0.770805 0.799999
    endloop
  endfacet
  facet normal -0.368127 -0.929775 0
    outer loop
      vertex 0.494427 1.52169 0
      vertex 0.681247 1.44772 0.799999
      vertex 0.494427 1.52169 0.799999
    endloop
  endfacet
  facet normal -0.368127 -0.929775 -0
    outer loop
      vertex 0.681247 1.44772 0.799999
      vertex 0.494427 1.52169 0
      vertex 0.681247 1.44772 0
    endloop
  endfacet
  facet normal -0.248688 -0.968584 0
    outer loop
      vertex 0.299809 1.57166 0
      vertex 0.494427 1.52169 0.799999
      vertex 0.299809 1.57166 0.799999
    endloop
  endfacet
  facet normal -0.248688 -0.968584 -0
    outer loop
      vertex 0.494427 1.52169 0.799999
      vertex 0.299809 1.57166 0
      vertex 0.494427 1.52169 0
    endloop
  endfacet
  facet normal -0.587789 -0.809015 0
    outer loop
      vertex 0.857323 1.35092 0
      vertex 1.01988 1.23282 0.799999
      vertex 0.857323 1.35092 0.799999
    endloop
  endfacet
  facet normal -0.587789 -0.809015 -0
    outer loop
      vertex 1.01988 1.23282 0.799999
      vertex 0.857323 1.35092 0
      vertex 1.01988 1.23282 0
    endloop
  endfacet
  facet normal 0.844329 -0.535824 0
    outer loop
      vertex -1.40209 0.770805 0.799999
      vertex -1.29443 0.940456 0
      vertex -1.29443 0.940456 0.799999
    endloop
  endfacet
  facet normal 0.844329 -0.535824 0
    outer loop
      vertex -1.29443 0.940456 0
      vertex -1.40209 0.770805 0.799999
      vertex -1.40209 0.770805 0
    endloop
  endfacet
  facet normal 0.770512 -0.637425 0
    outer loop
      vertex -1.29443 0.940456 0.799999
      vertex -1.16635 1.09527 0
      vertex -1.16635 1.09527 0.799999
    endloop
  endfacet
  facet normal 0.770512 -0.637425 0
    outer loop
      vertex -1.16635 1.09527 0
      vertex -1.29443 0.940456 0.799999
      vertex -1.29443 0.940456 0
    endloop
  endfacet
  facet normal 0.481751 -0.876308 0
    outer loop
      vertex -0.857323 1.35092 0
      vertex -0.681247 1.44772 0.799999
      vertex -0.857323 1.35092 0.799999
    endloop
  endfacet
  facet normal 0.481751 -0.876308 0
    outer loop
      vertex -0.681247 1.44772 0.799999
      vertex -0.857323 1.35092 0
      vertex -0.681247 1.44772 0
    endloop
  endfacet
  facet normal 0.248688 -0.968584 0
    outer loop
      vertex -0.494427 1.52169 0
      vertex -0.299809 1.57166 0.799999
      vertex -0.494427 1.52169 0.799999
    endloop
  endfacet
  facet normal 0.248688 -0.968584 0
    outer loop
      vertex -0.299809 1.57166 0.799999
      vertex -0.494427 1.52169 0
      vertex -0.299809 1.57166 0
    endloop
  endfacet
  facet normal -0.368127 0.929775 0
    outer loop
      vertex 0.681247 -1.44772 0
      vertex 0.494427 -1.52169 0.799999
      vertex 0.681247 -1.44772 0.799999
    endloop
  endfacet
  facet normal -0.368127 0.929775 0
    outer loop
      vertex 0.494427 -1.52169 0.799999
      vertex 0.681247 -1.44772 0
      vertex 0.494427 -1.52169 0
    endloop
  endfacet
  facet normal -0.951058 -0.309014 0
    outer loop
      vertex 1.54973 0.397903 0
      vertex 1.48764 0.588999 0.799999
      vertex 1.48764 0.588999 0
    endloop
  endfacet
  facet normal -0.951058 -0.309014 0
    outer loop
      vertex 1.48764 0.588999 0.799999
      vertex 1.54973 0.397903 0
      vertex 1.54973 0.397903 0.799999
    endloop
  endfacet
  facet normal -0.982287 -0.187384 0
    outer loop
      vertex 1.58738 0.200533 0
      vertex 1.54973 0.397903 0.799999
      vertex 1.54973 0.397903 0
    endloop
  endfacet
  facet normal -0.982287 -0.187384 0
    outer loop
      vertex 1.54973 0.397903 0.799999
      vertex 1.58738 0.200533 0
      vertex 1.58738 0.200533 0.799999
    endloop
  endfacet
  facet normal -0.770512 -0.637425 0
    outer loop
      vertex 1.29443 0.940456 0
      vertex 1.16635 1.09527 0.799999
      vertex 1.16635 1.09527 0
    endloop
  endfacet
  facet normal -0.770512 -0.637425 0
    outer loop
      vertex 1.16635 1.09527 0.799999
      vertex 1.29443 0.940456 0
      vertex 1.29443 0.940456 0.799999
    endloop
  endfacet
  facet normal -0.125331 -0.992115 0
    outer loop
      vertex 0.100465 1.59684 0
      vertex 0.299809 1.57166 0.799999
      vertex 0.100465 1.59684 0.799999
    endloop
  endfacet
  facet normal -0.125331 -0.992115 -0
    outer loop
      vertex 0.299809 1.57166 0.799999
      vertex 0.100465 1.59684 0
      vertex 0.299809 1.57166 0
    endloop
  endfacet
  facet normal 0.904826 -0.425781 0
    outer loop
      vertex -1.48764 0.588999 0.799999
      vertex -1.40209 0.770805 0
      vertex -1.40209 0.770805 0.799999
    endloop
  endfacet
  facet normal 0.904826 -0.425781 0
    outer loop
      vertex -1.40209 0.770805 0
      vertex -1.48764 0.588999 0.799999
      vertex -1.48764 0.588999 0
    endloop
  endfacet
  facet normal 0.951058 -0.309014 0
    outer loop
      vertex -1.54973 0.397903 0.799999
      vertex -1.48764 0.588999 0
      vertex -1.48764 0.588999 0.799999
    endloop
  endfacet
  facet normal 0.951058 -0.309014 0
    outer loop
      vertex -1.48764 0.588999 0
      vertex -1.54973 0.397903 0.799999
      vertex -1.54973 0.397903 0
    endloop
  endfacet
  facet normal 0.982287 -0.187384 0
    outer loop
      vertex -1.58738 0.200533 0.799999
      vertex -1.54973 0.397903 0
      vertex -1.54973 0.397903 0.799999
    endloop
  endfacet
  facet normal 0.982287 -0.187384 0
    outer loop
      vertex -1.54973 0.397903 0
      vertex -1.58738 0.200533 0.799999
      vertex -1.58738 0.200533 0
    endloop
  endfacet
  facet normal 0.587789 -0.809015 0
    outer loop
      vertex -1.01988 1.23282 0
      vertex -0.857323 1.35092 0.799999
      vertex -1.01988 1.23282 0.799999
    endloop
  endfacet
  facet normal 0.587789 -0.809015 0
    outer loop
      vertex -0.857323 1.35092 0.799999
      vertex -1.01988 1.23282 0
      vertex -0.857323 1.35092 0
    endloop
  endfacet
  facet normal 0.125331 -0.992115 0
    outer loop
      vertex -0.299809 1.57166 0
      vertex -0.100465 1.59684 0.799999
      vertex -0.299809 1.57166 0.799999
    endloop
  endfacet
  facet normal 0.125331 -0.992115 0
    outer loop
      vertex -0.100465 1.59684 0.799999
      vertex -0.299809 1.57166 0
      vertex -0.100465 1.59684 0
    endloop
  endfacet
  facet normal -0.951058 0.309014 0
    outer loop
      vertex 1.48764 -0.588999 0
      vertex 1.54973 -0.397903 0.799999
      vertex 1.54973 -0.397903 0
    endloop
  endfacet
  facet normal -0.951058 0.309014 0
    outer loop
      vertex 1.54973 -0.397903 0.799999
      vertex 1.48764 -0.588999 0
      vertex 1.48764 -0.588999 0.799999
    endloop
  endfacet
  facet normal -0.982287 0.187384 0
    outer loop
      vertex 1.54973 -0.397903 0
      vertex 1.58738 -0.200533 0.799999
      vertex 1.58738 -0.200533 0
    endloop
  endfacet
  facet normal -0.982287 0.187384 0
    outer loop
      vertex 1.58738 -0.200533 0.799999
      vertex 1.54973 -0.397903 0
      vertex 1.54973 -0.397903 0.799999
    endloop
  endfacet
  facet normal 0.368127 0.929775 -0
    outer loop
      vertex -0.494427 -1.52169 0
      vertex -0.681247 -1.44772 0.799999
      vertex -0.494427 -1.52169 0.799999
    endloop
  endfacet
  facet normal 0.368127 0.929775 0
    outer loop
      vertex -0.681247 -1.44772 0.799999
      vertex -0.494427 -1.52169 0
      vertex -0.681247 -1.44772 0
    endloop
  endfacet
  facet normal 0.998027 0.062789 0
    outer loop
      vertex -1.58738 -0.200533 0.799999
      vertex -1.6 0 0
      vertex -1.6 0 0.799999
    endloop
  endfacet
  facet normal 0.998027 0.062789 0
    outer loop
      vertex -1.6 0 0
      vertex -1.58738 -0.200533 0.799999
      vertex -1.58738 -0.200533 0
    endloop
  endfacet
  facet normal -0.125331 0.992115 0
    outer loop
      vertex 0.299809 -1.57166 0
      vertex 0.100465 -1.59684 0.799999
      vertex 0.299809 -1.57166 0.799999
    endloop
  endfacet
  facet normal -0.125331 0.992115 0
    outer loop
      vertex 0.100465 -1.59684 0.799999
      vertex 0.299809 -1.57166 0
      vertex 0.100465 -1.59684 0
    endloop
  endfacet
  facet normal -0.684545 0.728971 0
    outer loop
      vertex 1.16635 -1.09527 0
      vertex 1.01988 -1.23282 0.799999
      vertex 1.16635 -1.09527 0.799999
    endloop
  endfacet
  facet normal -0.684545 0.728971 0
    outer loop
      vertex 1.01988 -1.23282 0.799999
      vertex 1.16635 -1.09527 0
      vertex 1.01988 -1.23282 0
    endloop
  endfacet
  facet normal -0.481751 0.876308 0
    outer loop
      vertex 0.857323 -1.35092 0
      vertex 0.681247 -1.44772 0.799999
      vertex 0.857323 -1.35092 0.799999
    endloop
  endfacet
  facet normal -0.481751 0.876308 0
    outer loop
      vertex 0.681247 -1.44772 0.799999
      vertex 0.857323 -1.35092 0
      vertex 0.681247 -1.44772 0
    endloop
  endfacet
  facet normal -0.481751 -0.876308 0
    outer loop
      vertex 0.681247 1.44772 0
      vertex 0.857323 1.35092 0.799999
      vertex 0.681247 1.44772 0.799999
    endloop
  endfacet
  facet normal -0.481751 -0.876308 -0
    outer loop
      vertex 0.857323 1.35092 0.799999
      vertex 0.681247 1.44772 0
      vertex 0.857323 1.35092 0
    endloop
  endfacet
  facet normal -0.844329 0.535824 0
    outer loop
      vertex 1.29443 -0.940456 0
      vertex 1.40209 -0.770805 0.799999
      vertex 1.40209 -0.770805 0
    endloop
  endfacet
  facet normal -0.844329 0.535824 0
    outer loop
      vertex 1.40209 -0.770805 0.799999
      vertex 1.29443 -0.940456 0
      vertex 1.29443 -0.940456 0.799999
    endloop
  endfacet
  facet normal -0.998027 0.062789 0
    outer loop
      vertex 1.58738 -0.200533 0
      vertex 1.6 0 0.799999
      vertex 1.6 0 0
    endloop
  endfacet
  facet normal -0.998027 0.062789 0
    outer loop
      vertex 1.6 0 0.799999
      vertex 1.58738 -0.200533 0
      vertex 1.58738 -0.200533 0.799999
    endloop
  endfacet
  facet normal 0.248688 0.968584 -0
    outer loop
      vertex -0.299809 -1.57166 0
      vertex -0.494427 -1.52169 0.799999
      vertex -0.299809 -1.57166 0.799999
    endloop
  endfacet
  facet normal 0.248688 0.968584 0
    outer loop
      vertex -0.494427 -1.52169 0.799999
      vertex -0.299809 -1.57166 0
      vertex -0.494427 -1.52169 0
    endloop
  endfacet
  facet normal 0.770512 0.637425 0
    outer loop
      vertex -1.16635 -1.09527 0.799999
      vertex -1.29443 -0.940456 0
      vertex -1.29443 -0.940456 0.799999
    endloop
  endfacet
  facet normal 0.770512 0.637425 0
    outer loop
      vertex -1.29443 -0.940456 0
      vertex -1.16635 -1.09527 0.799999
      vertex -1.16635 -1.09527 0
    endloop
  endfacet
  facet normal 0.904826 0.425781 0
    outer loop
      vertex -1.40209 -0.770805 0.799999
      vertex -1.48764 -0.588999 0
      vertex -1.48764 -0.588999 0.799999
    endloop
  endfacet
  facet normal 0.904826 0.425781 0
    outer loop
      vertex -1.48764 -0.588999 0
      vertex -1.40209 -0.770805 0.799999
      vertex -1.40209 -0.770805 0
    endloop
  endfacet
  facet normal 0.982287 0.187384 0
    outer loop
      vertex -1.54973 -0.397903 0.799999
      vertex -1.58738 -0.200533 0
      vertex -1.58738 -0.200533 0.799999
    endloop
  endfacet
  facet normal 0.982287 0.187384 0
    outer loop
      vertex -1.58738 -0.200533 0
      vertex -1.54973 -0.397903 0.799999
      vertex -1.54973 -0.397903 0
    endloop
  endfacet
  facet normal 0.951058 0.309014 0
    outer loop
      vertex -1.48764 -0.588999 0.799999
      vertex -1.54973 -0.397903 0
      vertex -1.54973 -0.397903 0.799999
    endloop
  endfacet
  facet normal 0.951058 0.309014 0
    outer loop
      vertex -1.54973 -0.397903 0
      vertex -1.48764 -0.588999 0.799999
      vertex -1.48764 -0.588999 0
    endloop
  endfacet
  facet normal -0.587789 0.809015 0
    outer loop
      vertex 1.01988 -1.23282 0
      vertex 0.857323 -1.35092 0.799999
      vertex 1.01988 -1.23282 0.799999
    endloop
  endfacet
  facet normal -0.587789 0.809015 0
    outer loop
      vertex 0.857323 -1.35092 0.799999
      vertex 1.01988 -1.23282 0
      vertex 0.857323 -1.35092 0
    endloop
  endfacet
  facet normal -0.904826 0.425781 0
    outer loop
      vertex 1.40209 -0.770805 0
      vertex 1.48764 -0.588999 0.799999
      vertex 1.48764 -0.588999 0
    endloop
  endfacet
  facet normal -0.904826 0.425781 0
    outer loop
      vertex 1.48764 -0.588999 0.799999
      vertex 1.40209 -0.770805 0
      vertex 1.40209 -0.770805 0.799999
    endloop
  endfacet
  facet normal 0.125331 0.992115 -0
    outer loop
      vertex -0.100465 -1.59684 0
      vertex -0.299809 -1.57166 0.799999
      vertex -0.100465 -1.59684 0.799999
    endloop
  endfacet
  facet normal 0.125331 0.992115 0
    outer loop
      vertex -0.299809 -1.57166 0.799999
      vertex -0.100465 -1.59684 0
      vertex -0.299809 -1.57166 0
    endloop
  endfacet
  facet normal 0.684545 0.728971 -0
    outer loop
      vertex -1.01988 -1.23282 0
      vertex -1.16635 -1.09527 0.799999
      vertex -1.01988 -1.23282 0.799999
    endloop
  endfacet
  facet normal 0.684545 0.728971 0
    outer loop
      vertex -1.16635 -1.09527 0.799999
      vertex -1.01988 -1.23282 0
      vertex -1.16635 -1.09527 0
    endloop
  endfacet
  facet normal 0.481751 0.876308 -0
    outer loop
      vertex -0.681247 -1.44772 0
      vertex -0.857323 -1.35092 0.799999
      vertex -0.681247 -1.44772 0.799999
    endloop
  endfacet
  facet normal 0.481751 0.876308 0
    outer loop
      vertex -0.857323 -1.35092 0.799999
      vertex -0.681247 -1.44772 0
      vertex -0.857323 -1.35092 0
    endloop
  endfacet
  facet normal 0.844329 0.535824 0
    outer loop
      vertex -1.29443 -0.940456 0.799999
      vertex -1.40209 -0.770805 0
      vertex -1.40209 -0.770805 0.799999
    endloop
  endfacet
  facet normal 0.844329 0.535824 0
    outer loop
      vertex -1.40209 -0.770805 0
      vertex -1.29443 -0.940456 0.799999
      vertex -1.29443 -0.940456 0
    endloop
  endfacet
  facet normal -0.248688 0.968584 0
    outer loop
      vertex 0.494427 -1.52169 0
      vertex 0.299809 -1.57166 0.799999
      vertex 0.494427 -1.52169 0.799999
    endloop
  endfacet
  facet normal -0.248688 0.968584 0
    outer loop
      vertex 0.299809 -1.57166 0.799999
      vertex 0.494427 -1.52169 0
      vertex 0.299809 -1.57166 0
    endloop
  endfacet
  facet normal 0.587789 0.809015 -0
    outer loop
      vertex -0.857323 -1.35092 0
      vertex -1.01988 -1.23282 0.799999
      vertex -0.857323 -1.35092 0.799999
    endloop
  endfacet
  facet normal 0.587789 0.809015 0
    outer loop
      vertex -1.01988 -1.23282 0.799999
      vertex -0.857323 -1.35092 0
      vertex -1.01988 -1.23282 0
    endloop
  endfacet
  facet normal 1 -0 0
    outer loop
      vertex 25 -8 0.799999
      vertex 25 7 0
      vertex 25 7 0.799999
    endloop
  endfacet
  facet normal 1 0 0
    outer loop
      vertex 25 7 0
      vertex 25 -8 0.799999
      vertex 25 -8 0
    endloop
  endfacet
  facet normal 0 1 -0
    outer loop
      vertex 25 7 0
      vertex 8.1333 7 0.799999
      vertex 25 7 0.799999
    endloop
  endfacet
  facet normal 0 1 0
    outer loop
      vertex 8.1333 7 0.799999
      vertex 25 7 0
      vertex 8.1333 7 0
    endloop
  endfacet
  facet normal 0 -1 0
    outer loop
      vertex 7.15369 -8 0
      vertex 25 -8 0.799999
      vertex 7.15369 -8 0.799999
    endloop
  endfacet
  facet normal 0 -1 -0
    outer loop
      vertex 25 -8 0.799999
      vertex 7.15369 -8 0
      vertex 25 -8 0
    endloop
  endfacet
endsolid OpenSCAD_Model
