solid OpenSCAD_Model
  facet normal 0.998027 0.0627906 0
    outer loop
      vertex 11.5 0 25
      vertex 11.4093 1.44133 0
      vertex 11.4093 1.44133 25
    endloop
  endfacet
  facet normal 0.998027 0.0627906 0
    outer loop
      vertex 11.4093 1.44133 0
      vertex 11.5 0 25
      vertex 11.5 0 0
    endloop
  endfacet
  facet normal -0.998027 0.0627906 0
    outer loop
      vertex -11.5 0 0
      vertex -11.4093 1.44133 25
      vertex -11.4093 1.44133 0
    endloop
  endfacet
  facet normal -0.998027 0.0627906 0
    outer loop
      vertex -11.4093 1.44133 25
      vertex -11.5 0 0
      vertex -11.5 0 25
    endloop
  endfacet
  facet normal 0 1 0
    outer loop
      vertex 0.722091 11.4773 25
      vertex 0.4 11.4773 3.1
      vertex -0.722091 11.4773 25
    endloop
  endfacet
  facet normal 0 1 -0
    outer loop
      vertex 0.722091 11.4773 0
      vertex 0.4 11.4773 3.1
      vertex 0.722091 11.4773 25
    endloop
  endfacet
  facet normal 0 1 0
    outer loop
      vertex 0.4 11.4773 3.1
      vertex 0.722091 11.4773 0
      vertex 0.4 11.4773 0
    endloop
  endfacet
  facet normal 0 1 -0
    outer loop
      vertex -0.599999 11.4773 3.1
      vertex -0.722091 11.4773 25
      vertex 0.4 11.4773 3.1
    endloop
  endfacet
  facet normal 0 1 0
    outer loop
      vertex -0.722091 11.4773 0
      vertex -0.599999 11.4773 3.1
      vertex -0.599999 11.4773 0
    endloop
  endfacet
  facet normal 0 1 0
    outer loop
      vertex -0.599999 11.4773 3.1
      vertex -0.722091 11.4773 0
      vertex -0.722091 11.4773 25
    endloop
  endfacet
  facet normal 0.684547 -0.728969 0
    outer loop
      vertex 7.33038 -8.8609 0
      vertex 8.38314 -7.87229 28
      vertex 7.33038 -8.8609 28
    endloop
  endfacet
  facet normal 0.684547 -0.728969 0
    outer loop
      vertex 8.38314 -7.87229 28
      vertex 7.33038 -8.8609 0
      vertex 8.38314 -7.87229 0
    endloop
  endfacet
  facet normal 0.684547 0.728969 -0
    outer loop
      vertex 8.38314 7.87229 0
      vertex 7.33038 8.8609 25
      vertex 8.38314 7.87229 25
    endloop
  endfacet
  facet normal 0.684547 0.728969 0
    outer loop
      vertex 7.33038 8.8609 25
      vertex 8.38314 7.87229 0
      vertex 7.33038 8.8609 0
    endloop
  endfacet
  facet normal -0.684547 0.728969 0
    outer loop
      vertex -7.33038 8.8609 0
      vertex -8.38314 7.87229 25
      vertex -7.33038 8.8609 25
    endloop
  endfacet
  facet normal -0.684547 0.728969 0
    outer loop
      vertex -8.38314 7.87229 25
      vertex -7.33038 8.8609 0
      vertex -8.38314 7.87229 0
    endloop
  endfacet
  facet normal -0.368124 0.929777 0
    outer loop
      vertex -3.55369 10.9371 0
      vertex -4.89646 10.4055 25
      vertex -3.55369 10.9371 25
    endloop
  endfacet
  facet normal -0.368124 0.929777 0
    outer loop
      vertex -4.89646 10.4055 25
      vertex -3.55369 10.9371 0
      vertex -4.89646 10.4055 0
    endloop
  endfacet
  facet normal 0.904827 0.42578 0
    outer loop
      vertex 10.6924 4.23343 25
      vertex 10.0775 5.54017 0
      vertex 10.0775 5.54017 25
    endloop
  endfacet
  facet normal 0.904827 0.42578 0
    outer loop
      vertex 10.0775 5.54017 0
      vertex 10.6924 4.23343 25
      vertex 10.6924 4.23343 0
    endloop
  endfacet
  facet normal 0.368124 0.929777 -0
    outer loop
      vertex 4.89646 10.4055 0
      vertex 3.55369 10.9371 25
      vertex 4.89646 10.4055 25
    endloop
  endfacet
  facet normal 0.368124 0.929777 0
    outer loop
      vertex 3.55369 10.9371 25
      vertex 4.89646 10.4055 0
      vertex 3.55369 10.9371 0
    endloop
  endfacet
  facet normal 0.587785 0.809017 -0
    outer loop
      vertex 7.33038 8.8609 0
      vertex 6.16201 9.70977 25
      vertex 7.33038 8.8609 25
    endloop
  endfacet
  facet normal 0.587785 0.809017 0
    outer loop
      vertex 6.16201 9.70977 25
      vertex 7.33038 8.8609 0
      vertex 6.16201 9.70977 0
    endloop
  endfacet
  facet normal -0.844328 0.535827 0
    outer loop
      vertex -10.0775 5.54017 0
      vertex -9.30369 6.75953 25
      vertex -9.30369 6.75953 0
    endloop
  endfacet
  facet normal -0.844328 0.535827 0
    outer loop
      vertex -9.30369 6.75953 25
      vertex -10.0775 5.54017 0
      vertex -10.0775 5.54017 25
    endloop
  endfacet
  facet normal -0.770513 0.637424 0
    outer loop
      vertex -9.30369 6.75953 0
      vertex -8.38314 7.87229 25
      vertex -8.38314 7.87229 0
    endloop
  endfacet
  facet normal -0.770513 0.637424 0
    outer loop
      vertex -8.38314 7.87229 25
      vertex -9.30369 6.75953 0
      vertex -9.30369 6.75953 25
    endloop
  endfacet
  facet normal -0.982287 0.187381 0
    outer loop
      vertex -11.4093 1.44133 0
      vertex -11.1387 2.85993 25
      vertex -11.1387 2.85993 0
    endloop
  endfacet
  facet normal -0.982287 0.187381 0
    outer loop
      vertex -11.1387 2.85993 25
      vertex -11.4093 1.44133 0
      vertex -11.4093 1.44133 25
    endloop
  endfacet
  facet normal -0.587785 0.809017 0
    outer loop
      vertex -6.16201 9.70977 0
      vertex -7.33038 8.8609 25
      vertex -6.16201 9.70977 25
    endloop
  endfacet
  facet normal -0.587785 0.809017 0
    outer loop
      vertex -7.33038 8.8609 25
      vertex -6.16201 9.70977 0
      vertex -7.33038 8.8609 0
    endloop
  endfacet
  facet normal -0.125334 0.992115 0
    outer loop
      vertex -0.722091 11.4773 0
      vertex -2.15488 11.2963 25
      vertex -0.722091 11.4773 25
    endloop
  endfacet
  facet normal -0.125334 0.992115 0
    outer loop
      vertex -2.15488 11.2963 25
      vertex -0.722091 11.4773 0
      vertex -2.15488 11.2963 0
    endloop
  endfacet
  facet normal 0.125334 -0.992115 0
    outer loop
      vertex 0.722091 -11.4773 0
      vertex 2.15488 -11.2963 28
      vertex 0.722091 -11.4773 28
    endloop
  endfacet
  facet normal 0.125334 -0.992115 0
    outer loop
      vertex 2.15488 -11.2963 28
      vertex 0.722091 -11.4773 0
      vertex 2.15488 -11.2963 0
    endloop
  endfacet
  facet normal 0.951057 0.309017 0
    outer loop
      vertex 11.1387 2.85993 25
      vertex 10.6924 4.23343 0
      vertex 10.6924 4.23343 25
    endloop
  endfacet
  facet normal 0.951057 0.309017 0
    outer loop
      vertex 10.6924 4.23343 0
      vertex 11.1387 2.85993 25
      vertex 11.1387 2.85993 0
    endloop
  endfacet
  facet normal 0.982287 0.187381 0
    outer loop
      vertex 11.4093 1.44133 25
      vertex 11.1387 2.85993 0
      vertex 11.1387 2.85993 25
    endloop
  endfacet
  facet normal 0.982287 0.187381 0
    outer loop
      vertex 11.1387 2.85993 0
      vertex 11.4093 1.44133 25
      vertex 11.4093 1.44133 0
    endloop
  endfacet
  facet normal 0.770513 0.637424 0
    outer loop
      vertex 9.30369 6.75953 25
      vertex 8.38314 7.87229 0
      vertex 8.38314 7.87229 25
    endloop
  endfacet
  facet normal 0.770513 0.637424 0
    outer loop
      vertex 8.38314 7.87229 0
      vertex 9.30369 6.75953 25
      vertex 9.30369 6.75953 0
    endloop
  endfacet
  facet normal 0.844328 0.535827 0
    outer loop
      vertex 10.0775 5.54017 25
      vertex 9.30369 6.75953 0
      vertex 9.30369 6.75953 25
    endloop
  endfacet
  facet normal 0.844328 0.535827 0
    outer loop
      vertex 9.30369 6.75953 0
      vertex 10.0775 5.54017 25
      vertex 10.0775 5.54017 0
    endloop
  endfacet
  facet normal 0.24869 0.968583 -0
    outer loop
      vertex 3.55369 10.9371 0
      vertex 2.15488 11.2963 25
      vertex 3.55369 10.9371 25
    endloop
  endfacet
  facet normal 0.24869 0.968583 0
    outer loop
      vertex 2.15488 11.2963 25
      vertex 3.55369 10.9371 0
      vertex 2.15488 11.2963 0
    endloop
  endfacet
  facet normal 0.125334 0.992115 -0
    outer loop
      vertex 2.15488 11.2963 0
      vertex 0.722091 11.4773 25
      vertex 2.15488 11.2963 25
    endloop
  endfacet
  facet normal 0.125334 0.992115 0
    outer loop
      vertex 0.722091 11.4773 25
      vertex 2.15488 11.2963 0
      vertex 0.722091 11.4773 0
    endloop
  endfacet
  facet normal 0.481754 0.876306 -0
    outer loop
      vertex 6.16201 9.70977 0
      vertex 4.89646 10.4055 25
      vertex 6.16201 9.70977 25
    endloop
  endfacet
  facet normal 0.481754 0.876306 0
    outer loop
      vertex 4.89646 10.4055 25
      vertex 6.16201 9.70977 0
      vertex 4.89646 10.4055 0
    endloop
  endfacet
  facet normal -0.904827 0.42578 0
    outer loop
      vertex -10.6924 4.23343 0
      vertex -10.0775 5.54017 25
      vertex -10.0775 5.54017 0
    endloop
  endfacet
  facet normal -0.904827 0.42578 0
    outer loop
      vertex -10.0775 5.54017 25
      vertex -10.6924 4.23343 0
      vertex -10.6924 4.23343 25
    endloop
  endfacet
  facet normal -0.951057 0.309017 0
    outer loop
      vertex -11.1387 2.85993 0
      vertex -10.6924 4.23343 25
      vertex -10.6924 4.23343 0
    endloop
  endfacet
  facet normal -0.951057 0.309017 0
    outer loop
      vertex -10.6924 4.23343 25
      vertex -11.1387 2.85993 0
      vertex -11.1387 2.85993 25
    endloop
  endfacet
  facet normal 0 0 1
    outer loop
      vertex 11.4093 1.44133 25
      vertex 7.98652 1.00893 25
      vertex 8.05 0 25
    endloop
  endfacet
  facet normal 0 0 1
    outer loop
      vertex 9.30369 6.75953 25
      vertex 7.79709 2.00195 25
      vertex 7.98652 1.00893 25
    endloop
  endfacet
  facet normal 0 0 1
    outer loop
      vertex 9.30369 6.75953 25
      vertex 7.4847 2.9634 25
      vertex 7.79709 2.00195 25
    endloop
  endfacet
  facet normal 0 0 1
    outer loop
      vertex 5.8682 5.5106 25
      vertex 8.38314 7.87229 25
      vertex 7.33038 8.8609 25
    endloop
  endfacet
  facet normal 0 0 1
    outer loop
      vertex 9.30369 6.75953 25
      vertex 7.05427 3.87812 25
      vertex 7.4847 2.9634 25
    endloop
  endfacet
  facet normal 0 0 1
    outer loop
      vertex 9.30369 6.75953 25
      vertex 6.51259 4.73167 25
      vertex 7.05427 3.87812 25
    endloop
  endfacet
  facet normal 0 0 1
    outer loop
      vertex 5.13126 6.20263 25
      vertex 7.33038 8.8609 25
      vertex 6.16201 9.70977 25
    endloop
  endfacet
  facet normal 0 0 1
    outer loop
      vertex 8.38314 7.87229 25
      vertex 5.8682 5.5106 25
      vertex 6.51259 4.73167 25
    endloop
  endfacet
  facet normal 0 0 1
    outer loop
      vertex 7.33038 8.8609 25
      vertex 5.13126 6.20263 25
      vertex 5.8682 5.5106 25
    endloop
  endfacet
  facet normal 0 0 1
    outer loop
      vertex 4.31341 6.79684 25
      vertex 6.16201 9.70977 25
      vertex 4.89646 10.4055 25
    endloop
  endfacet
  facet normal 0 0 1
    outer loop
      vertex 6.16201 9.70977 25
      vertex 4.31341 6.79684 25
      vertex 5.13126 6.20263 25
    endloop
  endfacet
  facet normal 0 0 1
    outer loop
      vertex 3.42752 7.28386 25
      vertex 4.89646 10.4055 25
      vertex 3.55369 10.9371 25
    endloop
  endfacet
  facet normal 0 0 1
    outer loop
      vertex 4.89646 10.4055 25
      vertex 3.42752 7.28386 25
      vertex 4.31341 6.79684 25
    endloop
  endfacet
  facet normal 0 0 1
    outer loop
      vertex 3.55369 10.9371 25
      vertex 2.48759 7.656 25
      vertex 3.42752 7.28386 25
    endloop
  endfacet
  facet normal 0 0 1
    outer loop
      vertex 2.15488 11.2963 25
      vertex 2.48759 7.656 25
      vertex 3.55369 10.9371 25
    endloop
  endfacet
  facet normal 0 0 1
    outer loop
      vertex 2.15488 11.2963 25
      vertex 1.50842 7.90741 25
      vertex 2.48759 7.656 25
    endloop
  endfacet
  facet normal 0 0 1
    outer loop
      vertex 0.722091 11.4773 25
      vertex 1.50842 7.90741 25
      vertex 2.15488 11.2963 25
    endloop
  endfacet
  facet normal 0 0 1
    outer loop
      vertex 0.722091 11.4773 25
      vertex 0.505464 8.03411 25
      vertex 1.50842 7.90741 25
    endloop
  endfacet
  facet normal 0 0 1
    outer loop
      vertex 0.722091 11.4773 25
      vertex -0.505464 8.03411 25
      vertex 0.505464 8.03411 25
    endloop
  endfacet
  facet normal -0 0 1
    outer loop
      vertex -0.722091 11.4773 25
      vertex -0.505464 8.03411 25
      vertex 0.722091 11.4773 25
    endloop
  endfacet
  facet normal 0 0 1
    outer loop
      vertex -0.722091 11.4773 25
      vertex -1.50842 7.90741 25
      vertex -0.505464 8.03411 25
    endloop
  endfacet
  facet normal -0 0 1
    outer loop
      vertex -2.15488 11.2963 25
      vertex -1.50842 7.90741 25
      vertex -0.722091 11.4773 25
    endloop
  endfacet
  facet normal 0 0 1
    outer loop
      vertex -2.15488 11.2963 25
      vertex -2.48759 7.656 25
      vertex -1.50842 7.90741 25
    endloop
  endfacet
  facet normal -0 0 1
    outer loop
      vertex -3.55369 10.9371 25
      vertex -2.48759 7.656 25
      vertex -2.15488 11.2963 25
    endloop
  endfacet
  facet normal 0 0 1
    outer loop
      vertex -2.48759 7.656 25
      vertex -3.55369 10.9371 25
      vertex -3.42752 7.28386 25
    endloop
  endfacet
  facet normal -0 0 1
    outer loop
      vertex -4.89646 10.4055 25
      vertex -3.42752 7.28386 25
      vertex -3.55369 10.9371 25
    endloop
  endfacet
  facet normal 0 0 1
    outer loop
      vertex -3.42752 7.28386 25
      vertex -4.89646 10.4055 25
      vertex -4.31341 6.79684 25
    endloop
  endfacet
  facet normal -0 0 1
    outer loop
      vertex -6.16201 9.70977 25
      vertex -4.31341 6.79684 25
      vertex -4.89646 10.4055 25
    endloop
  endfacet
  facet normal 0 0 1
    outer loop
      vertex -4.31341 6.79684 25
      vertex -6.16201 9.70977 25
      vertex -5.13126 6.20263 25
    endloop
  endfacet
  facet normal -0 0 1
    outer loop
      vertex -7.33038 8.8609 25
      vertex -5.13126 6.20263 25
      vertex -6.16201 9.70977 25
    endloop
  endfacet
  facet normal 0 0 1
    outer loop
      vertex -5.13126 6.20263 25
      vertex -7.33038 8.8609 25
      vertex -5.8682 5.5106 25
    endloop
  endfacet
  facet normal -0 0 1
    outer loop
      vertex -8.38314 7.87229 25
      vertex -5.8682 5.5106 25
      vertex -7.33038 8.8609 25
    endloop
  endfacet
  facet normal 0 0 1
    outer loop
      vertex -5.8682 5.5106 25
      vertex -8.38314 7.87229 25
      vertex -6.51259 4.73167 25
    endloop
  endfacet
  facet normal -0 0 1
    outer loop
      vertex -9.30369 6.75953 25
      vertex -6.51259 4.73167 25
      vertex -8.38314 7.87229 25
    endloop
  endfacet
  facet normal 0 0 1
    outer loop
      vertex -6.51259 4.73167 25
      vertex -9.30369 6.75953 25
      vertex -7.05427 3.87812 25
    endloop
  endfacet
  facet normal -0 0 1
    outer loop
      vertex -10.0775 5.54017 25
      vertex -7.05427 3.87812 25
      vertex -9.30369 6.75953 25
    endloop
  endfacet
  facet normal -0 0 1
    outer loop
      vertex -10.6924 4.23343 25
      vertex -7.4847 2.9634 25
      vertex -10.0775 5.54017 25
    endloop
  endfacet
  facet normal 0 0 1
    outer loop
      vertex -7.05427 3.87812 25
      vertex -10.0775 5.54017 25
      vertex -7.4847 2.9634 25
    endloop
  endfacet
  facet normal 0 0 1
    outer loop
      vertex 8.05 0 25
      vertex 11.5 0 25
      vertex 11.4093 1.44133 25
    endloop
  endfacet
  facet normal 0 0 1
    outer loop
      vertex 7.98652 1.00893 25
      vertex 11.4093 1.44133 25
      vertex 11.1387 2.85993 25
    endloop
  endfacet
  facet normal 0 0 1
    outer loop
      vertex 11.5 0 25
      vertex 8.05 0 25
      vertex 11.4093 -1.44133 25
    endloop
  endfacet
  facet normal -0 0 1
    outer loop
      vertex 7.98652 -1.00893 25
      vertex 11.4093 -1.44133 25
      vertex 8.05 0 25
    endloop
  endfacet
  facet normal 0 0 1
    outer loop
      vertex 7.98652 1.00893 25
      vertex 11.1387 2.85993 25
      vertex 10.6924 4.23343 25
    endloop
  endfacet
  facet normal 0 0 1
    outer loop
      vertex 11.4093 -1.44133 25
      vertex 10.3062 -3 25
      vertex 11.1387 -2.85993 25
    endloop
  endfacet
  facet normal 0 0 1
    outer loop
      vertex 7.98652 1.00893 25
      vertex 10.6924 4.23343 25
      vertex 10.0775 5.54017 25
    endloop
  endfacet
  facet normal 0 0 1
    outer loop
      vertex 11.1387 -2.85993 25
      vertex 10.3062 -3 25
      vertex 11.0932 -3 25
    endloop
  endfacet
  facet normal 0 0 1
    outer loop
      vertex 11.4093 -1.44133 25
      vertex 7.98652 -1.00893 25
      vertex 10.3062 -3 25
    endloop
  endfacet
  facet normal 0 0 1
    outer loop
      vertex 7.98652 1.00893 25
      vertex 10.0775 5.54017 25
      vertex 9.30369 6.75953 25
    endloop
  endfacet
  facet normal -0 0 1
    outer loop
      vertex 7.79709 -2.00195 25
      vertex 10.3062 -3 25
      vertex 7.98652 -1.00893 25
    endloop
  endfacet
  facet normal 0 0 1
    outer loop
      vertex 6.51259 4.73167 25
      vertex 9.30369 6.75953 25
      vertex 8.38314 7.87229 25
    endloop
  endfacet
  facet normal -0 0 1
    outer loop
      vertex 7.4847 -2.9634 25
      vertex 10.3062 -3 25
      vertex 7.79709 -2.00195 25
    endloop
  endfacet
  facet normal 0 0 1
    outer loop
      vertex 10.3062 -3 25
      vertex 7.4847 -2.9634 25
      vertex 9.9951 -3.95734 25
    endloop
  endfacet
  facet normal 0 0 1
    outer loop
      vertex 9.9951 -3.95734 25
      vertex 7.4847 -2.9634 25
      vertex 9.4203 -5.17885 25
    endloop
  endfacet
  facet normal -0 0 1
    outer loop
      vertex 7.05427 -3.87812 25
      vertex 9.4203 -5.17885 25
      vertex 7.4847 -2.9634 25
    endloop
  endfacet
  facet normal 0 0 1
    outer loop
      vertex 9.4203 -5.17885 25
      vertex 7.05427 -3.87812 25
      vertex 8.69693 -6.31869 25
    endloop
  endfacet
  facet normal -0 0 1
    outer loop
      vertex 6.51259 -4.73167 25
      vertex 8.69693 -6.31869 25
      vertex 7.05427 -3.87812 25
    endloop
  endfacet
  facet normal 0 0 1
    outer loop
      vertex 8.69693 -6.31869 25
      vertex 6.51259 -4.73167 25
      vertex 7.83641 -7.35888 25
    endloop
  endfacet
  facet normal -0 0 1
    outer loop
      vertex 5.8682 -5.5106 25
      vertex 7.83641 -7.35888 25
      vertex 6.51259 -4.73167 25
    endloop
  endfacet
  facet normal 0 0 1
    outer loop
      vertex 7.83641 -7.35888 25
      vertex 5.8682 -5.5106 25
      vertex 6.85231 -8.28302 25
    endloop
  endfacet
  facet normal -0 0 1
    outer loop
      vertex 5.13126 -6.20263 25
      vertex 6.85231 -8.28302 25
      vertex 5.8682 -5.5106 25
    endloop
  endfacet
  facet normal 0 0 1
    outer loop
      vertex 6.85231 -8.28302 25
      vertex 5.13126 -6.20263 25
      vertex 5.76014 -9.07652 25
    endloop
  endfacet
  facet normal -0 0 1
    outer loop
      vertex 4.31341 -6.79684 25
      vertex 5.76014 -9.07652 25
      vertex 5.13126 -6.20263 25
    endloop
  endfacet
  facet normal 0 0 1
    outer loop
      vertex 5.76014 -9.07652 25
      vertex 4.31341 -6.79684 25
      vertex 4.57713 -9.72689 25
    endloop
  endfacet
  facet normal -0 0 1
    outer loop
      vertex 3.42752 -7.28386 25
      vertex 4.57713 -9.72689 25
      vertex 4.31341 -6.79684 25
    endloop
  endfacet
  facet normal 0 0 1
    outer loop
      vertex 3.42752 -7.28386 25
      vertex 3.32193 -10.2239 25
      vertex 4.57713 -9.72689 25
    endloop
  endfacet
  facet normal -0 0 1
    outer loop
      vertex 2.48759 -7.656 25
      vertex 3.32193 -10.2239 25
      vertex 3.42752 -7.28386 25
    endloop
  endfacet
  facet normal 0 0 1
    outer loop
      vertex 2.48759 -7.656 25
      vertex 2.01435 -10.5596 25
      vertex 3.32193 -10.2239 25
    endloop
  endfacet
  facet normal -0 0 1
    outer loop
      vertex 1.50842 -7.90741 25
      vertex 2.01435 -10.5596 25
      vertex 2.48759 -7.656 25
    endloop
  endfacet
  facet normal 0 0 1
    outer loop
      vertex 1.50842 -7.90741 25
      vertex 0.674997 -10.7288 25
      vertex 2.01435 -10.5596 25
    endloop
  endfacet
  facet normal -0 0 1
    outer loop
      vertex 0.505464 -8.03411 25
      vertex 0.674997 -10.7288 25
      vertex 1.50842 -7.90741 25
    endloop
  endfacet
  facet normal -0 0 1
    outer loop
      vertex -0.505464 -8.03411 25
      vertex 0.674997 -10.7288 25
      vertex 0.505464 -8.03411 25
    endloop
  endfacet
  facet normal 0 0 1
    outer loop
      vertex -0.505464 -8.03411 25
      vertex -0.674997 -10.7288 25
      vertex 0.674997 -10.7288 25
    endloop
  endfacet
  facet normal 0 0 1
    outer loop
      vertex -1.50842 -7.90741 25
      vertex -0.674997 -10.7288 25
      vertex -0.505464 -8.03411 25
    endloop
  endfacet
  facet normal 0 0 1
    outer loop
      vertex -1.50842 -7.90741 25
      vertex -2.01435 -10.5596 25
      vertex -0.674997 -10.7288 25
    endloop
  endfacet
  facet normal 0 0 1
    outer loop
      vertex -2.48759 -7.656 25
      vertex -2.01435 -10.5596 25
      vertex -1.50842 -7.90741 25
    endloop
  endfacet
  facet normal 0 0 1
    outer loop
      vertex -2.48759 -7.656 25
      vertex -3.32193 -10.2239 25
      vertex -2.01435 -10.5596 25
    endloop
  endfacet
  facet normal 0 0 1
    outer loop
      vertex -3.42752 -7.28386 25
      vertex -3.32193 -10.2239 25
      vertex -2.48759 -7.656 25
    endloop
  endfacet
  facet normal 0 0 1
    outer loop
      vertex -4.57713 -9.72689 25
      vertex -3.42752 -7.28386 25
      vertex -4.31341 -6.79684 25
    endloop
  endfacet
  facet normal 0 0 1
    outer loop
      vertex -3.42752 -7.28386 25
      vertex -4.57713 -9.72689 25
      vertex -3.32193 -10.2239 25
    endloop
  endfacet
  facet normal 0 0 1
    outer loop
      vertex -5.76014 -9.07652 25
      vertex -4.31341 -6.79684 25
      vertex -5.13126 -6.20263 25
    endloop
  endfacet
  facet normal 0 0 1
    outer loop
      vertex -4.31341 -6.79684 25
      vertex -5.76014 -9.07652 25
      vertex -4.57713 -9.72689 25
    endloop
  endfacet
  facet normal 0 0 1
    outer loop
      vertex -6.85231 -8.28302 25
      vertex -5.13126 -6.20263 25
      vertex -5.8682 -5.5106 25
    endloop
  endfacet
  facet normal 0 0 1
    outer loop
      vertex -7.83641 -7.35888 25
      vertex -5.8682 -5.5106 25
      vertex -6.51259 -4.73167 25
    endloop
  endfacet
  facet normal 0 0 1
    outer loop
      vertex -5.13126 -6.20263 25
      vertex -6.85231 -8.28302 25
      vertex -5.76014 -9.07652 25
    endloop
  endfacet
  facet normal 0 0 1
    outer loop
      vertex -8.69693 -6.31869 25
      vertex -6.51259 -4.73167 25
      vertex -7.05427 -3.87812 25
    endloop
  endfacet
  facet normal 0 0 1
    outer loop
      vertex -9.4203 -5.17885 25
      vertex -7.05427 -3.87812 25
      vertex -7.4847 -2.9634 25
    endloop
  endfacet
  facet normal 0 0 1
    outer loop
      vertex -10.3062 -3 25
      vertex -7.4847 -2.9634 25
      vertex -7.79709 -2.00195 25
    endloop
  endfacet
  facet normal 0 0 1
    outer loop
      vertex -5.8682 -5.5106 25
      vertex -7.83641 -7.35888 25
      vertex -6.85231 -8.28302 25
    endloop
  endfacet
  facet normal 0 0 1
    outer loop
      vertex -10.3062 -3 25
      vertex -7.79709 -2.00195 25
      vertex -7.98652 -1.00893 25
    endloop
  endfacet
  facet normal 0 0 1
    outer loop
      vertex -11.4093 -1.44133 25
      vertex -7.98652 -1.00893 25
      vertex -8.05 0 25
    endloop
  endfacet
  facet normal 0 0 1
    outer loop
      vertex -7.4847 2.9634 25
      vertex -10.6924 4.23343 25
      vertex -7.79709 2.00195 25
    endloop
  endfacet
  facet normal 0 0 1
    outer loop
      vertex -7.4847 -2.9634 25
      vertex -10.3062 -3 25
      vertex -9.9951 -3.95734 25
    endloop
  endfacet
  facet normal -0 0 1
    outer loop
      vertex -11.1387 2.85993 25
      vertex -7.79709 2.00195 25
      vertex -10.6924 4.23343 25
    endloop
  endfacet
  facet normal 0 0 1
    outer loop
      vertex -6.51259 -4.73167 25
      vertex -8.69693 -6.31869 25
      vertex -7.83641 -7.35888 25
    endloop
  endfacet
  facet normal 0 0 1
    outer loop
      vertex -7.05427 -3.87812 25
      vertex -9.4203 -5.17885 25
      vertex -8.69693 -6.31869 25
    endloop
  endfacet
  facet normal 0 0 1
    outer loop
      vertex -7.79709 2.00195 25
      vertex -11.1387 2.85993 25
      vertex -7.98652 1.00893 25
    endloop
  endfacet
  facet normal 0 0 1
    outer loop
      vertex -7.4847 -2.9634 25
      vertex -9.9951 -3.95734 25
      vertex -9.4203 -5.17885 25
    endloop
  endfacet
  facet normal -0 0 1
    outer loop
      vertex -11.4093 1.44133 25
      vertex -7.98652 1.00893 25
      vertex -11.1387 2.85993 25
    endloop
  endfacet
  facet normal 0 0 1
    outer loop
      vertex -7.98652 1.00893 25
      vertex -11.4093 1.44133 25
      vertex -8.05 0 25
    endloop
  endfacet
  facet normal 0 0 1
    outer loop
      vertex -11.5 0 25
      vertex -8.05 0 25
      vertex -11.4093 1.44133 25
    endloop
  endfacet
  facet normal 0 -0 1
    outer loop
      vertex -11.4093 -1.44133 25
      vertex -8.05 0 25
      vertex -11.5 0 25
    endloop
  endfacet
  facet normal -0 -0 1
    outer loop
      vertex -11.1387 -2.85993 25
      vertex -10.3062 -3 25
      vertex -11.4093 -1.44133 25
    endloop
  endfacet
  facet normal 0 0 1
    outer loop
      vertex -10.3062 -3 25
      vertex -11.1387 -2.85993 25
      vertex -11.0932 -3 25
    endloop
  endfacet
  facet normal 0 0 1
    outer loop
      vertex -7.98652 -1.00893 25
      vertex -11.4093 -1.44133 25
      vertex -10.3062 -3 25
    endloop
  endfacet
  facet normal -0.481754 0.876306 0
    outer loop
      vertex -4.89646 10.4055 0
      vertex -6.16201 9.70977 25
      vertex -4.89646 10.4055 25
    endloop
  endfacet
  facet normal -0.481754 0.876306 0
    outer loop
      vertex -6.16201 9.70977 25
      vertex -4.89646 10.4055 0
      vertex -6.16201 9.70977 0
    endloop
  endfacet
  facet normal 0.998027 -0.0627906 0
    outer loop
      vertex 11.4093 -1.44133 25
      vertex 11.5 0 0
      vertex 11.5 0 25
    endloop
  endfacet
  facet normal 0.998027 -0.0627906 0
    outer loop
      vertex 11.5 0 0
      vertex 11.4093 -1.44133 25
      vertex 11.4093 -1.44133 0
    endloop
  endfacet
  facet normal -0.998027 -0.0627906 0
    outer loop
      vertex -11.4093 -1.44133 0
      vertex -11.5 0 25
      vertex -11.5 0 0
    endloop
  endfacet
  facet normal -0.998027 -0.0627906 0
    outer loop
      vertex -11.5 0 25
      vertex -11.4093 -1.44133 0
      vertex -11.4093 -1.44133 25
    endloop
  endfacet
  facet normal -0.951057 -0.309015 0
    outer loop
      vertex -11.1387 -2.85993 0
      vertex -11.0932 -3 25
      vertex -11.1387 -2.85993 25
    endloop
  endfacet
  facet normal -0.951057 -0.309017 -9.46226e-009
    outer loop
      vertex -10.6924 -4.23343 0
      vertex -11.0932 -3 25
      vertex -11.1387 -2.85993 0
    endloop
  endfacet
  facet normal -0.951056 -0.309017 -0
    outer loop
      vertex -10.6924 -4.23343 28
      vertex -11.0932 -3 25
      vertex -10.6924 -4.23343 0
    endloop
  endfacet
  facet normal -0.951056 -0.309017 0
    outer loop
      vertex -11.0932 -3 25
      vertex -10.6924 -4.23343 28
      vertex -11.0932 -3 28
    endloop
  endfacet
  facet normal 0.587785 -0.809017 0
    outer loop
      vertex 6.16201 -9.70977 0
      vertex 7.33038 -8.8609 28
      vertex 6.16201 -9.70977 28
    endloop
  endfacet
  facet normal 0.587785 -0.809017 0
    outer loop
      vertex 7.33038 -8.8609 28
      vertex 6.16201 -9.70977 0
      vertex 7.33038 -8.8609 0
    endloop
  endfacet
  facet normal 0.368124 -0.929777 0
    outer loop
      vertex 3.55369 -10.9371 0
      vertex 4.89646 -10.4055 28
      vertex 3.55369 -10.9371 28
    endloop
  endfacet
  facet normal 0.368124 -0.929777 0
    outer loop
      vertex 4.89646 -10.4055 28
      vertex 3.55369 -10.9371 0
      vertex 4.89646 -10.4055 0
    endloop
  endfacet
  facet normal 0.24869 -0.968583 0
    outer loop
      vertex 2.15488 -11.2963 0
      vertex 3.55369 -10.9371 28
      vertex 2.15488 -11.2963 28
    endloop
  endfacet
  facet normal 0.24869 -0.968583 0
    outer loop
      vertex 3.55369 -10.9371 28
      vertex 2.15488 -11.2963 0
      vertex 3.55369 -10.9371 0
    endloop
  endfacet
  facet normal -0.24869 0.968583 0
    outer loop
      vertex -2.15488 11.2963 0
      vertex -3.55369 10.9371 25
      vertex -2.15488 11.2963 25
    endloop
  endfacet
  facet normal -0.24869 0.968583 0
    outer loop
      vertex -3.55369 10.9371 25
      vertex -2.15488 11.2963 0
      vertex -3.55369 10.9371 0
    endloop
  endfacet
  facet normal 0.904827 -0.42578 0
    outer loop
      vertex 10.0775 -5.54017 28
      vertex 10.6924 -4.23343 0
      vertex 10.6924 -4.23343 28
    endloop
  endfacet
  facet normal 0.904827 -0.42578 0
    outer loop
      vertex 10.6924 -4.23343 0
      vertex 10.0775 -5.54017 28
      vertex 10.0775 -5.54017 0
    endloop
  endfacet
  facet normal 0.951056 -0.309017 0
    outer loop
      vertex 11.0932 -3 28
      vertex 10.6924 -4.23343 28
      vertex 11.0932 -3 25
    endloop
  endfacet
  facet normal 0.951057 -0.309015 0
    outer loop
      vertex 11.0932 -3 25
      vertex 11.1387 -2.85993 0
      vertex 11.1387 -2.85993 25
    endloop
  endfacet
  facet normal 0.951056 -0.309017 0
    outer loop
      vertex 10.6924 -4.23343 0
      vertex 11.0932 -3 25
      vertex 10.6924 -4.23343 28
    endloop
  endfacet
  facet normal 0.951057 -0.309017 -9.46226e-009
    outer loop
      vertex 11.0932 -3 25
      vertex 10.6924 -4.23343 0
      vertex 11.1387 -2.85993 0
    endloop
  endfacet
  facet normal 0.982287 -0.187381 0
    outer loop
      vertex 11.1387 -2.85993 25
      vertex 11.4093 -1.44133 0
      vertex 11.4093 -1.44133 25
    endloop
  endfacet
  facet normal 0.982287 -0.187381 0
    outer loop
      vertex 11.4093 -1.44133 0
      vertex 11.1387 -2.85993 25
      vertex 11.1387 -2.85993 0
    endloop
  endfacet
  facet normal 0 -1 0
    outer loop
      vertex -0.722091 -11.4773 0
      vertex 0.722091 -11.4773 28
      vertex -0.722091 -11.4773 28
    endloop
  endfacet
  facet normal 0 -1 -0
    outer loop
      vertex 0.722091 -11.4773 28
      vertex -0.722091 -11.4773 0
      vertex 0.722091 -11.4773 0
    endloop
  endfacet
  facet normal -0.368124 -0.929777 0
    outer loop
      vertex -4.89646 -10.4055 0
      vertex -3.55369 -10.9371 28
      vertex -4.89646 -10.4055 28
    endloop
  endfacet
  facet normal -0.368124 -0.929777 -0
    outer loop
      vertex -3.55369 -10.9371 28
      vertex -4.89646 -10.4055 0
      vertex -3.55369 -10.9371 0
    endloop
  endfacet
  facet normal -0.770513 -0.637424 0
    outer loop
      vertex -8.38314 -7.87229 0
      vertex -9.30369 -6.75953 28
      vertex -9.30369 -6.75953 0
    endloop
  endfacet
  facet normal -0.770513 -0.637424 0
    outer loop
      vertex -9.30369 -6.75953 28
      vertex -8.38314 -7.87229 0
      vertex -8.38314 -7.87229 28
    endloop
  endfacet
  facet normal -0.982287 -0.187381 0
    outer loop
      vertex -11.1387 -2.85993 0
      vertex -11.4093 -1.44133 25
      vertex -11.4093 -1.44133 0
    endloop
  endfacet
  facet normal -0.982287 -0.187381 0
    outer loop
      vertex -11.4093 -1.44133 25
      vertex -11.1387 -2.85993 0
      vertex -11.1387 -2.85993 25
    endloop
  endfacet
  facet normal 0 0 -1
    outer loop
      vertex 8.05 0 0
      vertex 11.5 0 0
      vertex 11.4093 -1.44133 0
    endloop
  endfacet
  facet normal 0 0 -1
    outer loop
      vertex 7.98652 -1.00893 0
      vertex 11.4093 -1.44133 0
      vertex 11.1387 -2.85993 0
    endloop
  endfacet
  facet normal 0 0 -1
    outer loop
      vertex 11.5 0 0
      vertex 8.05 0 0
      vertex 11.4093 1.44133 0
    endloop
  endfacet
  facet normal 0 0 -1
    outer loop
      vertex 7.79709 -2.00195 0
      vertex 11.1387 -2.85993 0
      vertex 10.6924 -4.23343 0
    endloop
  endfacet
  facet normal 0 0 -1
    outer loop
      vertex 7.98652 1.00893 0
      vertex 11.4093 1.44133 0
      vertex 8.05 0 0
    endloop
  endfacet
  facet normal 0 0 -1
    outer loop
      vertex 7.4847 -2.9634 0
      vertex 10.6924 -4.23343 0
      vertex 10.0775 -5.54017 0
    endloop
  endfacet
  facet normal -0 0 -1
    outer loop
      vertex 11.4093 1.44133 0
      vertex 7.98652 1.00893 0
      vertex 11.1387 2.85993 0
    endloop
  endfacet
  facet normal 0 0 -1
    outer loop
      vertex 7.05427 -3.87812 0
      vertex 10.0775 -5.54017 0
      vertex 9.30369 -6.75953 0
    endloop
  endfacet
  facet normal 0 0 -1
    outer loop
      vertex 7.79709 2.00195 0
      vertex 11.1387 2.85993 0
      vertex 7.98652 1.00893 0
    endloop
  endfacet
  facet normal 0 0 -1
    outer loop
      vertex 6.51259 -4.73167 0
      vertex 9.30369 -6.75953 0
      vertex 8.38314 -7.87229 0
    endloop
  endfacet
  facet normal -0 0 -1
    outer loop
      vertex 11.1387 2.85993 0
      vertex 7.79709 2.00195 0
      vertex 10.6924 4.23343 0
    endloop
  endfacet
  facet normal 0 0 -1
    outer loop
      vertex 7.4847 2.9634 0
      vertex 10.6924 4.23343 0
      vertex 7.79709 2.00195 0
    endloop
  endfacet
  facet normal 0 0 -1
    outer loop
      vertex 11.4093 -1.44133 0
      vertex 7.98652 -1.00893 0
      vertex 8.05 0 0
    endloop
  endfacet
  facet normal 0 0 -1
    outer loop
      vertex 11.1387 -2.85993 0
      vertex 7.79709 -2.00195 0
      vertex 7.98652 -1.00893 0
    endloop
  endfacet
  facet normal 0 0 -1
    outer loop
      vertex 10.6924 -4.23343 0
      vertex 7.4847 -2.9634 0
      vertex 7.79709 -2.00195 0
    endloop
  endfacet
  facet normal 0 0 -1
    outer loop
      vertex 5.8682 -5.5106 0
      vertex 8.38314 -7.87229 0
      vertex 7.33038 -8.8609 0
    endloop
  endfacet
  facet normal 0 0 -1
    outer loop
      vertex 10.0775 -5.54017 0
      vertex 7.05427 -3.87812 0
      vertex 7.4847 -2.9634 0
    endloop
  endfacet
  facet normal 0 0 -1
    outer loop
      vertex 9.30369 -6.75953 0
      vertex 6.51259 -4.73167 0
      vertex 7.05427 -3.87812 0
    endloop
  endfacet
  facet normal 0 0 -1
    outer loop
      vertex 5.13126 -6.20263 0
      vertex 7.33038 -8.8609 0
      vertex 6.16201 -9.70977 0
    endloop
  endfacet
  facet normal 0 0 -1
    outer loop
      vertex 8.38314 -7.87229 0
      vertex 5.8682 -5.5106 0
      vertex 6.51259 -4.73167 0
    endloop
  endfacet
  facet normal 0 0 -1
    outer loop
      vertex 7.33038 -8.8609 0
      vertex 5.13126 -6.20263 0
      vertex 5.8682 -5.5106 0
    endloop
  endfacet
  facet normal 0 0 -1
    outer loop
      vertex 4.31341 -6.79684 0
      vertex 6.16201 -9.70977 0
      vertex 4.89646 -10.4055 0
    endloop
  endfacet
  facet normal 0 0 -1
    outer loop
      vertex 6.16201 -9.70977 0
      vertex 4.31341 -6.79684 0
      vertex 5.13126 -6.20263 0
    endloop
  endfacet
  facet normal 0 0 -1
    outer loop
      vertex 3.42752 -7.28386 0
      vertex 4.89646 -10.4055 0
      vertex 3.55369 -10.9371 0
    endloop
  endfacet
  facet normal 0 0 -1
    outer loop
      vertex 4.89646 -10.4055 0
      vertex 3.42752 -7.28386 0
      vertex 4.31341 -6.79684 0
    endloop
  endfacet
  facet normal 0 0 -1
    outer loop
      vertex 3.55369 -10.9371 0
      vertex 2.48759 -7.656 0
      vertex 3.42752 -7.28386 0
    endloop
  endfacet
  facet normal 0 0 -1
    outer loop
      vertex 2.15488 -11.2963 0
      vertex 2.48759 -7.656 0
      vertex 3.55369 -10.9371 0
    endloop
  endfacet
  facet normal 0 0 -1
    outer loop
      vertex 2.15488 -11.2963 0
      vertex 1.50842 -7.90741 0
      vertex 2.48759 -7.656 0
    endloop
  endfacet
  facet normal 0 0 -1
    outer loop
      vertex 0.722091 -11.4773 0
      vertex 1.50842 -7.90741 0
      vertex 2.15488 -11.2963 0
    endloop
  endfacet
  facet normal 0 0 -1
    outer loop
      vertex 0.722091 -11.4773 0
      vertex 0.505464 -8.03411 0
      vertex 1.50842 -7.90741 0
    endloop
  endfacet
  facet normal 0 0 -1
    outer loop
      vertex 0.722091 -11.4773 0
      vertex -0.505464 -8.03411 0
      vertex 0.505464 -8.03411 0
    endloop
  endfacet
  facet normal 0 0 -1
    outer loop
      vertex -0.722091 -11.4773 0
      vertex -0.505464 -8.03411 0
      vertex 0.722091 -11.4773 0
    endloop
  endfacet
  facet normal 0 0 -1
    outer loop
      vertex -0.722091 -11.4773 0
      vertex -1.50842 -7.90741 0
      vertex -0.505464 -8.03411 0
    endloop
  endfacet
  facet normal 0 0 -1
    outer loop
      vertex -2.15488 -11.2963 0
      vertex -1.50842 -7.90741 0
      vertex -0.722091 -11.4773 0
    endloop
  endfacet
  facet normal 0 0 -1
    outer loop
      vertex -2.15488 -11.2963 0
      vertex -2.48759 -7.656 0
      vertex -1.50842 -7.90741 0
    endloop
  endfacet
  facet normal 0 0 -1
    outer loop
      vertex -3.55369 -10.9371 0
      vertex -2.48759 -7.656 0
      vertex -2.15488 -11.2963 0
    endloop
  endfacet
  facet normal -0 0 -1
    outer loop
      vertex -2.48759 -7.656 0
      vertex -3.55369 -10.9371 0
      vertex -3.42752 -7.28386 0
    endloop
  endfacet
  facet normal 0 0 -1
    outer loop
      vertex -4.89646 -10.4055 0
      vertex -3.42752 -7.28386 0
      vertex -3.55369 -10.9371 0
    endloop
  endfacet
  facet normal -0 0 -1
    outer loop
      vertex -3.42752 -7.28386 0
      vertex -4.89646 -10.4055 0
      vertex -4.31341 -6.79684 0
    endloop
  endfacet
  facet normal 0 0 -1
    outer loop
      vertex -6.16201 -9.70977 0
      vertex -4.31341 -6.79684 0
      vertex -4.89646 -10.4055 0
    endloop
  endfacet
  facet normal -0 0 -1
    outer loop
      vertex -4.31341 -6.79684 0
      vertex -6.16201 -9.70977 0
      vertex -5.13126 -6.20263 0
    endloop
  endfacet
  facet normal 0 0 -1
    outer loop
      vertex -7.33038 -8.8609 0
      vertex -5.13126 -6.20263 0
      vertex -6.16201 -9.70977 0
    endloop
  endfacet
  facet normal -0 0 -1
    outer loop
      vertex -5.13126 -6.20263 0
      vertex -7.33038 -8.8609 0
      vertex -5.8682 -5.5106 0
    endloop
  endfacet
  facet normal 0 0 -1
    outer loop
      vertex -8.38314 -7.87229 0
      vertex -5.8682 -5.5106 0
      vertex -7.33038 -8.8609 0
    endloop
  endfacet
  facet normal -0 0 -1
    outer loop
      vertex -5.8682 -5.5106 0
      vertex -8.38314 -7.87229 0
      vertex -6.51259 -4.73167 0
    endloop
  endfacet
  facet normal 0 0 -1
    outer loop
      vertex -9.30369 -6.75953 0
      vertex -6.51259 -4.73167 0
      vertex -8.38314 -7.87229 0
    endloop
  endfacet
  facet normal -0 0 -1
    outer loop
      vertex -6.51259 -4.73167 0
      vertex -9.30369 -6.75953 0
      vertex -7.05427 -3.87812 0
    endloop
  endfacet
  facet normal 0 0 -1
    outer loop
      vertex -10.0775 -5.54017 0
      vertex -7.05427 -3.87812 0
      vertex -9.30369 -6.75953 0
    endloop
  endfacet
  facet normal 0 0 -1
    outer loop
      vertex -10.6924 -4.23343 0
      vertex -7.4847 -2.9634 0
      vertex -10.0775 -5.54017 0
    endloop
  endfacet
  facet normal -0 0 -1
    outer loop
      vertex -7.05427 -3.87812 0
      vertex -10.0775 -5.54017 0
      vertex -7.4847 -2.9634 0
    endloop
  endfacet
  facet normal -0 0 -1
    outer loop
      vertex 10.6924 4.23343 0
      vertex 7.4847 2.9634 0
      vertex 10.0775 5.54017 0
    endloop
  endfacet
  facet normal 0 0 -1
    outer loop
      vertex 7.05427 3.87812 0
      vertex 10.0775 5.54017 0
      vertex 7.4847 2.9634 0
    endloop
  endfacet
  facet normal -0 0 -1
    outer loop
      vertex 10.0775 5.54017 0
      vertex 7.05427 3.87812 0
      vertex 9.30369 6.75953 0
    endloop
  endfacet
  facet normal 0 0 -1
    outer loop
      vertex 6.51259 4.73167 0
      vertex 9.30369 6.75953 0
      vertex 7.05427 3.87812 0
    endloop
  endfacet
  facet normal -0 0 -1
    outer loop
      vertex 9.30369 6.75953 0
      vertex 6.51259 4.73167 0
      vertex 8.38314 7.87229 0
    endloop
  endfacet
  facet normal 0 0 -1
    outer loop
      vertex 5.8682 5.5106 0
      vertex 8.38314 7.87229 0
      vertex 6.51259 4.73167 0
    endloop
  endfacet
  facet normal -0 0 -1
    outer loop
      vertex 8.38314 7.87229 0
      vertex 5.8682 5.5106 0
      vertex 7.33038 8.8609 0
    endloop
  endfacet
  facet normal 0 0 -1
    outer loop
      vertex 5.13126 6.20263 0
      vertex 7.33038 8.8609 0
      vertex 5.8682 5.5106 0
    endloop
  endfacet
  facet normal -0 0 -1
    outer loop
      vertex 7.33038 8.8609 0
      vertex 5.13126 6.20263 0
      vertex 6.16201 9.70977 0
    endloop
  endfacet
  facet normal 0 0 -1
    outer loop
      vertex 4.31341 6.79684 0
      vertex 6.16201 9.70977 0
      vertex 5.13126 6.20263 0
    endloop
  endfacet
  facet normal -0 0 -1
    outer loop
      vertex 6.16201 9.70977 0
      vertex 4.31341 6.79684 0
      vertex 4.89646 10.4055 0
    endloop
  endfacet
  facet normal 0 0 -1
    outer loop
      vertex 3.42752 7.28386 0
      vertex 4.89646 10.4055 0
      vertex 4.31341 6.79684 0
    endloop
  endfacet
  facet normal -0 0 -1
    outer loop
      vertex 4.89646 10.4055 0
      vertex 3.42752 7.28386 0
      vertex 3.55369 10.9371 0
    endloop
  endfacet
  facet normal 0 0 -1
    outer loop
      vertex 2.48759 7.656 0
      vertex 3.55369 10.9371 0
      vertex 3.42752 7.28386 0
    endloop
  endfacet
  facet normal 0 0 -1
    outer loop
      vertex 2.48759 7.656 0
      vertex 2.15488 11.2963 0
      vertex 3.55369 10.9371 0
    endloop
  endfacet
  facet normal 0 0 -1
    outer loop
      vertex 1.50842 7.90741 0
      vertex 2.15488 11.2963 0
      vertex 2.48759 7.656 0
    endloop
  endfacet
  facet normal 0 0 -1
    outer loop
      vertex 1.50842 7.90741 0
      vertex 0.722091 11.4773 0
      vertex 2.15488 11.2963 0
    endloop
  endfacet
  facet normal 0 0 -1
    outer loop
      vertex 0.505464 8.03411 0
      vertex 0.722091 11.4773 0
      vertex 1.50842 7.90741 0
    endloop
  endfacet
  facet normal 0 0 -1
    outer loop
      vertex 0.4 11.4773 0
      vertex 0.505464 8.03411 0
      vertex 0.4 8.03411 0
    endloop
  endfacet
  facet normal 0 0 -1
    outer loop
      vertex 0.505464 8.03411 0
      vertex 0.4 11.4773 0
      vertex 0.722091 11.4773 0
    endloop
  endfacet
  facet normal 0 0 -1
    outer loop
      vertex -0.599999 8.02217 0
      vertex -0.722091 11.4773 0
      vertex -0.599999 11.4773 0
    endloop
  endfacet
  facet normal 0 0 -1
    outer loop
      vertex -2.15488 11.2963 0
      vertex -0.599999 8.02217 0
      vertex -1.50842 7.90741 0
    endloop
  endfacet
  facet normal 0 0 -1
    outer loop
      vertex -0.599999 8.02217 0
      vertex -2.15488 11.2963 0
      vertex -0.722091 11.4773 0
    endloop
  endfacet
  facet normal 0 0 -1
    outer loop
      vertex -2.48759 7.656 0
      vertex -2.15488 11.2963 0
      vertex -1.50842 7.90741 0
    endloop
  endfacet
  facet normal 0 0 -1
    outer loop
      vertex -3.55369 10.9371 0
      vertex -2.48759 7.656 0
      vertex -3.42752 7.28386 0
    endloop
  endfacet
  facet normal 0 0 -1
    outer loop
      vertex -2.48759 7.656 0
      vertex -3.55369 10.9371 0
      vertex -2.15488 11.2963 0
    endloop
  endfacet
  facet normal 0 0 -1
    outer loop
      vertex -4.89646 10.4055 0
      vertex -3.42752 7.28386 0
      vertex -4.31341 6.79684 0
    endloop
  endfacet
  facet normal 0 0 -1
    outer loop
      vertex -3.42752 7.28386 0
      vertex -4.89646 10.4055 0
      vertex -3.55369 10.9371 0
    endloop
  endfacet
  facet normal 0 0 -1
    outer loop
      vertex -6.16201 9.70977 0
      vertex -4.31341 6.79684 0
      vertex -5.13126 6.20263 0
    endloop
  endfacet
  facet normal 0 0 -1
    outer loop
      vertex -7.33038 8.8609 0
      vertex -5.13126 6.20263 0
      vertex -5.8682 5.5106 0
    endloop
  endfacet
  facet normal 0 0 -1
    outer loop
      vertex -4.31341 6.79684 0
      vertex -6.16201 9.70977 0
      vertex -4.89646 10.4055 0
    endloop
  endfacet
  facet normal 0 0 -1
    outer loop
      vertex -8.38314 7.87229 0
      vertex -5.8682 5.5106 0
      vertex -6.51259 4.73167 0
    endloop
  endfacet
  facet normal 0 0 -1
    outer loop
      vertex -9.30369 6.75953 0
      vertex -6.51259 4.73167 0
      vertex -7.05427 3.87812 0
    endloop
  endfacet
  facet normal 0 0 -1
    outer loop
      vertex -5.13126 6.20263 0
      vertex -7.33038 8.8609 0
      vertex -6.16201 9.70977 0
    endloop
  endfacet
  facet normal 0 0 -1
    outer loop
      vertex -10.0775 5.54017 0
      vertex -7.05427 3.87812 0
      vertex -7.4847 2.9634 0
    endloop
  endfacet
  facet normal 0 0 -1
    outer loop
      vertex -10.6924 4.23343 0
      vertex -7.4847 2.9634 0
      vertex -7.79709 2.00195 0
    endloop
  endfacet
  facet normal 0 0 -1
    outer loop
      vertex -11.1387 2.85993 0
      vertex -7.79709 2.00195 0
      vertex -7.98652 1.00893 0
    endloop
  endfacet
  facet normal 0 0 -1
    outer loop
      vertex -5.8682 5.5106 0
      vertex -8.38314 7.87229 0
      vertex -7.33038 8.8609 0
    endloop
  endfacet
  facet normal 0 0 -1
    outer loop
      vertex -11.4093 1.44133 0
      vertex -7.98652 1.00893 0
      vertex -8.05 0 0
    endloop
  endfacet
  facet normal -0 0 -1
    outer loop
      vertex -7.4847 -2.9634 0
      vertex -10.6924 -4.23343 0
      vertex -7.79709 -2.00195 0
    endloop
  endfacet
  facet normal 0 0 -1
    outer loop
      vertex -11.1387 -2.85993 0
      vertex -7.79709 -2.00195 0
      vertex -10.6924 -4.23343 0
    endloop
  endfacet
  facet normal 0 0 -1
    outer loop
      vertex -6.51259 4.73167 0
      vertex -9.30369 6.75953 0
      vertex -8.38314 7.87229 0
    endloop
  endfacet
  facet normal -0 0 -1
    outer loop
      vertex -7.79709 -2.00195 0
      vertex -11.1387 -2.85993 0
      vertex -7.98652 -1.00893 0
    endloop
  endfacet
  facet normal 0 0 -1
    outer loop
      vertex -7.05427 3.87812 0
      vertex -10.0775 5.54017 0
      vertex -9.30369 6.75953 0
    endloop
  endfacet
  facet normal 0 0 -1
    outer loop
      vertex -11.4093 -1.44133 0
      vertex -7.98652 -1.00893 0
      vertex -11.1387 -2.85993 0
    endloop
  endfacet
  facet normal 0 0 -1
    outer loop
      vertex -7.4847 2.9634 0
      vertex -10.6924 4.23343 0
      vertex -10.0775 5.54017 0
    endloop
  endfacet
  facet normal -0 0 -1
    outer loop
      vertex -7.98652 -1.00893 0
      vertex -11.4093 -1.44133 0
      vertex -8.05 0 0
    endloop
  endfacet
  facet normal 0 0 -1
    outer loop
      vertex -7.79709 2.00195 0
      vertex -11.1387 2.85993 0
      vertex -10.6924 4.23343 0
    endloop
  endfacet
  facet normal 0 0 -1
    outer loop
      vertex -11.5 0 0
      vertex -8.05 0 0
      vertex -11.4093 -1.44133 0
    endloop
  endfacet
  facet normal 0 0 -1
    outer loop
      vertex -7.98652 1.00893 0
      vertex -11.4093 1.44133 0
      vertex -11.1387 2.85993 0
    endloop
  endfacet
  facet normal 0 0 -1
    outer loop
      vertex -8.05 0 0
      vertex -11.5 0 0
      vertex -11.4093 1.44133 0
    endloop
  endfacet
  facet normal 0.481754 -0.876306 0
    outer loop
      vertex 4.89646 -10.4055 0
      vertex 6.16201 -9.70977 28
      vertex 4.89646 -10.4055 28
    endloop
  endfacet
  facet normal 0.481754 -0.876306 0
    outer loop
      vertex 6.16201 -9.70977 28
      vertex 4.89646 -10.4055 0
      vertex 6.16201 -9.70977 0
    endloop
  endfacet
  facet normal 0.844328 -0.535827 0
    outer loop
      vertex 9.30369 -6.75953 28
      vertex 10.0775 -5.54017 0
      vertex 10.0775 -5.54017 28
    endloop
  endfacet
  facet normal 0.844328 -0.535827 0
    outer loop
      vertex 10.0775 -5.54017 0
      vertex 9.30369 -6.75953 28
      vertex 9.30369 -6.75953 0
    endloop
  endfacet
  facet normal -0.125334 -0.992115 0
    outer loop
      vertex -2.15488 -11.2963 0
      vertex -0.722091 -11.4773 28
      vertex -2.15488 -11.2963 28
    endloop
  endfacet
  facet normal -0.125334 -0.992115 -0
    outer loop
      vertex -0.722091 -11.4773 28
      vertex -2.15488 -11.2963 0
      vertex -0.722091 -11.4773 0
    endloop
  endfacet
  facet normal -0.587785 -0.809017 0
    outer loop
      vertex -7.33038 -8.8609 0
      vertex -6.16201 -9.70977 28
      vertex -7.33038 -8.8609 28
    endloop
  endfacet
  facet normal -0.587785 -0.809017 -0
    outer loop
      vertex -6.16201 -9.70977 28
      vertex -7.33038 -8.8609 0
      vertex -6.16201 -9.70977 0
    endloop
  endfacet
  facet normal -0.684547 -0.728969 0
    outer loop
      vertex -8.38314 -7.87229 0
      vertex -7.33038 -8.8609 28
      vertex -8.38314 -7.87229 28
    endloop
  endfacet
  facet normal -0.684547 -0.728969 -0
    outer loop
      vertex -7.33038 -8.8609 28
      vertex -8.38314 -7.87229 0
      vertex -7.33038 -8.8609 0
    endloop
  endfacet
  facet normal -0.844328 -0.535827 0
    outer loop
      vertex -9.30369 -6.75953 0
      vertex -10.0775 -5.54017 28
      vertex -10.0775 -5.54017 0
    endloop
  endfacet
  facet normal -0.844328 -0.535827 0
    outer loop
      vertex -10.0775 -5.54017 28
      vertex -9.30369 -6.75953 0
      vertex -9.30369 -6.75953 28
    endloop
  endfacet
  facet normal -0.904827 -0.42578 0
    outer loop
      vertex -10.0775 -5.54017 0
      vertex -10.6924 -4.23343 28
      vertex -10.6924 -4.23343 0
    endloop
  endfacet
  facet normal -0.904827 -0.42578 0
    outer loop
      vertex -10.6924 -4.23343 28
      vertex -10.0775 -5.54017 0
      vertex -10.0775 -5.54017 28
    endloop
  endfacet
  facet normal 0.770513 -0.637424 0
    outer loop
      vertex 8.38314 -7.87229 28
      vertex 9.30369 -6.75953 0
      vertex 9.30369 -6.75953 28
    endloop
  endfacet
  facet normal 0.770513 -0.637424 0
    outer loop
      vertex 9.30369 -6.75953 0
      vertex 8.38314 -7.87229 28
      vertex 8.38314 -7.87229 0
    endloop
  endfacet
  facet normal -0.24869 -0.968583 0
    outer loop
      vertex -3.55369 -10.9371 0
      vertex -2.15488 -11.2963 28
      vertex -3.55369 -10.9371 28
    endloop
  endfacet
  facet normal -0.24869 -0.968583 -0
    outer loop
      vertex -2.15488 -11.2963 28
      vertex -3.55369 -10.9371 0
      vertex -2.15488 -11.2963 0
    endloop
  endfacet
  facet normal -0.481754 -0.876306 0
    outer loop
      vertex -6.16201 -9.70977 0
      vertex -4.89646 -10.4055 28
      vertex -6.16201 -9.70977 28
    endloop
  endfacet
  facet normal -0.481754 -0.876306 -0
    outer loop
      vertex -4.89646 -10.4055 28
      vertex -6.16201 -9.70977 0
      vertex -4.89646 -10.4055 0
    endloop
  endfacet
  facet normal -0.998027 -0.0627905 0
    outer loop
      vertex 8.05 0 0
      vertex 7.98652 1.00893 25
      vertex 7.98652 1.00893 0
    endloop
  endfacet
  facet normal -0.998027 -0.0627905 0
    outer loop
      vertex 7.98652 1.00893 25
      vertex 8.05 0 0
      vertex 8.05 0 25
    endloop
  endfacet
  facet normal 0.998027 -0.0627905 0
    outer loop
      vertex -8.05 0 25
      vertex -7.98652 1.00893 0
      vertex -7.98652 1.00893 25
    endloop
  endfacet
  facet normal 0.998027 -0.0627905 0
    outer loop
      vertex -7.98652 1.00893 0
      vertex -8.05 0 25
      vertex -8.05 0 0
    endloop
  endfacet
  facet normal 0 -1 0
    outer loop
      vertex -0.505464 8.03411 3.1
      vertex 0.505464 8.03411 25
      vertex -0.505464 8.03411 25
    endloop
  endfacet
  facet normal 0 -1 0
    outer loop
      vertex 0.4 8.03411 3.1
      vertex 0.505464 8.03411 25
      vertex -0.505464 8.03411 3.1
    endloop
  endfacet
  facet normal 0 -1 0
    outer loop
      vertex 0.505464 8.03411 0
      vertex 0.4 8.03411 3.1
      vertex 0.4 8.03411 0
    endloop
  endfacet
  facet normal 0 -1 0
    outer loop
      vertex 0.4 8.03411 3.1
      vertex 0.505464 8.03411 0
      vertex 0.505464 8.03411 25
    endloop
  endfacet
  facet normal -0.684547 -0.728969 0
    outer loop
      vertex 5.13126 6.20263 0
      vertex 5.8682 5.5106 25
      vertex 5.13126 6.20263 25
    endloop
  endfacet
  facet normal -0.684547 -0.728969 -0
    outer loop
      vertex 5.8682 5.5106 25
      vertex 5.13126 6.20263 0
      vertex 5.8682 5.5106 0
    endloop
  endfacet
  facet normal 0.684547 -0.728969 0
    outer loop
      vertex -5.8682 5.5106 0
      vertex -5.13126 6.20263 25
      vertex -5.8682 5.5106 25
    endloop
  endfacet
  facet normal 0.684547 -0.728969 0
    outer loop
      vertex -5.13126 6.20263 25
      vertex -5.8682 5.5106 0
      vertex -5.13126 6.20263 0
    endloop
  endfacet
  facet normal 0.368125 -0.929776 0
    outer loop
      vertex -3.42752 7.28386 0
      vertex -2.48759 7.656 25
      vertex -3.42752 7.28386 25
    endloop
  endfacet
  facet normal 0.368125 -0.929776 0
    outer loop
      vertex -2.48759 7.656 25
      vertex -3.42752 7.28386 0
      vertex -2.48759 7.656 0
    endloop
  endfacet
  facet normal -0.770514 0.637424 0
    outer loop
      vertex 5.8682 -5.5106 0
      vertex 6.51259 -4.73167 25
      vertex 6.51259 -4.73167 0
    endloop
  endfacet
  facet normal -0.770514 0.637424 0
    outer loop
      vertex 6.51259 -4.73167 25
      vertex 5.8682 -5.5106 0
      vertex 5.8682 -5.5106 25
    endloop
  endfacet
  facet normal -0.904827 -0.425779 0
    outer loop
      vertex 7.4847 2.9634 0
      vertex 7.05427 3.87812 25
      vertex 7.05427 3.87812 0
    endloop
  endfacet
  facet normal -0.904827 -0.425779 0
    outer loop
      vertex 7.05427 3.87812 25
      vertex 7.4847 2.9634 0
      vertex 7.4847 2.9634 25
    endloop
  endfacet
  facet normal -0.982287 -0.187381 0
    outer loop
      vertex 7.98652 1.00893 0
      vertex 7.79709 2.00195 25
      vertex 7.79709 2.00195 0
    endloop
  endfacet
  facet normal -0.982287 -0.187381 0
    outer loop
      vertex 7.79709 2.00195 25
      vertex 7.98652 1.00893 0
      vertex 7.98652 1.00893 25
    endloop
  endfacet
  facet normal -0.368125 -0.929776 0
    outer loop
      vertex 2.48759 7.656 0
      vertex 3.42752 7.28386 25
      vertex 2.48759 7.656 25
    endloop
  endfacet
  facet normal -0.368125 -0.929776 -0
    outer loop
      vertex 3.42752 7.28386 25
      vertex 2.48759 7.656 0
      vertex 3.42752 7.28386 0
    endloop
  endfacet
  facet normal -0.587785 -0.809017 0
    outer loop
      vertex 4.31341 6.79684 0
      vertex 5.13126 6.20263 25
      vertex 4.31341 6.79684 25
    endloop
  endfacet
  facet normal -0.587785 -0.809017 -0
    outer loop
      vertex 5.13126 6.20263 25
      vertex 4.31341 6.79684 0
      vertex 5.13126 6.20263 0
    endloop
  endfacet
  facet normal 0.844328 -0.535827 0
    outer loop
      vertex -7.05427 3.87812 25
      vertex -6.51259 4.73167 0
      vertex -6.51259 4.73167 25
    endloop
  endfacet
  facet normal 0.844328 -0.535827 0
    outer loop
      vertex -6.51259 4.73167 0
      vertex -7.05427 3.87812 25
      vertex -7.05427 3.87812 0
    endloop
  endfacet
  facet normal 0.770514 -0.637424 0
    outer loop
      vertex -6.51259 4.73167 25
      vertex -5.8682 5.5106 0
      vertex -5.8682 5.5106 25
    endloop
  endfacet
  facet normal 0.770514 -0.637424 0
    outer loop
      vertex -5.8682 5.5106 0
      vertex -6.51259 4.73167 25
      vertex -6.51259 4.73167 0
    endloop
  endfacet
  facet normal 0.951056 -0.309017 0
    outer loop
      vertex -7.79709 2.00195 25
      vertex -7.4847 2.9634 0
      vertex -7.4847 2.9634 25
    endloop
  endfacet
  facet normal 0.951056 -0.309017 0
    outer loop
      vertex -7.4847 2.9634 0
      vertex -7.79709 2.00195 25
      vertex -7.79709 2.00195 0
    endloop
  endfacet
  facet normal 0.481753 -0.876307 0
    outer loop
      vertex -4.31341 6.79684 0
      vertex -3.42752 7.28386 25
      vertex -4.31341 6.79684 25
    endloop
  endfacet
  facet normal 0.481753 -0.876307 0
    outer loop
      vertex -3.42752 7.28386 25
      vertex -4.31341 6.79684 0
      vertex -3.42752 7.28386 0
    endloop
  endfacet
  facet normal 0.125334 -0.992115 7.3206e-009
    outer loop
      vertex -1.50842 7.90741 25
      vertex -0.599999 8.02217 3.1
      vertex -0.505464 8.03411 25
    endloop
  endfacet
  facet normal 0.125334 -0.992115 0
    outer loop
      vertex -1.50842 7.90741 0
      vertex -0.599999 8.02217 3.1
      vertex -1.50842 7.90741 25
    endloop
  endfacet
  facet normal 0.125334 -0.992115 0
    outer loop
      vertex -0.599999 8.02217 3.1
      vertex -1.50842 7.90741 0
      vertex -0.599999 8.02217 0
    endloop
  endfacet
  facet normal 0.125335 -0.992114 0
    outer loop
      vertex -0.505464 8.03411 25
      vertex -0.599999 8.02217 3.1
      vertex -0.505464 8.03411 3.1
    endloop
  endfacet
  facet normal -0.998027 0.0627905 0
    outer loop
      vertex 7.98652 -1.00893 0
      vertex 8.05 0 25
      vertex 8.05 0 0
    endloop
  endfacet
  facet normal -0.998027 0.0627905 0
    outer loop
      vertex 8.05 0 25
      vertex 7.98652 -1.00893 0
      vertex 7.98652 -1.00893 25
    endloop
  endfacet
  facet normal 0.248689 0.968583 -0
    outer loop
      vertex -1.50842 -7.90741 0
      vertex -2.48759 -7.656 25
      vertex -1.50842 -7.90741 25
    endloop
  endfacet
  facet normal 0.248689 0.968583 0
    outer loop
      vertex -2.48759 -7.656 25
      vertex -1.50842 -7.90741 0
      vertex -2.48759 -7.656 0
    endloop
  endfacet
  facet normal -0.125334 0.992115 0
    outer loop
      vertex 1.50842 -7.90741 0
      vertex 0.505464 -8.03411 25
      vertex 1.50842 -7.90741 25
    endloop
  endfacet
  facet normal -0.125334 0.992115 0
    outer loop
      vertex 0.505464 -8.03411 25
      vertex 1.50842 -7.90741 0
      vertex 0.505464 -8.03411 0
    endloop
  endfacet
  facet normal -0.951056 -0.309017 0
    outer loop
      vertex 7.79709 2.00195 0
      vertex 7.4847 2.9634 25
      vertex 7.4847 2.9634 0
    endloop
  endfacet
  facet normal -0.951056 -0.309017 0
    outer loop
      vertex 7.4847 2.9634 25
      vertex 7.79709 2.00195 0
      vertex 7.79709 2.00195 25
    endloop
  endfacet
  facet normal -0.770514 -0.637424 0
    outer loop
      vertex 6.51259 4.73167 0
      vertex 5.8682 5.5106 25
      vertex 5.8682 5.5106 0
    endloop
  endfacet
  facet normal -0.770514 -0.637424 0
    outer loop
      vertex 5.8682 5.5106 25
      vertex 6.51259 4.73167 0
      vertex 6.51259 4.73167 25
    endloop
  endfacet
  facet normal -0.844328 -0.535827 0
    outer loop
      vertex 7.05427 3.87812 0
      vertex 6.51259 4.73167 25
      vertex 6.51259 4.73167 0
    endloop
  endfacet
  facet normal -0.844328 -0.535827 0
    outer loop
      vertex 6.51259 4.73167 25
      vertex 7.05427 3.87812 0
      vertex 7.05427 3.87812 25
    endloop
  endfacet
  facet normal -0.248689 -0.968583 0
    outer loop
      vertex 1.50842 7.90741 0
      vertex 2.48759 7.656 25
      vertex 1.50842 7.90741 25
    endloop
  endfacet
  facet normal -0.248689 -0.968583 -0
    outer loop
      vertex 2.48759 7.656 25
      vertex 1.50842 7.90741 0
      vertex 2.48759 7.656 0
    endloop
  endfacet
  facet normal -0.125334 -0.992115 0
    outer loop
      vertex 0.505464 8.03411 0
      vertex 1.50842 7.90741 25
      vertex 0.505464 8.03411 25
    endloop
  endfacet
  facet normal -0.125334 -0.992115 -0
    outer loop
      vertex 1.50842 7.90741 25
      vertex 0.505464 8.03411 0
      vertex 1.50842 7.90741 0
    endloop
  endfacet
  facet normal 0.904827 -0.425779 0
    outer loop
      vertex -7.4847 2.9634 25
      vertex -7.05427 3.87812 0
      vertex -7.05427 3.87812 25
    endloop
  endfacet
  facet normal 0.904827 -0.425779 0
    outer loop
      vertex -7.05427 3.87812 0
      vertex -7.4847 2.9634 25
      vertex -7.4847 2.9634 0
    endloop
  endfacet
  facet normal 0.248689 -0.968583 0
    outer loop
      vertex -2.48759 7.656 0
      vertex -1.50842 7.90741 25
      vertex -2.48759 7.656 25
    endloop
  endfacet
  facet normal 0.248689 -0.968583 0
    outer loop
      vertex -1.50842 7.90741 25
      vertex -2.48759 7.656 0
      vertex -1.50842 7.90741 0
    endloop
  endfacet
  facet normal -0.481753 0.876307 0
    outer loop
      vertex 4.31341 -6.79684 0
      vertex 3.42752 -7.28386 25
      vertex 4.31341 -6.79684 25
    endloop
  endfacet
  facet normal -0.481753 0.876307 0
    outer loop
      vertex 3.42752 -7.28386 25
      vertex 4.31341 -6.79684 0
      vertex 3.42752 -7.28386 0
    endloop
  endfacet
  facet normal -0.844328 0.535827 0
    outer loop
      vertex 6.51259 -4.73167 0
      vertex 7.05427 -3.87812 25
      vertex 7.05427 -3.87812 0
    endloop
  endfacet
  facet normal -0.844328 0.535827 0
    outer loop
      vertex 7.05427 -3.87812 25
      vertex 6.51259 -4.73167 0
      vertex 6.51259 -4.73167 25
    endloop
  endfacet
  facet normal -0.951056 0.309017 0
    outer loop
      vertex 7.4847 -2.9634 0
      vertex 7.79709 -2.00195 25
      vertex 7.79709 -2.00195 0
    endloop
  endfacet
  facet normal -0.951056 0.309017 0
    outer loop
      vertex 7.79709 -2.00195 25
      vertex 7.4847 -2.9634 0
      vertex 7.4847 -2.9634 25
    endloop
  endfacet
  facet normal -0.982287 0.187381 0
    outer loop
      vertex 7.79709 -2.00195 0
      vertex 7.98652 -1.00893 25
      vertex 7.98652 -1.00893 0
    endloop
  endfacet
  facet normal -0.982287 0.187381 0
    outer loop
      vertex 7.98652 -1.00893 25
      vertex 7.79709 -2.00195 0
      vertex 7.79709 -2.00195 25
    endloop
  endfacet
  facet normal 0.951056 0.309017 0
    outer loop
      vertex -7.4847 -2.9634 25
      vertex -7.79709 -2.00195 0
      vertex -7.79709 -2.00195 25
    endloop
  endfacet
  facet normal 0.951056 0.309017 0
    outer loop
      vertex -7.79709 -2.00195 0
      vertex -7.4847 -2.9634 25
      vertex -7.4847 -2.9634 0
    endloop
  endfacet
  facet normal -0.368125 0.929776 0
    outer loop
      vertex 3.42752 -7.28386 0
      vertex 2.48759 -7.656 25
      vertex 3.42752 -7.28386 25
    endloop
  endfacet
  facet normal -0.368125 0.929776 0
    outer loop
      vertex 2.48759 -7.656 25
      vertex 3.42752 -7.28386 0
      vertex 2.48759 -7.656 0
    endloop
  endfacet
  facet normal -0.248689 0.968583 0
    outer loop
      vertex 2.48759 -7.656 0
      vertex 1.50842 -7.90741 25
      vertex 2.48759 -7.656 25
    endloop
  endfacet
  facet normal -0.248689 0.968583 0
    outer loop
      vertex 1.50842 -7.90741 25
      vertex 2.48759 -7.656 0
      vertex 1.50842 -7.90741 0
    endloop
  endfacet
  facet normal -0.481753 -0.876307 0
    outer loop
      vertex 3.42752 7.28386 0
      vertex 4.31341 6.79684 25
      vertex 3.42752 7.28386 25
    endloop
  endfacet
  facet normal -0.481753 -0.876307 -0
    outer loop
      vertex 4.31341 6.79684 25
      vertex 3.42752 7.28386 0
      vertex 4.31341 6.79684 0
    endloop
  endfacet
  facet normal 0.982287 -0.187381 0
    outer loop
      vertex -7.98652 1.00893 25
      vertex -7.79709 2.00195 0
      vertex -7.79709 2.00195 25
    endloop
  endfacet
  facet normal 0.982287 -0.187381 0
    outer loop
      vertex -7.79709 2.00195 0
      vertex -7.98652 1.00893 25
      vertex -7.98652 1.00893 0
    endloop
  endfacet
  facet normal 0.587785 -0.809017 0
    outer loop
      vertex -5.13126 6.20263 0
      vertex -4.31341 6.79684 25
      vertex -5.13126 6.20263 25
    endloop
  endfacet
  facet normal 0.587785 -0.809017 0
    outer loop
      vertex -4.31341 6.79684 25
      vertex -5.13126 6.20263 0
      vertex -4.31341 6.79684 0
    endloop
  endfacet
  facet normal -0.904827 0.425779 0
    outer loop
      vertex 7.05427 -3.87812 0
      vertex 7.4847 -2.9634 25
      vertex 7.4847 -2.9634 0
    endloop
  endfacet
  facet normal -0.904827 0.425779 0
    outer loop
      vertex 7.4847 -2.9634 25
      vertex 7.05427 -3.87812 0
      vertex 7.05427 -3.87812 25
    endloop
  endfacet
  facet normal 0 1 -0
    outer loop
      vertex 0.505464 -8.03411 0
      vertex -0.505464 -8.03411 25
      vertex 0.505464 -8.03411 25
    endloop
  endfacet
  facet normal 0 1 0
    outer loop
      vertex -0.505464 -8.03411 25
      vertex 0.505464 -8.03411 0
      vertex -0.505464 -8.03411 0
    endloop
  endfacet
  facet normal 0.684547 0.728969 -0
    outer loop
      vertex -5.13126 -6.20263 0
      vertex -5.8682 -5.5106 25
      vertex -5.13126 -6.20263 25
    endloop
  endfacet
  facet normal 0.684547 0.728969 0
    outer loop
      vertex -5.8682 -5.5106 25
      vertex -5.13126 -6.20263 0
      vertex -5.8682 -5.5106 0
    endloop
  endfacet
  facet normal 0.770514 0.637424 0
    outer loop
      vertex -5.8682 -5.5106 25
      vertex -6.51259 -4.73167 0
      vertex -6.51259 -4.73167 25
    endloop
  endfacet
  facet normal 0.770514 0.637424 0
    outer loop
      vertex -6.51259 -4.73167 0
      vertex -5.8682 -5.5106 25
      vertex -5.8682 -5.5106 0
    endloop
  endfacet
  facet normal 0.998027 0.0627905 0
    outer loop
      vertex -7.98652 -1.00893 25
      vertex -8.05 0 0
      vertex -8.05 0 25
    endloop
  endfacet
  facet normal 0.998027 0.0627905 0
    outer loop
      vertex -8.05 0 0
      vertex -7.98652 -1.00893 25
      vertex -7.98652 -1.00893 0
    endloop
  endfacet
  facet normal -0.587785 0.809017 0
    outer loop
      vertex 5.13126 -6.20263 0
      vertex 4.31341 -6.79684 25
      vertex 5.13126 -6.20263 25
    endloop
  endfacet
  facet normal -0.587785 0.809017 0
    outer loop
      vertex 4.31341 -6.79684 25
      vertex 5.13126 -6.20263 0
      vertex 4.31341 -6.79684 0
    endloop
  endfacet
  facet normal -0.684547 0.728969 0
    outer loop
      vertex 5.8682 -5.5106 0
      vertex 5.13126 -6.20263 25
      vertex 5.8682 -5.5106 25
    endloop
  endfacet
  facet normal -0.684547 0.728969 0
    outer loop
      vertex 5.13126 -6.20263 25
      vertex 5.8682 -5.5106 0
      vertex 5.13126 -6.20263 0
    endloop
  endfacet
  facet normal 0.844328 0.535827 0
    outer loop
      vertex -6.51259 -4.73167 25
      vertex -7.05427 -3.87812 0
      vertex -7.05427 -3.87812 25
    endloop
  endfacet
  facet normal 0.844328 0.535827 0
    outer loop
      vertex -7.05427 -3.87812 0
      vertex -6.51259 -4.73167 25
      vertex -6.51259 -4.73167 0
    endloop
  endfacet
  facet normal 0.904827 0.425779 0
    outer loop
      vertex -7.05427 -3.87812 25
      vertex -7.4847 -2.9634 0
      vertex -7.4847 -2.9634 25
    endloop
  endfacet
  facet normal 0.904827 0.425779 0
    outer loop
      vertex -7.4847 -2.9634 0
      vertex -7.05427 -3.87812 25
      vertex -7.05427 -3.87812 0
    endloop
  endfacet
  facet normal 0.982287 0.187381 0
    outer loop
      vertex -7.79709 -2.00195 25
      vertex -7.98652 -1.00893 0
      vertex -7.98652 -1.00893 25
    endloop
  endfacet
  facet normal 0.982287 0.187381 0
    outer loop
      vertex -7.98652 -1.00893 0
      vertex -7.79709 -2.00195 25
      vertex -7.79709 -2.00195 0
    endloop
  endfacet
  facet normal 0.125334 0.992115 -0
    outer loop
      vertex -0.505464 -8.03411 0
      vertex -1.50842 -7.90741 25
      vertex -0.505464 -8.03411 25
    endloop
  endfacet
  facet normal 0.125334 0.992115 0
    outer loop
      vertex -1.50842 -7.90741 25
      vertex -0.505464 -8.03411 0
      vertex -1.50842 -7.90741 0
    endloop
  endfacet
  facet normal 0.481753 0.876307 -0
    outer loop
      vertex -3.42752 -7.28386 0
      vertex -4.31341 -6.79684 25
      vertex -3.42752 -7.28386 25
    endloop
  endfacet
  facet normal 0.481753 0.876307 0
    outer loop
      vertex -4.31341 -6.79684 25
      vertex -3.42752 -7.28386 0
      vertex -4.31341 -6.79684 0
    endloop
  endfacet
  facet normal 0.587785 0.809017 -0
    outer loop
      vertex -4.31341 -6.79684 0
      vertex -5.13126 -6.20263 25
      vertex -4.31341 -6.79684 25
    endloop
  endfacet
  facet normal 0.587785 0.809017 0
    outer loop
      vertex -5.13126 -6.20263 25
      vertex -4.31341 -6.79684 0
      vertex -5.13126 -6.20263 0
    endloop
  endfacet
  facet normal 0.368125 0.929776 -0
    outer loop
      vertex -2.48759 -7.656 0
      vertex -3.42752 -7.28386 25
      vertex -2.48759 -7.656 25
    endloop
  endfacet
  facet normal 0.368125 0.929776 0
    outer loop
      vertex -3.42752 -7.28386 25
      vertex -2.48759 -7.656 0
      vertex -3.42752 -7.28386 0
    endloop
  endfacet
  facet normal -0 0 1
    outer loop
      vertex 10.3062 -3 28
      vertex 10.6924 -4.23343 28
      vertex 11.0932 -3 28
    endloop
  endfacet
  facet normal -0 0 1
    outer loop
      vertex 9.9951 -3.95734 28
      vertex 10.6924 -4.23343 28
      vertex 10.3062 -3 28
    endloop
  endfacet
  facet normal 0 0 1
    outer loop
      vertex 10.6924 -4.23343 28
      vertex 9.9951 -3.95734 28
      vertex 10.0775 -5.54017 28
    endloop
  endfacet
  facet normal -0 0 1
    outer loop
      vertex 9.4203 -5.17885 28
      vertex 10.0775 -5.54017 28
      vertex 9.9951 -3.95734 28
    endloop
  endfacet
  facet normal 0 0 1
    outer loop
      vertex 9.4203 -5.17885 28
      vertex 9.30369 -6.75953 28
      vertex 10.0775 -5.54017 28
    endloop
  endfacet
  facet normal -0 0 1
    outer loop
      vertex 8.69693 -6.31869 28
      vertex 9.30369 -6.75953 28
      vertex 9.4203 -5.17885 28
    endloop
  endfacet
  facet normal 0 0 1
    outer loop
      vertex 8.69693 -6.31869 28
      vertex 8.38314 -7.87229 28
      vertex 9.30369 -6.75953 28
    endloop
  endfacet
  facet normal -0 0 1
    outer loop
      vertex 7.83641 -7.35888 28
      vertex 8.38314 -7.87229 28
      vertex 8.69693 -6.31869 28
    endloop
  endfacet
  facet normal 0 0 1
    outer loop
      vertex 7.83641 -7.35888 28
      vertex 7.33038 -8.8609 28
      vertex 8.38314 -7.87229 28
    endloop
  endfacet
  facet normal -0 0 1
    outer loop
      vertex 6.85231 -8.28302 28
      vertex 7.33038 -8.8609 28
      vertex 7.83641 -7.35888 28
    endloop
  endfacet
  facet normal 0 0 1
    outer loop
      vertex 6.85231 -8.28302 28
      vertex 6.16201 -9.70977 28
      vertex 7.33038 -8.8609 28
    endloop
  endfacet
  facet normal -0 0 1
    outer loop
      vertex 5.76014 -9.07652 28
      vertex 6.16201 -9.70977 28
      vertex 6.85231 -8.28302 28
    endloop
  endfacet
  facet normal 0 0 1
    outer loop
      vertex 5.76014 -9.07652 28
      vertex 4.89646 -10.4055 28
      vertex 6.16201 -9.70977 28
    endloop
  endfacet
  facet normal -0 0 1
    outer loop
      vertex 4.57713 -9.72689 28
      vertex 4.89646 -10.4055 28
      vertex 5.76014 -9.07652 28
    endloop
  endfacet
  facet normal 0 0 1
    outer loop
      vertex 4.57713 -9.72689 28
      vertex 3.55369 -10.9371 28
      vertex 4.89646 -10.4055 28
    endloop
  endfacet
  facet normal -0 0 1
    outer loop
      vertex 3.32193 -10.2239 28
      vertex 3.55369 -10.9371 28
      vertex 4.57713 -9.72689 28
    endloop
  endfacet
  facet normal 0 0 1
    outer loop
      vertex 3.32193 -10.2239 28
      vertex 2.15488 -11.2963 28
      vertex 3.55369 -10.9371 28
    endloop
  endfacet
  facet normal -0 0 1
    outer loop
      vertex 2.01435 -10.5596 28
      vertex 2.15488 -11.2963 28
      vertex 3.32193 -10.2239 28
    endloop
  endfacet
  facet normal 0 0 1
    outer loop
      vertex 2.01435 -10.5596 28
      vertex 0.722091 -11.4773 28
      vertex 2.15488 -11.2963 28
    endloop
  endfacet
  facet normal -0 0 1
    outer loop
      vertex 0.674997 -10.7288 28
      vertex 0.722091 -11.4773 28
      vertex 2.01435 -10.5596 28
    endloop
  endfacet
  facet normal -0 0 1
    outer loop
      vertex -0.674997 -10.7288 28
      vertex 0.722091 -11.4773 28
      vertex 0.674997 -10.7288 28
    endloop
  endfacet
  facet normal 0 0 1
    outer loop
      vertex -0.674997 -10.7288 28
      vertex -0.722091 -11.4773 28
      vertex 0.722091 -11.4773 28
    endloop
  endfacet
  facet normal 0 0 1
    outer loop
      vertex -2.01435 -10.5596 28
      vertex -0.722091 -11.4773 28
      vertex -0.674997 -10.7288 28
    endloop
  endfacet
  facet normal 0 0 1
    outer loop
      vertex -2.01435 -10.5596 28
      vertex -2.15488 -11.2963 28
      vertex -0.722091 -11.4773 28
    endloop
  endfacet
  facet normal 0 0 1
    outer loop
      vertex -3.32193 -10.2239 28
      vertex -2.15488 -11.2963 28
      vertex -2.01435 -10.5596 28
    endloop
  endfacet
  facet normal 0 0 1
    outer loop
      vertex -3.32193 -10.2239 28
      vertex -3.55369 -10.9371 28
      vertex -2.15488 -11.2963 28
    endloop
  endfacet
  facet normal 0 0 1
    outer loop
      vertex -4.57713 -9.72689 28
      vertex -3.55369 -10.9371 28
      vertex -3.32193 -10.2239 28
    endloop
  endfacet
  facet normal 0 0 1
    outer loop
      vertex -4.57713 -9.72689 28
      vertex -4.89646 -10.4055 28
      vertex -3.55369 -10.9371 28
    endloop
  endfacet
  facet normal 0 0 1
    outer loop
      vertex -5.76014 -9.07652 28
      vertex -4.89646 -10.4055 28
      vertex -4.57713 -9.72689 28
    endloop
  endfacet
  facet normal 0 0 1
    outer loop
      vertex -5.76014 -9.07652 28
      vertex -6.16201 -9.70977 28
      vertex -4.89646 -10.4055 28
    endloop
  endfacet
  facet normal 0 0 1
    outer loop
      vertex -6.85231 -8.28302 28
      vertex -6.16201 -9.70977 28
      vertex -5.76014 -9.07652 28
    endloop
  endfacet
  facet normal 0 0 1
    outer loop
      vertex -6.85231 -8.28302 28
      vertex -7.33038 -8.8609 28
      vertex -6.16201 -9.70977 28
    endloop
  endfacet
  facet normal 0 0 1
    outer loop
      vertex -7.83641 -7.35888 28
      vertex -7.33038 -8.8609 28
      vertex -6.85231 -8.28302 28
    endloop
  endfacet
  facet normal 0 0 1
    outer loop
      vertex -7.83641 -7.35888 28
      vertex -8.38314 -7.87229 28
      vertex -7.33038 -8.8609 28
    endloop
  endfacet
  facet normal 0 0 1
    outer loop
      vertex -8.69693 -6.31869 28
      vertex -8.38314 -7.87229 28
      vertex -7.83641 -7.35888 28
    endloop
  endfacet
  facet normal 0 0 1
    outer loop
      vertex -8.69693 -6.31869 28
      vertex -9.30369 -6.75953 28
      vertex -8.38314 -7.87229 28
    endloop
  endfacet
  facet normal 0 0 1
    outer loop
      vertex -9.4203 -5.17885 28
      vertex -9.30369 -6.75953 28
      vertex -8.69693 -6.31869 28
    endloop
  endfacet
  facet normal 0 0 1
    outer loop
      vertex -10.0775 -5.54017 28
      vertex -9.4203 -5.17885 28
      vertex -9.9951 -3.95734 28
    endloop
  endfacet
  facet normal 0 0 1
    outer loop
      vertex -9.4203 -5.17885 28
      vertex -10.0775 -5.54017 28
      vertex -9.30369 -6.75953 28
    endloop
  endfacet
  facet normal 0 0 1
    outer loop
      vertex -10.6924 -4.23343 28
      vertex -9.9951 -3.95734 28
      vertex -10.3062 -3 28
    endloop
  endfacet
  facet normal 0 0 1
    outer loop
      vertex -9.9951 -3.95734 28
      vertex -10.6924 -4.23343 28
      vertex -10.0775 -5.54017 28
    endloop
  endfacet
  facet normal 0 -0 1
    outer loop
      vertex -10.6924 -4.23343 28
      vertex -10.3062 -3 28
      vertex -11.0932 -3 28
    endloop
  endfacet
  facet normal 0 1 -0
    outer loop
      vertex 0.674997 -10.7288 25
      vertex -0.674997 -10.7288 28
      vertex 0.674997 -10.7288 28
    endloop
  endfacet
  facet normal 0 1 0
    outer loop
      vertex -0.674997 -10.7288 28
      vertex 0.674997 -10.7288 25
      vertex -0.674997 -10.7288 25
    endloop
  endfacet
  facet normal -0.684547 0.728969 0
    outer loop
      vertex 7.83641 -7.35888 25
      vertex 6.85231 -8.28302 28
      vertex 7.83641 -7.35888 28
    endloop
  endfacet
  facet normal -0.684547 0.728969 0
    outer loop
      vertex 6.85231 -8.28302 28
      vertex 7.83641 -7.35888 25
      vertex 6.85231 -8.28302 25
    endloop
  endfacet
  facet normal -0.125333 0.992115 0
    outer loop
      vertex 2.01435 -10.5596 25
      vertex 0.674997 -10.7288 28
      vertex 2.01435 -10.5596 28
    endloop
  endfacet
  facet normal -0.125333 0.992115 0
    outer loop
      vertex 0.674997 -10.7288 28
      vertex 2.01435 -10.5596 25
      vertex 0.674997 -10.7288 25
    endloop
  endfacet
  facet normal -0.904827 0.425779 0
    outer loop
      vertex 9.4203 -5.17885 25
      vertex 9.9951 -3.95734 28
      vertex 9.9951 -3.95734 25
    endloop
  endfacet
  facet normal -0.904827 0.425779 0
    outer loop
      vertex 9.9951 -3.95734 28
      vertex 9.4203 -5.17885 25
      vertex 9.4203 -5.17885 28
    endloop
  endfacet
  facet normal 0.904827 0.425779 0
    outer loop
      vertex -9.4203 -5.17885 28
      vertex -9.9951 -3.95734 25
      vertex -9.9951 -3.95734 28
    endloop
  endfacet
  facet normal 0.904827 0.425779 0
    outer loop
      vertex -9.9951 -3.95734 25
      vertex -9.4203 -5.17885 28
      vertex -9.4203 -5.17885 25
    endloop
  endfacet
  facet normal -0.587785 0.809017 0
    outer loop
      vertex 6.85231 -8.28302 25
      vertex 5.76014 -9.07652 28
      vertex 6.85231 -8.28302 28
    endloop
  endfacet
  facet normal -0.587785 0.809017 0
    outer loop
      vertex 5.76014 -9.07652 28
      vertex 6.85231 -8.28302 25
      vertex 5.76014 -9.07652 25
    endloop
  endfacet
  facet normal -0.368124 0.929777 0
    outer loop
      vertex 4.57713 -9.72689 25
      vertex 3.32193 -10.2239 28
      vertex 4.57713 -9.72689 28
    endloop
  endfacet
  facet normal -0.368124 0.929777 0
    outer loop
      vertex 3.32193 -10.2239 28
      vertex 4.57713 -9.72689 25
      vertex 3.32193 -10.2239 25
    endloop
  endfacet
  facet normal -0.951057 0.309017 0
    outer loop
      vertex 9.9951 -3.95734 25
      vertex 10.3062 -3 28
      vertex 10.3062 -3 25
    endloop
  endfacet
  facet normal -0.951057 0.309017 0
    outer loop
      vertex 10.3062 -3 28
      vertex 9.9951 -3.95734 25
      vertex 9.9951 -3.95734 28
    endloop
  endfacet
  facet normal 0.481754 0.876307 -0
    outer loop
      vertex -4.57713 -9.72689 25
      vertex -5.76014 -9.07652 28
      vertex -4.57713 -9.72689 28
    endloop
  endfacet
  facet normal 0.481754 0.876307 0
    outer loop
      vertex -5.76014 -9.07652 28
      vertex -4.57713 -9.72689 25
      vertex -5.76014 -9.07652 25
    endloop
  endfacet
  facet normal 0.684547 0.728969 -0
    outer loop
      vertex -6.85231 -8.28302 25
      vertex -7.83641 -7.35888 28
      vertex -6.85231 -8.28302 28
    endloop
  endfacet
  facet normal 0.684547 0.728969 0
    outer loop
      vertex -7.83641 -7.35888 28
      vertex -6.85231 -8.28302 25
      vertex -7.83641 -7.35888 25
    endloop
  endfacet
  facet normal 0.951057 0.309017 0
    outer loop
      vertex -9.9951 -3.95734 28
      vertex -10.3062 -3 25
      vertex -10.3062 -3 28
    endloop
  endfacet
  facet normal 0.951057 0.309017 0
    outer loop
      vertex -10.3062 -3 25
      vertex -9.9951 -3.95734 28
      vertex -9.9951 -3.95734 25
    endloop
  endfacet
  facet normal -0.481754 0.876307 0
    outer loop
      vertex 5.76014 -9.07652 25
      vertex 4.57713 -9.72689 28
      vertex 5.76014 -9.07652 28
    endloop
  endfacet
  facet normal -0.481754 0.876307 0
    outer loop
      vertex 4.57713 -9.72689 28
      vertex 5.76014 -9.07652 25
      vertex 4.57713 -9.72689 25
    endloop
  endfacet
  facet normal -0.24869 0.968583 0
    outer loop
      vertex 3.32193 -10.2239 25
      vertex 2.01435 -10.5596 28
      vertex 3.32193 -10.2239 28
    endloop
  endfacet
  facet normal -0.24869 0.968583 0
    outer loop
      vertex 2.01435 -10.5596 28
      vertex 3.32193 -10.2239 25
      vertex 2.01435 -10.5596 25
    endloop
  endfacet
  facet normal -0.844328 0.535827 0
    outer loop
      vertex 8.69693 -6.31869 25
      vertex 9.4203 -5.17885 28
      vertex 9.4203 -5.17885 25
    endloop
  endfacet
  facet normal -0.844328 0.535827 0
    outer loop
      vertex 9.4203 -5.17885 28
      vertex 8.69693 -6.31869 25
      vertex 8.69693 -6.31869 28
    endloop
  endfacet
  facet normal -0.770513 0.637424 0
    outer loop
      vertex 7.83641 -7.35888 25
      vertex 8.69693 -6.31869 28
      vertex 8.69693 -6.31869 25
    endloop
  endfacet
  facet normal -0.770513 0.637424 0
    outer loop
      vertex 8.69693 -6.31869 28
      vertex 7.83641 -7.35888 25
      vertex 7.83641 -7.35888 28
    endloop
  endfacet
  facet normal 0.125333 0.992115 -0
    outer loop
      vertex -0.674997 -10.7288 25
      vertex -2.01435 -10.5596 28
      vertex -0.674997 -10.7288 28
    endloop
  endfacet
  facet normal 0.125333 0.992115 0
    outer loop
      vertex -2.01435 -10.5596 28
      vertex -0.674997 -10.7288 25
      vertex -2.01435 -10.5596 25
    endloop
  endfacet
  facet normal 0.368124 0.929777 -0
    outer loop
      vertex -3.32193 -10.2239 25
      vertex -4.57713 -9.72689 28
      vertex -3.32193 -10.2239 28
    endloop
  endfacet
  facet normal 0.368124 0.929777 0
    outer loop
      vertex -4.57713 -9.72689 28
      vertex -3.32193 -10.2239 25
      vertex -4.57713 -9.72689 25
    endloop
  endfacet
  facet normal 0.24869 0.968583 -0
    outer loop
      vertex -2.01435 -10.5596 25
      vertex -3.32193 -10.2239 28
      vertex -2.01435 -10.5596 28
    endloop
  endfacet
  facet normal 0.24869 0.968583 0
    outer loop
      vertex -3.32193 -10.2239 28
      vertex -2.01435 -10.5596 25
      vertex -3.32193 -10.2239 25
    endloop
  endfacet
  facet normal 0.587785 0.809017 -0
    outer loop
      vertex -5.76014 -9.07652 25
      vertex -6.85231 -8.28302 28
      vertex -5.76014 -9.07652 28
    endloop
  endfacet
  facet normal 0.587785 0.809017 0
    outer loop
      vertex -6.85231 -8.28302 28
      vertex -5.76014 -9.07652 25
      vertex -6.85231 -8.28302 25
    endloop
  endfacet
  facet normal 0.770513 0.637424 0
    outer loop
      vertex -7.83641 -7.35888 28
      vertex -8.69693 -6.31869 25
      vertex -8.69693 -6.31869 28
    endloop
  endfacet
  facet normal 0.770513 0.637424 0
    outer loop
      vertex -8.69693 -6.31869 25
      vertex -7.83641 -7.35888 28
      vertex -7.83641 -7.35888 25
    endloop
  endfacet
  facet normal 0.844328 0.535827 0
    outer loop
      vertex -8.69693 -6.31869 28
      vertex -9.4203 -5.17885 25
      vertex -9.4203 -5.17885 28
    endloop
  endfacet
  facet normal 0.844328 0.535827 0
    outer loop
      vertex -9.4203 -5.17885 25
      vertex -8.69693 -6.31869 28
      vertex -8.69693 -6.31869 25
    endloop
  endfacet
  facet normal 0 1 -0
    outer loop
      vertex -10.3062 -3 25
      vertex -11.0932 -3 28
      vertex -10.3062 -3 28
    endloop
  endfacet
  facet normal 0 1 0
    outer loop
      vertex -11.0932 -3 28
      vertex -10.3062 -3 25
      vertex -11.0932 -3 25
    endloop
  endfacet
  facet normal 0 1 -0
    outer loop
      vertex 11.0932 -3 25
      vertex 10.3062 -3 28
      vertex 11.0932 -3 28
    endloop
  endfacet
  facet normal 0 1 0
    outer loop
      vertex 10.3062 -3 28
      vertex 11.0932 -3 25
      vertex 10.3062 -3 25
    endloop
  endfacet
  facet normal 1 -0 0
    outer loop
      vertex -0.599999 8.02217 3.1
      vertex -0.599999 11.4773 0
      vertex -0.599999 11.4773 3.1
    endloop
  endfacet
  facet normal 1 0 0
    outer loop
      vertex -0.599999 11.4773 0
      vertex -0.599999 8.02217 3.1
      vertex -0.599999 8.02217 0
    endloop
  endfacet
  facet normal 0 0 -1
    outer loop
      vertex -0.505464 8.03411 3.1
      vertex 0.4 11.4773 3.1
      vertex 0.4 8.03411 3.1
    endloop
  endfacet
  facet normal 0 0 -1
    outer loop
      vertex -0.599999 11.4773 3.1
      vertex -0.505464 8.03411 3.1
      vertex -0.599999 8.02217 3.1
    endloop
  endfacet
  facet normal 0 0 -1
    outer loop
      vertex -0.505464 8.03411 3.1
      vertex -0.599999 11.4773 3.1
      vertex 0.4 11.4773 3.1
    endloop
  endfacet
  facet normal -1 0 0
    outer loop
      vertex 0.4 8.03411 0
      vertex 0.4 11.4773 3.1
      vertex 0.4 11.4773 0
    endloop
  endfacet
  facet normal -1 -0 0
    outer loop
      vertex 0.4 11.4773 3.1
      vertex 0.4 8.03411 0
      vertex 0.4 8.03411 3.1
    endloop
  endfacet
endsolid OpenSCAD_Model
